mode: greedy-simulated-annhealing
n1=256 n2=256 n3=256 nreps=10 num_threads=4 HALF_LENGTH=8
n1_thrd_block=160 n2_thrd_block=112 n3_thrd_block=48
allocating prev, next and vel: total 192 Mbytes
-------------------------------
time:           1.83 sec
throughput:    75.34 MPoints/s
flops:          4.60 GFlops

n1=256 n2=256 n3=256 nreps=10 num_threads=4 HALF_LENGTH=8
n1_thrd_block=176 n2_thrd_block=112 n3_thrd_block=48
allocating prev, next and vel: total 192 Mbytes
-------------------------------
time:           1.93 sec
throughput:    71.77 MPoints/s
flops:          4.38 GFlops

n1=256 n2=256 n3=256 nreps=10 num_threads=4 HALF_LENGTH=8
n1_thrd_block=144 n2_thrd_block=112 n3_thrd_block=48
allocating prev, next and vel: total 192 Mbytes
-------------------------------
time:           1.79 sec
throughput:    77.32 MPoints/s
flops:          4.72 GFlops

n1=256 n2=256 n3=256 nreps=10 num_threads=4 HALF_LENGTH=8
n1_thrd_block=160 n2_thrd_block=116 n3_thrd_block=48
allocating prev, next and vel: total 192 Mbytes
-------------------------------
time:           1.90 sec
throughput:    72.84 MPoints/s
flops:          4.44 GFlops

n1=256 n2=256 n3=256 nreps=10 num_threads=4 HALF_LENGTH=8
n1_thrd_block=160 n2_thrd_block=108 n3_thrd_block=48
allocating prev, next and vel: total 192 Mbytes
-------------------------------
time:           1.79 sec
throughput:    77.32 MPoints/s
flops:          4.72 GFlops

n1=256 n2=256 n3=256 nreps=10 num_threads=4 HALF_LENGTH=8
n1_thrd_block=160 n2_thrd_block=112 n3_thrd_block=52
allocating prev, next and vel: total 192 Mbytes
-------------------------------
time:           1.84 sec
throughput:    75.09 MPoints/s
flops:          4.58 GFlops

n1=256 n2=256 n3=256 nreps=10 num_threads=4 HALF_LENGTH=8
n1_thrd_block=160 n2_thrd_block=112 n3_thrd_block=44
allocating prev, next and vel: total 192 Mbytes
-------------------------------
time:           1.84 sec
throughput:    75.08 MPoints/s
flops:          4.58 GFlops

n1=256 n2=256 n3=256 nreps=10 num_threads=4 HALF_LENGTH=8
n1_thrd_block=160 n2_thrd_block=112 n3_thrd_block=48
allocating prev, next and vel: total 192 Mbytes
-------------------------------
time:           1.83 sec
throughput:    75.35 MPoints/s
flops:          4.60 GFlops

n1=256 n2=256 n3=256 nreps=10 num_threads=4 HALF_LENGTH=8
n1_thrd_block=128 n2_thrd_block=112 n3_thrd_block=48
allocating prev, next and vel: total 192 Mbytes
-------------------------------
time:           1.79 sec
throughput:    77.44 MPoints/s
flops:          4.72 GFlops

n1=256 n2=256 n3=256 nreps=10 num_threads=4 HALF_LENGTH=8
n1_thrd_block=144 n2_thrd_block=116 n3_thrd_block=48
allocating prev, next and vel: total 192 Mbytes
-------------------------------
time:           1.87 sec
throughput:    74.07 MPoints/s
flops:          4.52 GFlops

n1=256 n2=256 n3=256 nreps=10 num_threads=4 HALF_LENGTH=8
n1_thrd_block=144 n2_thrd_block=108 n3_thrd_block=48
allocating prev, next and vel: total 192 Mbytes
-------------------------------
time:           1.73 sec
throughput:    79.91 MPoints/s
flops:          4.87 GFlops

n1=256 n2=256 n3=256 nreps=10 num_threads=4 HALF_LENGTH=8
n1_thrd_block=144 n2_thrd_block=112 n3_thrd_block=52
allocating prev, next and vel: total 192 Mbytes
-------------------------------
time:           1.93 sec
throughput:    71.64 MPoints/s
flops:          4.37 GFlops

n1=256 n2=256 n3=256 nreps=10 num_threads=4 HALF_LENGTH=8
n1_thrd_block=144 n2_thrd_block=112 n3_thrd_block=44
allocating prev, next and vel: total 192 Mbytes
-------------------------------
time:           1.71 sec
throughput:    80.83 MPoints/s
flops:          4.93 GFlops

n1=256 n2=256 n3=256 nreps=10 num_threads=4 HALF_LENGTH=8
n1_thrd_block=160 n2_thrd_block=112 n3_thrd_block=44
allocating prev, next and vel: total 192 Mbytes
-------------------------------
time:           1.75 sec
throughput:    79.04 MPoints/s
flops:          4.82 GFlops

n1=256 n2=256 n3=256 nreps=10 num_threads=4 HALF_LENGTH=8
n1_thrd_block=128 n2_thrd_block=112 n3_thrd_block=44
allocating prev, next and vel: total 192 Mbytes
-------------------------------
time:           1.68 sec
throughput:    82.49 MPoints/s
flops:          5.03 GFlops

n1=256 n2=256 n3=256 nreps=10 num_threads=4 HALF_LENGTH=8
n1_thrd_block=144 n2_thrd_block=116 n3_thrd_block=44
allocating prev, next and vel: total 192 Mbytes
-------------------------------
time:           1.68 sec
throughput:    82.16 MPoints/s
flops:          5.01 GFlops

n1=256 n2=256 n3=256 nreps=10 num_threads=4 HALF_LENGTH=8
n1_thrd_block=144 n2_thrd_block=108 n3_thrd_block=44
allocating prev, next and vel: total 192 Mbytes
-------------------------------
time:           1.59 sec
throughput:    86.76 MPoints/s
flops:          5.29 GFlops

n1=256 n2=256 n3=256 nreps=10 num_threads=4 HALF_LENGTH=8
n1_thrd_block=144 n2_thrd_block=112 n3_thrd_block=48
allocating prev, next and vel: total 192 Mbytes
-------------------------------
time:           1.64 sec
throughput:    84.27 MPoints/s
flops:          5.14 GFlops

n1=256 n2=256 n3=256 nreps=10 num_threads=4 HALF_LENGTH=8
n1_thrd_block=144 n2_thrd_block=112 n3_thrd_block=40
allocating prev, next and vel: total 192 Mbytes
-------------------------------
time:           1.62 sec
throughput:    85.08 MPoints/s
flops:          5.19 GFlops

mode: greedy-simulated-annhealing
n1=256 n2=256 n3=256 nreps=10 num_threads=4 HALF_LENGTH=8
n1_thrd_block=48 n2_thrd_block=80 n3_thrd_block=36
allocating prev, next and vel: total 192 Mbytes
-------------------------------
time:           1.80 sec
throughput:    76.89 MPoints/s
flops:          4.69 GFlops

n1=256 n2=256 n3=256 nreps=10 num_threads=4 HALF_LENGTH=8
n1_thrd_block=64 n2_thrd_block=80 n3_thrd_block=36
allocating prev, next and vel: total 192 Mbytes
-------------------------------
time:           1.81 sec
throughput:    76.36 MPoints/s
flops:          4.66 GFlops

n1=256 n2=256 n3=256 nreps=10 num_threads=4 HALF_LENGTH=8
n1_thrd_block=32 n2_thrd_block=80 n3_thrd_block=36
allocating prev, next and vel: total 192 Mbytes
-------------------------------
time:           1.95 sec
throughput:    71.04 MPoints/s
flops:          4.33 GFlops

n1=256 n2=256 n3=256 nreps=10 num_threads=4 HALF_LENGTH=8
n1_thrd_block=48 n2_thrd_block=84 n3_thrd_block=36
allocating prev, next and vel: total 192 Mbytes
-------------------------------
time:           1.81 sec
throughput:    76.50 MPoints/s
flops:          4.67 GFlops

n1=256 n2=256 n3=256 nreps=10 num_threads=4 HALF_LENGTH=8
n1_thrd_block=48 n2_thrd_block=76 n3_thrd_block=36
allocating prev, next and vel: total 192 Mbytes
-------------------------------
time:           1.77 sec
throughput:    78.06 MPoints/s
flops:          4.76 GFlops

n1=256 n2=256 n3=256 nreps=10 num_threads=4 HALF_LENGTH=8
n1_thrd_block=48 n2_thrd_block=80 n3_thrd_block=40
allocating prev, next and vel: total 192 Mbytes
-------------------------------
time:           1.80 sec
throughput:    76.94 MPoints/s
flops:          4.69 GFlops

n1=256 n2=256 n3=256 nreps=10 num_threads=4 HALF_LENGTH=8
n1_thrd_block=48 n2_thrd_block=80 n3_thrd_block=32
allocating prev, next and vel: total 192 Mbytes
-------------------------------
time:           1.82 sec
throughput:    76.11 MPoints/s
flops:          4.64 GFlops

n1=256 n2=256 n3=256 nreps=10 num_threads=4 HALF_LENGTH=8
n1_thrd_block=64 n2_thrd_block=76 n3_thrd_block=36
allocating prev, next and vel: total 192 Mbytes
-------------------------------
time:           1.73 sec
throughput:    79.92 MPoints/s
flops:          4.88 GFlops

n1=256 n2=256 n3=256 nreps=10 num_threads=4 HALF_LENGTH=8
n1_thrd_block=32 n2_thrd_block=76 n3_thrd_block=36
allocating prev, next and vel: total 192 Mbytes
-------------------------------
time:           1.94 sec
throughput:    71.16 MPoints/s
flops:          4.34 GFlops

n1=256 n2=256 n3=256 nreps=10 num_threads=4 HALF_LENGTH=8
n1_thrd_block=48 n2_thrd_block=80 n3_thrd_block=36
allocating prev, next and vel: total 192 Mbytes
-------------------------------
time:           1.82 sec
throughput:    76.15 MPoints/s
flops:          4.65 GFlops

n1=256 n2=256 n3=256 nreps=10 num_threads=4 HALF_LENGTH=8
n1_thrd_block=48 n2_thrd_block=72 n3_thrd_block=36
allocating prev, next and vel: total 192 Mbytes
-------------------------------
time:           1.73 sec
throughput:    79.97 MPoints/s
flops:          4.88 GFlops

n1=256 n2=256 n3=256 nreps=10 num_threads=4 HALF_LENGTH=8
n1_thrd_block=48 n2_thrd_block=76 n3_thrd_block=40
allocating prev, next and vel: total 192 Mbytes
-------------------------------
time:           1.80 sec
throughput:    76.60 MPoints/s
flops:          4.67 GFlops

n1=256 n2=256 n3=256 nreps=10 num_threads=4 HALF_LENGTH=8
n1_thrd_block=48 n2_thrd_block=76 n3_thrd_block=32
allocating prev, next and vel: total 192 Mbytes
-------------------------------
time:           1.76 sec
throughput:    78.59 MPoints/s
flops:          4.79 GFlops

n1=256 n2=256 n3=256 nreps=10 num_threads=4 HALF_LENGTH=8
n1_thrd_block=80 n2_thrd_block=76 n3_thrd_block=36
allocating prev, next and vel: total 192 Mbytes
-------------------------------
time:           1.66 sec
throughput:    83.44 MPoints/s
flops:          5.09 GFlops

n1=256 n2=256 n3=256 nreps=10 num_threads=4 HALF_LENGTH=8
n1_thrd_block=48 n2_thrd_block=76 n3_thrd_block=36
allocating prev, next and vel: total 192 Mbytes
-------------------------------
time:           1.73 sec
throughput:    79.81 MPoints/s
flops:          4.87 GFlops

n1=256 n2=256 n3=256 nreps=10 num_threads=4 HALF_LENGTH=8
n1_thrd_block=64 n2_thrd_block=80 n3_thrd_block=36
allocating prev, next and vel: total 192 Mbytes
-------------------------------
time:           1.65 sec
throughput:    83.62 MPoints/s
flops:          5.10 GFlops

n1=256 n2=256 n3=256 nreps=10 num_threads=4 HALF_LENGTH=8
n1_thrd_block=64 n2_thrd_block=72 n3_thrd_block=36
allocating prev, next and vel: total 192 Mbytes
-------------------------------
time:           1.55 sec
throughput:    89.10 MPoints/s
flops:          5.43 GFlops

n1=256 n2=256 n3=256 nreps=10 num_threads=4 HALF_LENGTH=8
n1_thrd_block=64 n2_thrd_block=76 n3_thrd_block=40
allocating prev, next and vel: total 192 Mbytes
-------------------------------
time:           1.65 sec
throughput:    83.82 MPoints/s
flops:          5.11 GFlops

n1=256 n2=256 n3=256 nreps=10 num_threads=4 HALF_LENGTH=8
n1_thrd_block=64 n2_thrd_block=76 n3_thrd_block=32
allocating prev, next and vel: total 192 Mbytes
-------------------------------
time:           1.60 sec
throughput:    86.29 MPoints/s
flops:          5.26 GFlops

mode: greedy-simulated-annhealing
n1=256 n2=256 n3=256 nreps=10 num_threads=4 HALF_LENGTH=8
n1_thrd_block=112 n2_thrd_block=28 n3_thrd_block=92
allocating prev, next and vel: total 192 Mbytes
-------------------------------
time:           1.15 sec
throughput:   120.56 MPoints/s
flops:          7.35 GFlops

n1=256 n2=256 n3=256 nreps=10 num_threads=4 HALF_LENGTH=8
n1_thrd_block=128 n2_thrd_block=28 n3_thrd_block=92
allocating prev, next and vel: total 192 Mbytes
-------------------------------
time:           1.28 sec
throughput:   108.26 MPoints/s
flops:          6.60 GFlops

n1=256 n2=256 n3=256 nreps=10 num_threads=4 HALF_LENGTH=8
n1_thrd_block=96 n2_thrd_block=28 n3_thrd_block=92
allocating prev, next and vel: total 192 Mbytes
-------------------------------
time:           1.25 sec
throughput:   110.56 MPoints/s
flops:          6.74 GFlops

n1=256 n2=256 n3=256 nreps=10 num_threads=4 HALF_LENGTH=8
n1_thrd_block=112 n2_thrd_block=32 n3_thrd_block=92
allocating prev, next and vel: total 192 Mbytes
-------------------------------
time:           1.20 sec
throughput:   114.75 MPoints/s
flops:          7.00 GFlops

n1=256 n2=256 n3=256 nreps=10 num_threads=4 HALF_LENGTH=8
n1_thrd_block=112 n2_thrd_block=24 n3_thrd_block=92
allocating prev, next and vel: total 192 Mbytes
-------------------------------
time:           1.14 sec
throughput:   121.39 MPoints/s
flops:          7.41 GFlops

n1=256 n2=256 n3=256 nreps=10 num_threads=4 HALF_LENGTH=8
n1_thrd_block=112 n2_thrd_block=28 n3_thrd_block=96
allocating prev, next and vel: total 192 Mbytes
-------------------------------
time:           1.18 sec
throughput:   117.52 MPoints/s
flops:          7.17 GFlops

n1=256 n2=256 n3=256 nreps=10 num_threads=4 HALF_LENGTH=8
n1_thrd_block=112 n2_thrd_block=28 n3_thrd_block=88
allocating prev, next and vel: total 192 Mbytes
-------------------------------
time:           1.17 sec
throughput:   118.14 MPoints/s
flops:          7.21 GFlops

n1=256 n2=256 n3=256 nreps=10 num_threads=4 HALF_LENGTH=8
n1_thrd_block=128 n2_thrd_block=24 n3_thrd_block=92
allocating prev, next and vel: total 192 Mbytes
-------------------------------
time:           1.04 sec
throughput:   132.56 MPoints/s
flops:          8.09 GFlops

n1=256 n2=256 n3=256 nreps=10 num_threads=4 HALF_LENGTH=8
n1_thrd_block=96 n2_thrd_block=24 n3_thrd_block=92
allocating prev, next and vel: total 192 Mbytes
-------------------------------
time:           1.11 sec
throughput:   124.45 MPoints/s
flops:          7.59 GFlops

n1=256 n2=256 n3=256 nreps=10 num_threads=4 HALF_LENGTH=8
n1_thrd_block=112 n2_thrd_block=28 n3_thrd_block=92
allocating prev, next and vel: total 192 Mbytes
-------------------------------
time:           1.15 sec
throughput:   120.31 MPoints/s
flops:          7.34 GFlops

n1=256 n2=256 n3=256 nreps=10 num_threads=4 HALF_LENGTH=8
n1_thrd_block=112 n2_thrd_block=20 n3_thrd_block=92
allocating prev, next and vel: total 192 Mbytes
-------------------------------
time:           1.09 sec
throughput:   127.39 MPoints/s
flops:          7.77 GFlops

n1=256 n2=256 n3=256 nreps=10 num_threads=4 HALF_LENGTH=8
n1_thrd_block=112 n2_thrd_block=24 n3_thrd_block=96
allocating prev, next and vel: total 192 Mbytes
-------------------------------
time:           1.17 sec
throughput:   118.60 MPoints/s
flops:          7.23 GFlops

n1=256 n2=256 n3=256 nreps=10 num_threads=4 HALF_LENGTH=8
n1_thrd_block=112 n2_thrd_block=24 n3_thrd_block=88
allocating prev, next and vel: total 192 Mbytes
-------------------------------
time:           1.12 sec
throughput:   123.26 MPoints/s
flops:          7.52 GFlops

n1=256 n2=256 n3=256 nreps=10 num_threads=4 HALF_LENGTH=8
n1_thrd_block=144 n2_thrd_block=24 n3_thrd_block=92
allocating prev, next and vel: total 192 Mbytes
-------------------------------
time:           1.00 sec
throughput:   138.76 MPoints/s
flops:          8.46 GFlops

n1=256 n2=256 n3=256 nreps=10 num_threads=4 HALF_LENGTH=8
n1_thrd_block=112 n2_thrd_block=24 n3_thrd_block=92
allocating prev, next and vel: total 192 Mbytes
-------------------------------
time:           1.23 sec
throughput:   112.12 MPoints/s
flops:          6.84 GFlops

n1=256 n2=256 n3=256 nreps=10 num_threads=4 HALF_LENGTH=8
n1_thrd_block=128 n2_thrd_block=28 n3_thrd_block=92
allocating prev, next and vel: total 192 Mbytes
-------------------------------
time:           1.11 sec
throughput:   124.98 MPoints/s
flops:          7.62 GFlops

n1=256 n2=256 n3=256 nreps=10 num_threads=4 HALF_LENGTH=8
n1_thrd_block=128 n2_thrd_block=20 n3_thrd_block=92
allocating prev, next and vel: total 192 Mbytes
-------------------------------
time:           1.04 sec
throughput:   133.16 MPoints/s
flops:          8.12 GFlops

n1=256 n2=256 n3=256 nreps=10 num_threads=4 HALF_LENGTH=8
n1_thrd_block=128 n2_thrd_block=24 n3_thrd_block=96
allocating prev, next and vel: total 192 Mbytes
-------------------------------
time:           1.04 sec
throughput:   132.95 MPoints/s
flops:          8.11 GFlops

n1=256 n2=256 n3=256 nreps=10 num_threads=4 HALF_LENGTH=8
n1_thrd_block=128 n2_thrd_block=24 n3_thrd_block=88
allocating prev, next and vel: total 192 Mbytes
-------------------------------
time:           1.02 sec
throughput:   135.65 MPoints/s
flops:          8.27 GFlops

mode: greedy-simulated-annhealing
n1=256 n2=256 n3=256 nreps=10 num_threads=4 HALF_LENGTH=8
n1_thrd_block=128 n2_thrd_block=140 n3_thrd_block=116
allocating prev, next and vel: total 192 Mbytes
-------------------------------
time:           2.03 sec
throughput:    68.05 MPoints/s
flops:          4.15 GFlops

n1=256 n2=256 n3=256 nreps=10 num_threads=4 HALF_LENGTH=8
n1_thrd_block=144 n2_thrd_block=140 n3_thrd_block=116
allocating prev, next and vel: total 192 Mbytes
-------------------------------
time:           2.01 sec
throughput:    68.74 MPoints/s
flops:          4.19 GFlops

n1=256 n2=256 n3=256 nreps=10 num_threads=4 HALF_LENGTH=8
n1_thrd_block=112 n2_thrd_block=140 n3_thrd_block=116
allocating prev, next and vel: total 192 Mbytes
-------------------------------
time:           1.98 sec
throughput:    69.96 MPoints/s
flops:          4.27 GFlops

n1=256 n2=256 n3=256 nreps=10 num_threads=4 HALF_LENGTH=8
n1_thrd_block=128 n2_thrd_block=144 n3_thrd_block=116
allocating prev, next and vel: total 192 Mbytes
-------------------------------
time:           2.04 sec
throughput:    67.77 MPoints/s
flops:          4.13 GFlops

n1=256 n2=256 n3=256 nreps=10 num_threads=4 HALF_LENGTH=8
n1_thrd_block=128 n2_thrd_block=136 n3_thrd_block=116
allocating prev, next and vel: total 192 Mbytes
-------------------------------
time:           1.94 sec
throughput:    71.30 MPoints/s
flops:          4.35 GFlops

n1=256 n2=256 n3=256 nreps=10 num_threads=4 HALF_LENGTH=8
n1_thrd_block=128 n2_thrd_block=140 n3_thrd_block=120
allocating prev, next and vel: total 192 Mbytes
-------------------------------
time:           2.04 sec
throughput:    67.86 MPoints/s
flops:          4.14 GFlops

n1=256 n2=256 n3=256 nreps=10 num_threads=4 HALF_LENGTH=8
n1_thrd_block=128 n2_thrd_block=140 n3_thrd_block=112
allocating prev, next and vel: total 192 Mbytes
-------------------------------
time:           1.97 sec
throughput:    70.00 MPoints/s
flops:          4.27 GFlops

n1=256 n2=256 n3=256 nreps=10 num_threads=4 HALF_LENGTH=8
n1_thrd_block=144 n2_thrd_block=136 n3_thrd_block=116
allocating prev, next and vel: total 192 Mbytes
-------------------------------
time:           1.90 sec
throughput:    72.86 MPoints/s
flops:          4.44 GFlops

n1=256 n2=256 n3=256 nreps=10 num_threads=4 HALF_LENGTH=8
n1_thrd_block=112 n2_thrd_block=136 n3_thrd_block=116
allocating prev, next and vel: total 192 Mbytes
-------------------------------
time:           2.00 sec
throughput:    69.19 MPoints/s
flops:          4.22 GFlops

n1=256 n2=256 n3=256 nreps=10 num_threads=4 HALF_LENGTH=8
n1_thrd_block=128 n2_thrd_block=140 n3_thrd_block=116
allocating prev, next and vel: total 192 Mbytes
-------------------------------
time:           2.10 sec
throughput:    65.81 MPoints/s
flops:          4.01 GFlops

n1=256 n2=256 n3=256 nreps=10 num_threads=4 HALF_LENGTH=8
n1_thrd_block=128 n2_thrd_block=132 n3_thrd_block=116
allocating prev, next and vel: total 192 Mbytes
-------------------------------
time:           1.93 sec
throughput:    71.63 MPoints/s
flops:          4.37 GFlops

n1=256 n2=256 n3=256 nreps=10 num_threads=4 HALF_LENGTH=8
n1_thrd_block=128 n2_thrd_block=136 n3_thrd_block=120
allocating prev, next and vel: total 192 Mbytes
-------------------------------
time:           2.24 sec
throughput:    61.72 MPoints/s
flops:          3.76 GFlops

n1=256 n2=256 n3=256 nreps=10 num_threads=4 HALF_LENGTH=8
n1_thrd_block=128 n2_thrd_block=136 n3_thrd_block=112
allocating prev, next and vel: total 192 Mbytes
-------------------------------
time:           1.86 sec
throughput:    74.41 MPoints/s
flops:          4.54 GFlops

n1=256 n2=256 n3=256 nreps=10 num_threads=4 HALF_LENGTH=8
n1_thrd_block=144 n2_thrd_block=136 n3_thrd_block=112
allocating prev, next and vel: total 192 Mbytes
-------------------------------
time:           1.90 sec
throughput:    72.75 MPoints/s
flops:          4.44 GFlops

n1=256 n2=256 n3=256 nreps=10 num_threads=4 HALF_LENGTH=8
n1_thrd_block=112 n2_thrd_block=136 n3_thrd_block=112
allocating prev, next and vel: total 192 Mbytes
-------------------------------
time:           1.87 sec
throughput:    73.98 MPoints/s
flops:          4.51 GFlops

n1=256 n2=256 n3=256 nreps=10 num_threads=4 HALF_LENGTH=8
n1_thrd_block=128 n2_thrd_block=140 n3_thrd_block=112
allocating prev, next and vel: total 192 Mbytes
-------------------------------
time:           1.84 sec
throughput:    75.13 MPoints/s
flops:          4.58 GFlops

n1=256 n2=256 n3=256 nreps=10 num_threads=4 HALF_LENGTH=8
n1_thrd_block=128 n2_thrd_block=132 n3_thrd_block=112
allocating prev, next and vel: total 192 Mbytes
-------------------------------
time:           1.71 sec
throughput:    80.75 MPoints/s
flops:          4.93 GFlops

n1=256 n2=256 n3=256 nreps=10 num_threads=4 HALF_LENGTH=8
n1_thrd_block=128 n2_thrd_block=136 n3_thrd_block=116
allocating prev, next and vel: total 192 Mbytes
-------------------------------
time:           1.65 sec
throughput:    83.58 MPoints/s
flops:          5.10 GFlops

n1=256 n2=256 n3=256 nreps=10 num_threads=4 HALF_LENGTH=8
n1_thrd_block=128 n2_thrd_block=136 n3_thrd_block=108
allocating prev, next and vel: total 192 Mbytes
-------------------------------
time:           1.65 sec
throughput:    83.73 MPoints/s
flops:          5.11 GFlops

mode: greedy-simulated-annhealing
n1=256 n2=256 n3=256 nreps=10 num_threads=4 HALF_LENGTH=8
n1_thrd_block=32 n2_thrd_block=108 n3_thrd_block=76
allocating prev, next and vel: total 192 Mbytes
-------------------------------
time:           1.95 sec
throughput:    70.81 MPoints/s
flops:          4.32 GFlops

n1=256 n2=256 n3=256 nreps=10 num_threads=4 HALF_LENGTH=8
n1_thrd_block=48 n2_thrd_block=108 n3_thrd_block=76
allocating prev, next and vel: total 192 Mbytes
-------------------------------
time:           1.83 sec
throughput:    75.56 MPoints/s
flops:          4.61 GFlops

n1=256 n2=256 n3=256 nreps=10 num_threads=4 HALF_LENGTH=8
n1_thrd_block=16 n2_thrd_block=108 n3_thrd_block=76
allocating prev, next and vel: total 192 Mbytes
-------------------------------
time:           2.29 sec
throughput:    60.36 MPoints/s
flops:          3.68 GFlops

n1=256 n2=256 n3=256 nreps=10 num_threads=4 HALF_LENGTH=8
n1_thrd_block=32 n2_thrd_block=112 n3_thrd_block=76
allocating prev, next and vel: total 192 Mbytes
-------------------------------
time:           1.96 sec
throughput:    70.47 MPoints/s
flops:          4.30 GFlops

n1=256 n2=256 n3=256 nreps=10 num_threads=4 HALF_LENGTH=8
n1_thrd_block=32 n2_thrd_block=104 n3_thrd_block=76
allocating prev, next and vel: total 192 Mbytes
-------------------------------
time:           1.97 sec
throughput:    70.35 MPoints/s
flops:          4.29 GFlops

n1=256 n2=256 n3=256 nreps=10 num_threads=4 HALF_LENGTH=8
n1_thrd_block=32 n2_thrd_block=108 n3_thrd_block=80
allocating prev, next and vel: total 192 Mbytes
-------------------------------
time:           1.94 sec
throughput:    71.29 MPoints/s
flops:          4.35 GFlops

n1=256 n2=256 n3=256 nreps=10 num_threads=4 HALF_LENGTH=8
n1_thrd_block=32 n2_thrd_block=108 n3_thrd_block=72
allocating prev, next and vel: total 192 Mbytes
-------------------------------
time:           1.94 sec
throughput:    71.16 MPoints/s
flops:          4.34 GFlops

n1=256 n2=256 n3=256 nreps=10 num_threads=4 HALF_LENGTH=8
n1_thrd_block=64 n2_thrd_block=108 n3_thrd_block=76
allocating prev, next and vel: total 192 Mbytes
-------------------------------
time:           1.85 sec
throughput:    74.88 MPoints/s
flops:          4.57 GFlops

n1=256 n2=256 n3=256 nreps=10 num_threads=4 HALF_LENGTH=8
n1_thrd_block=32 n2_thrd_block=108 n3_thrd_block=76
allocating prev, next and vel: total 192 Mbytes
-------------------------------
time:           1.97 sec
throughput:    70.19 MPoints/s
flops:          4.28 GFlops

n1=256 n2=256 n3=256 nreps=10 num_threads=4 HALF_LENGTH=8
n1_thrd_block=48 n2_thrd_block=112 n3_thrd_block=76
allocating prev, next and vel: total 192 Mbytes
-------------------------------
time:           1.86 sec
throughput:    74.49 MPoints/s
flops:          4.54 GFlops

n1=256 n2=256 n3=256 nreps=10 num_threads=4 HALF_LENGTH=8
n1_thrd_block=48 n2_thrd_block=104 n3_thrd_block=76
allocating prev, next and vel: total 192 Mbytes
-------------------------------
time:           1.84 sec
throughput:    75.33 MPoints/s
flops:          4.60 GFlops

n1=256 n2=256 n3=256 nreps=10 num_threads=4 HALF_LENGTH=8
n1_thrd_block=48 n2_thrd_block=108 n3_thrd_block=80
allocating prev, next and vel: total 192 Mbytes
-------------------------------
time:           1.82 sec
throughput:    76.00 MPoints/s
flops:          4.64 GFlops

n1=256 n2=256 n3=256 nreps=10 num_threads=4 HALF_LENGTH=8
n1_thrd_block=48 n2_thrd_block=108 n3_thrd_block=72
allocating prev, next and vel: total 192 Mbytes
-------------------------------
time:           1.80 sec
throughput:    76.78 MPoints/s
flops:          4.68 GFlops

n1=256 n2=256 n3=256 nreps=10 num_threads=4 HALF_LENGTH=8
n1_thrd_block=64 n2_thrd_block=108 n3_thrd_block=72
allocating prev, next and vel: total 192 Mbytes
-------------------------------
time:           1.72 sec
throughput:    80.38 MPoints/s
flops:          4.90 GFlops

n1=256 n2=256 n3=256 nreps=10 num_threads=4 HALF_LENGTH=8
n1_thrd_block=32 n2_thrd_block=108 n3_thrd_block=72
allocating prev, next and vel: total 192 Mbytes
-------------------------------
time:           1.83 sec
throughput:    75.53 MPoints/s
flops:          4.61 GFlops

n1=256 n2=256 n3=256 nreps=10 num_threads=4 HALF_LENGTH=8
n1_thrd_block=48 n2_thrd_block=112 n3_thrd_block=72
allocating prev, next and vel: total 192 Mbytes
-------------------------------
time:           1.75 sec
throughput:    78.78 MPoints/s
flops:          4.81 GFlops

n1=256 n2=256 n3=256 nreps=10 num_threads=4 HALF_LENGTH=8
n1_thrd_block=48 n2_thrd_block=104 n3_thrd_block=72
allocating prev, next and vel: total 192 Mbytes
-------------------------------
time:           1.74 sec
throughput:    79.54 MPoints/s
flops:          4.85 GFlops

n1=256 n2=256 n3=256 nreps=10 num_threads=4 HALF_LENGTH=8
n1_thrd_block=48 n2_thrd_block=108 n3_thrd_block=76
allocating prev, next and vel: total 192 Mbytes
-------------------------------
time:           1.67 sec
throughput:    82.58 MPoints/s
flops:          5.04 GFlops

n1=256 n2=256 n3=256 nreps=10 num_threads=4 HALF_LENGTH=8
n1_thrd_block=48 n2_thrd_block=108 n3_thrd_block=68
allocating prev, next and vel: total 192 Mbytes
-------------------------------
time:           1.61 sec
throughput:    86.07 MPoints/s
flops:          5.25 GFlops

mode: greedy-simulated-annhealing
n1=256 n2=256 n3=256 nreps=10 num_threads=4 HALF_LENGTH=8
n1_thrd_block=160 n2_thrd_block=136 n3_thrd_block=40
allocating prev, next and vel: total 192 Mbytes
-------------------------------
time:           1.94 sec
throughput:    71.21 MPoints/s
flops:          4.34 GFlops

n1=256 n2=256 n3=256 nreps=10 num_threads=4 HALF_LENGTH=8
n1_thrd_block=176 n2_thrd_block=136 n3_thrd_block=40
allocating prev, next and vel: total 192 Mbytes
-------------------------------
time:           2.07 sec
throughput:    66.80 MPoints/s
flops:          4.07 GFlops

n1=256 n2=256 n3=256 nreps=10 num_threads=4 HALF_LENGTH=8
n1_thrd_block=144 n2_thrd_block=136 n3_thrd_block=40
allocating prev, next and vel: total 192 Mbytes
-------------------------------
time:           2.01 sec
throughput:    68.86 MPoints/s
flops:          4.20 GFlops

n1=256 n2=256 n3=256 nreps=10 num_threads=4 HALF_LENGTH=8
n1_thrd_block=160 n2_thrd_block=140 n3_thrd_block=40
allocating prev, next and vel: total 192 Mbytes
-------------------------------
time:           2.08 sec
throughput:    66.53 MPoints/s
flops:          4.06 GFlops

n1=256 n2=256 n3=256 nreps=10 num_threads=4 HALF_LENGTH=8
n1_thrd_block=160 n2_thrd_block=132 n3_thrd_block=40
allocating prev, next and vel: total 192 Mbytes
-------------------------------
time:           1.92 sec
throughput:    72.01 MPoints/s
flops:          4.39 GFlops

n1=256 n2=256 n3=256 nreps=10 num_threads=4 HALF_LENGTH=8
n1_thrd_block=160 n2_thrd_block=136 n3_thrd_block=44
allocating prev, next and vel: total 192 Mbytes
-------------------------------
time:           2.02 sec
throughput:    68.53 MPoints/s
flops:          4.18 GFlops

n1=256 n2=256 n3=256 nreps=10 num_threads=4 HALF_LENGTH=8
n1_thrd_block=160 n2_thrd_block=136 n3_thrd_block=36
allocating prev, next and vel: total 192 Mbytes
-------------------------------
time:           1.97 sec
throughput:    70.14 MPoints/s
flops:          4.28 GFlops

n1=256 n2=256 n3=256 nreps=10 num_threads=4 HALF_LENGTH=8
n1_thrd_block=176 n2_thrd_block=132 n3_thrd_block=40
allocating prev, next and vel: total 192 Mbytes
-------------------------------
time:           2.01 sec
throughput:    68.86 MPoints/s
flops:          4.20 GFlops

n1=256 n2=256 n3=256 nreps=10 num_threads=4 HALF_LENGTH=8
n1_thrd_block=144 n2_thrd_block=132 n3_thrd_block=40
allocating prev, next and vel: total 192 Mbytes
-------------------------------
time:           1.94 sec
throughput:    71.25 MPoints/s
flops:          4.35 GFlops

n1=256 n2=256 n3=256 nreps=10 num_threads=4 HALF_LENGTH=8
n1_thrd_block=160 n2_thrd_block=136 n3_thrd_block=40
allocating prev, next and vel: total 192 Mbytes
-------------------------------
time:           2.13 sec
throughput:    64.82 MPoints/s
flops:          3.95 GFlops

n1=256 n2=256 n3=256 nreps=10 num_threads=4 HALF_LENGTH=8
n1_thrd_block=160 n2_thrd_block=128 n3_thrd_block=40
allocating prev, next and vel: total 192 Mbytes
-------------------------------
time:           2.07 sec
throughput:    66.94 MPoints/s
flops:          4.08 GFlops

n1=256 n2=256 n3=256 nreps=10 num_threads=4 HALF_LENGTH=8
n1_thrd_block=160 n2_thrd_block=132 n3_thrd_block=44
allocating prev, next and vel: total 192 Mbytes
-------------------------------
time:           1.89 sec
throughput:    73.07 MPoints/s
flops:          4.46 GFlops

n1=256 n2=256 n3=256 nreps=10 num_threads=4 HALF_LENGTH=8
n1_thrd_block=160 n2_thrd_block=132 n3_thrd_block=36
allocating prev, next and vel: total 192 Mbytes
-------------------------------
time:           1.87 sec
throughput:    73.86 MPoints/s
flops:          4.51 GFlops

n1=256 n2=256 n3=256 nreps=10 num_threads=4 HALF_LENGTH=8
n1_thrd_block=176 n2_thrd_block=132 n3_thrd_block=36
allocating prev, next and vel: total 192 Mbytes
-------------------------------
time:           1.87 sec
throughput:    74.10 MPoints/s
flops:          4.52 GFlops

n1=256 n2=256 n3=256 nreps=10 num_threads=4 HALF_LENGTH=8
n1_thrd_block=144 n2_thrd_block=132 n3_thrd_block=36
allocating prev, next and vel: total 192 Mbytes
-------------------------------
time:           1.74 sec
throughput:    79.37 MPoints/s
flops:          4.84 GFlops

n1=256 n2=256 n3=256 nreps=10 num_threads=4 HALF_LENGTH=8
n1_thrd_block=160 n2_thrd_block=136 n3_thrd_block=36
allocating prev, next and vel: total 192 Mbytes
-------------------------------
time:           1.82 sec
throughput:    76.12 MPoints/s
flops:          4.64 GFlops

n1=256 n2=256 n3=256 nreps=10 num_threads=4 HALF_LENGTH=8
n1_thrd_block=160 n2_thrd_block=128 n3_thrd_block=36
allocating prev, next and vel: total 192 Mbytes
-------------------------------
time:           1.78 sec
throughput:    77.49 MPoints/s
flops:          4.73 GFlops

n1=256 n2=256 n3=256 nreps=10 num_threads=4 HALF_LENGTH=8
n1_thrd_block=160 n2_thrd_block=132 n3_thrd_block=40
allocating prev, next and vel: total 192 Mbytes
-------------------------------
time:           1.62 sec
throughput:    85.43 MPoints/s
flops:          5.21 GFlops

n1=256 n2=256 n3=256 nreps=10 num_threads=4 HALF_LENGTH=8
n1_thrd_block=160 n2_thrd_block=132 n3_thrd_block=32
allocating prev, next and vel: total 192 Mbytes
-------------------------------
time:           1.53 sec
throughput:    90.50 MPoints/s
flops:          5.52 GFlops

mode: greedy-simulated-annhealing
n1=256 n2=256 n3=256 nreps=10 num_threads=4 HALF_LENGTH=8
n1_thrd_block=80 n2_thrd_block=36 n3_thrd_block=120
allocating prev, next and vel: total 192 Mbytes
-------------------------------
time:           1.27 sec
throughput:   108.81 MPoints/s
flops:          6.64 GFlops

n1=256 n2=256 n3=256 nreps=10 num_threads=4 HALF_LENGTH=8
n1_thrd_block=96 n2_thrd_block=36 n3_thrd_block=120
allocating prev, next and vel: total 192 Mbytes
-------------------------------
time:           1.58 sec
throughput:    87.43 MPoints/s
flops:          5.33 GFlops

n1=256 n2=256 n3=256 nreps=10 num_threads=4 HALF_LENGTH=8
n1_thrd_block=64 n2_thrd_block=36 n3_thrd_block=120
allocating prev, next and vel: total 192 Mbytes
-------------------------------
time:           1.66 sec
throughput:    83.06 MPoints/s
flops:          5.07 GFlops

n1=256 n2=256 n3=256 nreps=10 num_threads=4 HALF_LENGTH=8
n1_thrd_block=80 n2_thrd_block=40 n3_thrd_block=120
allocating prev, next and vel: total 192 Mbytes
-------------------------------
time:           1.57 sec
throughput:    87.80 MPoints/s
flops:          5.36 GFlops

n1=256 n2=256 n3=256 nreps=10 num_threads=4 HALF_LENGTH=8
n1_thrd_block=80 n2_thrd_block=32 n3_thrd_block=120
allocating prev, next and vel: total 192 Mbytes
-------------------------------
time:           1.61 sec
throughput:    85.65 MPoints/s
flops:          5.22 GFlops

n1=256 n2=256 n3=256 nreps=10 num_threads=4 HALF_LENGTH=8
n1_thrd_block=80 n2_thrd_block=36 n3_thrd_block=124
allocating prev, next and vel: total 192 Mbytes
-------------------------------
time:           1.58 sec
throughput:    87.35 MPoints/s
flops:          5.33 GFlops

n1=256 n2=256 n3=256 nreps=10 num_threads=4 HALF_LENGTH=8
n1_thrd_block=80 n2_thrd_block=36 n3_thrd_block=116
allocating prev, next and vel: total 192 Mbytes
-------------------------------
time:           1.33 sec
throughput:   103.84 MPoints/s
flops:          6.33 GFlops

n1=256 n2=256 n3=256 nreps=10 num_threads=4 HALF_LENGTH=8
n1_thrd_block=96 n2_thrd_block=36 n3_thrd_block=120
allocating prev, next and vel: total 192 Mbytes
-------------------------------
time:           1.43 sec
throughput:    96.72 MPoints/s
flops:          5.90 GFlops

n1=256 n2=256 n3=256 nreps=10 num_threads=4 HALF_LENGTH=8
n1_thrd_block=64 n2_thrd_block=36 n3_thrd_block=120
allocating prev, next and vel: total 192 Mbytes
-------------------------------
time:           1.53 sec
throughput:    90.47 MPoints/s
flops:          5.52 GFlops

n1=256 n2=256 n3=256 nreps=10 num_threads=4 HALF_LENGTH=8
n1_thrd_block=80 n2_thrd_block=40 n3_thrd_block=120
allocating prev, next and vel: total 192 Mbytes
-------------------------------
time:           1.50 sec
throughput:    92.23 MPoints/s
flops:          5.63 GFlops

n1=256 n2=256 n3=256 nreps=10 num_threads=4 HALF_LENGTH=8
n1_thrd_block=80 n2_thrd_block=32 n3_thrd_block=120
allocating prev, next and vel: total 192 Mbytes
-------------------------------
time:           1.30 sec
throughput:   106.74 MPoints/s
flops:          6.51 GFlops

n1=256 n2=256 n3=256 nreps=10 num_threads=4 HALF_LENGTH=8
n1_thrd_block=80 n2_thrd_block=36 n3_thrd_block=124
allocating prev, next and vel: total 192 Mbytes
-------------------------------
time:           1.25 sec
throughput:   110.50 MPoints/s
flops:          6.74 GFlops

n1=256 n2=256 n3=256 nreps=10 num_threads=4 HALF_LENGTH=8
n1_thrd_block=80 n2_thrd_block=36 n3_thrd_block=116
allocating prev, next and vel: total 192 Mbytes
-------------------------------
time:           1.28 sec
throughput:   108.08 MPoints/s
flops:          6.59 GFlops

n1=256 n2=256 n3=256 nreps=10 num_threads=4 HALF_LENGTH=8
n1_thrd_block=96 n2_thrd_block=36 n3_thrd_block=124
allocating prev, next and vel: total 192 Mbytes
-------------------------------
time:           1.26 sec
throughput:   110.00 MPoints/s
flops:          6.71 GFlops

n1=256 n2=256 n3=256 nreps=10 num_threads=4 HALF_LENGTH=8
n1_thrd_block=64 n2_thrd_block=36 n3_thrd_block=124
allocating prev, next and vel: total 192 Mbytes
-------------------------------
time:           1.39 sec
throughput:    99.16 MPoints/s
flops:          6.05 GFlops

n1=256 n2=256 n3=256 nreps=10 num_threads=4 HALF_LENGTH=8
n1_thrd_block=80 n2_thrd_block=40 n3_thrd_block=124
allocating prev, next and vel: total 192 Mbytes
-------------------------------
time:           1.49 sec
throughput:    92.80 MPoints/s
flops:          5.66 GFlops

n1=256 n2=256 n3=256 nreps=10 num_threads=4 HALF_LENGTH=8
n1_thrd_block=80 n2_thrd_block=32 n3_thrd_block=124
allocating prev, next and vel: total 192 Mbytes
-------------------------------
time:           1.11 sec
throughput:   124.00 MPoints/s
flops:          7.56 GFlops

n1=256 n2=256 n3=256 nreps=10 num_threads=4 HALF_LENGTH=8
n1_thrd_block=80 n2_thrd_block=36 n3_thrd_block=128
allocating prev, next and vel: total 192 Mbytes
-------------------------------
time:           1.22 sec
throughput:   113.67 MPoints/s
flops:          6.93 GFlops

n1=256 n2=256 n3=256 nreps=10 num_threads=4 HALF_LENGTH=8
n1_thrd_block=80 n2_thrd_block=36 n3_thrd_block=120
allocating prev, next and vel: total 192 Mbytes
-------------------------------
time:           1.22 sec
throughput:   113.28 MPoints/s
flops:          6.91 GFlops

mode: greedy-simulated-annhealing
n1=256 n2=256 n3=256 nreps=10 num_threads=4 HALF_LENGTH=8
n1_thrd_block=48 n2_thrd_block=144 n3_thrd_block=152
allocating prev, next and vel: total 192 Mbytes
-------------------------------
time:           2.06 sec
throughput:    66.95 MPoints/s
flops:          4.08 GFlops

n1=256 n2=256 n3=256 nreps=10 num_threads=4 HALF_LENGTH=8
n1_thrd_block=64 n2_thrd_block=144 n3_thrd_block=152
allocating prev, next and vel: total 192 Mbytes
-------------------------------
time:           2.13 sec
throughput:    64.99 MPoints/s
flops:          3.96 GFlops

n1=256 n2=256 n3=256 nreps=10 num_threads=4 HALF_LENGTH=8
n1_thrd_block=32 n2_thrd_block=144 n3_thrd_block=152
allocating prev, next and vel: total 192 Mbytes
-------------------------------
time:           2.12 sec
throughput:    65.17 MPoints/s
flops:          3.98 GFlops

n1=256 n2=256 n3=256 nreps=10 num_threads=4 HALF_LENGTH=8
n1_thrd_block=48 n2_thrd_block=148 n3_thrd_block=152
allocating prev, next and vel: total 192 Mbytes
-------------------------------
time:           2.14 sec
throughput:    64.60 MPoints/s
flops:          3.94 GFlops

n1=256 n2=256 n3=256 nreps=10 num_threads=4 HALF_LENGTH=8
n1_thrd_block=48 n2_thrd_block=140 n3_thrd_block=152
allocating prev, next and vel: total 192 Mbytes
-------------------------------
time:           2.06 sec
throughput:    67.19 MPoints/s
flops:          4.10 GFlops

n1=256 n2=256 n3=256 nreps=10 num_threads=4 HALF_LENGTH=8
n1_thrd_block=48 n2_thrd_block=144 n3_thrd_block=156
allocating prev, next and vel: total 192 Mbytes
-------------------------------
time:           2.13 sec
throughput:    64.81 MPoints/s
flops:          3.95 GFlops

n1=256 n2=256 n3=256 nreps=10 num_threads=4 HALF_LENGTH=8
n1_thrd_block=48 n2_thrd_block=144 n3_thrd_block=148
allocating prev, next and vel: total 192 Mbytes
-------------------------------
time:           2.07 sec
throughput:    66.87 MPoints/s
flops:          4.08 GFlops

n1=256 n2=256 n3=256 nreps=10 num_threads=4 HALF_LENGTH=8
n1_thrd_block=64 n2_thrd_block=144 n3_thrd_block=152
allocating prev, next and vel: total 192 Mbytes
-------------------------------
time:           2.01 sec
throughput:    68.90 MPoints/s
flops:          4.20 GFlops

n1=256 n2=256 n3=256 nreps=10 num_threads=4 HALF_LENGTH=8
n1_thrd_block=32 n2_thrd_block=144 n3_thrd_block=152
allocating prev, next and vel: total 192 Mbytes
-------------------------------
time:           2.08 sec
throughput:    66.41 MPoints/s
flops:          4.05 GFlops

n1=256 n2=256 n3=256 nreps=10 num_threads=4 HALF_LENGTH=8
n1_thrd_block=48 n2_thrd_block=148 n3_thrd_block=152
allocating prev, next and vel: total 192 Mbytes
-------------------------------
time:           2.02 sec
throughput:    68.30 MPoints/s
flops:          4.17 GFlops

n1=256 n2=256 n3=256 nreps=10 num_threads=4 HALF_LENGTH=8
n1_thrd_block=48 n2_thrd_block=140 n3_thrd_block=152
allocating prev, next and vel: total 192 Mbytes
-------------------------------
time:           2.06 sec
throughput:    67.08 MPoints/s
flops:          4.09 GFlops

n1=256 n2=256 n3=256 nreps=10 num_threads=4 HALF_LENGTH=8
n1_thrd_block=48 n2_thrd_block=144 n3_thrd_block=156
allocating prev, next and vel: total 192 Mbytes
-------------------------------
time:           2.01 sec
throughput:    68.87 MPoints/s
flops:          4.20 GFlops

n1=256 n2=256 n3=256 nreps=10 num_threads=4 HALF_LENGTH=8
n1_thrd_block=48 n2_thrd_block=144 n3_thrd_block=148
allocating prev, next and vel: total 192 Mbytes
-------------------------------
time:           2.00 sec
throughput:    69.26 MPoints/s
flops:          4.23 GFlops

n1=256 n2=256 n3=256 nreps=10 num_threads=4 HALF_LENGTH=8
n1_thrd_block=64 n2_thrd_block=144 n3_thrd_block=148
allocating prev, next and vel: total 192 Mbytes
-------------------------------
time:           1.91 sec
throughput:    72.47 MPoints/s
flops:          4.42 GFlops

n1=256 n2=256 n3=256 nreps=10 num_threads=4 HALF_LENGTH=8
n1_thrd_block=32 n2_thrd_block=144 n3_thrd_block=148
allocating prev, next and vel: total 192 Mbytes
-------------------------------
time:           1.95 sec
throughput:    70.94 MPoints/s
flops:          4.33 GFlops

n1=256 n2=256 n3=256 nreps=10 num_threads=4 HALF_LENGTH=8
n1_thrd_block=48 n2_thrd_block=148 n3_thrd_block=148
allocating prev, next and vel: total 192 Mbytes
-------------------------------
time:           1.88 sec
throughput:    73.58 MPoints/s
flops:          4.49 GFlops

n1=256 n2=256 n3=256 nreps=10 num_threads=4 HALF_LENGTH=8
n1_thrd_block=48 n2_thrd_block=140 n3_thrd_block=148
allocating prev, next and vel: total 192 Mbytes
-------------------------------
time:           1.87 sec
throughput:    73.75 MPoints/s
flops:          4.50 GFlops

n1=256 n2=256 n3=256 nreps=10 num_threads=4 HALF_LENGTH=8
n1_thrd_block=48 n2_thrd_block=144 n3_thrd_block=152
allocating prev, next and vel: total 192 Mbytes
-------------------------------
time:           1.86 sec
throughput:    74.49 MPoints/s
flops:          4.54 GFlops

n1=256 n2=256 n3=256 nreps=10 num_threads=4 HALF_LENGTH=8
n1_thrd_block=48 n2_thrd_block=144 n3_thrd_block=144
allocating prev, next and vel: total 192 Mbytes
-------------------------------
time:           1.84 sec
throughput:    75.07 MPoints/s
flops:          4.58 GFlops

mode: greedy-simulated-annhealing
n1=256 n2=256 n3=256 nreps=10 num_threads=4 HALF_LENGTH=8
n1_thrd_block=144 n2_thrd_block=20 n3_thrd_block=48
allocating prev, next and vel: total 192 Mbytes
-------------------------------
time:           0.99 sec
throughput:   139.95 MPoints/s
flops:          8.54 GFlops

n1=256 n2=256 n3=256 nreps=10 num_threads=4 HALF_LENGTH=8
n1_thrd_block=160 n2_thrd_block=20 n3_thrd_block=48
allocating prev, next and vel: total 192 Mbytes
-------------------------------
time:           1.22 sec
throughput:   112.86 MPoints/s
flops:          6.88 GFlops

n1=256 n2=256 n3=256 nreps=10 num_threads=4 HALF_LENGTH=8
n1_thrd_block=128 n2_thrd_block=20 n3_thrd_block=48
allocating prev, next and vel: total 192 Mbytes
-------------------------------
time:           1.12 sec
throughput:   123.75 MPoints/s
flops:          7.55 GFlops

n1=256 n2=256 n3=256 nreps=10 num_threads=4 HALF_LENGTH=8
n1_thrd_block=144 n2_thrd_block=24 n3_thrd_block=48
allocating prev, next and vel: total 192 Mbytes
-------------------------------
time:           1.03 sec
throughput:   133.85 MPoints/s
flops:          8.16 GFlops

n1=256 n2=256 n3=256 nreps=10 num_threads=4 HALF_LENGTH=8
n1_thrd_block=144 n2_thrd_block=16 n3_thrd_block=48
allocating prev, next and vel: total 192 Mbytes
-------------------------------
time:           0.97 sec
throughput:   142.50 MPoints/s
flops:          8.69 GFlops

n1=256 n2=256 n3=256 nreps=10 num_threads=4 HALF_LENGTH=8
n1_thrd_block=144 n2_thrd_block=20 n3_thrd_block=52
allocating prev, next and vel: total 192 Mbytes
-------------------------------
time:           0.98 sec
throughput:   140.69 MPoints/s
flops:          8.58 GFlops

n1=256 n2=256 n3=256 nreps=10 num_threads=4 HALF_LENGTH=8
n1_thrd_block=144 n2_thrd_block=20 n3_thrd_block=44
allocating prev, next and vel: total 192 Mbytes
-------------------------------
time:           1.04 sec
throughput:   132.62 MPoints/s
flops:          8.09 GFlops

n1=256 n2=256 n3=256 nreps=10 num_threads=4 HALF_LENGTH=8
n1_thrd_block=160 n2_thrd_block=16 n3_thrd_block=48
allocating prev, next and vel: total 192 Mbytes
-------------------------------
time:           1.01 sec
throughput:   137.15 MPoints/s
flops:          8.37 GFlops

n1=256 n2=256 n3=256 nreps=10 num_threads=4 HALF_LENGTH=8
n1_thrd_block=128 n2_thrd_block=16 n3_thrd_block=48
allocating prev, next and vel: total 192 Mbytes
-------------------------------
time:           0.98 sec
throughput:   140.72 MPoints/s
flops:          8.58 GFlops

n1=256 n2=256 n3=256 nreps=10 num_threads=4 HALF_LENGTH=8
n1_thrd_block=144 n2_thrd_block=20 n3_thrd_block=48
allocating prev, next and vel: total 192 Mbytes
-------------------------------
time:           1.04 sec
throughput:   132.95 MPoints/s
flops:          8.11 GFlops

n1=256 n2=256 n3=256 nreps=10 num_threads=4 HALF_LENGTH=8
n1_thrd_block=144 n2_thrd_block=12 n3_thrd_block=48
allocating prev, next and vel: total 192 Mbytes
-------------------------------
time:           0.99 sec
throughput:   139.11 MPoints/s
flops:          8.49 GFlops

n1=256 n2=256 n3=256 nreps=10 num_threads=4 HALF_LENGTH=8
n1_thrd_block=144 n2_thrd_block=16 n3_thrd_block=52
allocating prev, next and vel: total 192 Mbytes
-------------------------------
time:           0.99 sec
throughput:   140.13 MPoints/s
flops:          8.55 GFlops

n1=256 n2=256 n3=256 nreps=10 num_threads=4 HALF_LENGTH=8
n1_thrd_block=144 n2_thrd_block=16 n3_thrd_block=44
allocating prev, next and vel: total 192 Mbytes
-------------------------------
time:           0.97 sec
throughput:   142.34 MPoints/s
flops:          8.68 GFlops

n1=256 n2=256 n3=256 nreps=10 num_threads=4 HALF_LENGTH=8
n1_thrd_block=160 n2_thrd_block=16 n3_thrd_block=48
allocating prev, next and vel: total 192 Mbytes
-------------------------------
time:           0.96 sec
throughput:   143.26 MPoints/s
flops:          8.74 GFlops

n1=256 n2=256 n3=256 nreps=10 num_threads=4 HALF_LENGTH=8
n1_thrd_block=128 n2_thrd_block=16 n3_thrd_block=48
allocating prev, next and vel: total 192 Mbytes
-------------------------------
time:           0.98 sec
throughput:   141.66 MPoints/s
flops:          8.64 GFlops

n1=256 n2=256 n3=256 nreps=10 num_threads=4 HALF_LENGTH=8
n1_thrd_block=144 n2_thrd_block=20 n3_thrd_block=48
allocating prev, next and vel: total 192 Mbytes
-------------------------------
time:           1.10 sec
throughput:   126.16 MPoints/s
flops:          7.70 GFlops

n1=256 n2=256 n3=256 nreps=10 num_threads=4 HALF_LENGTH=8
n1_thrd_block=144 n2_thrd_block=12 n3_thrd_block=48
allocating prev, next and vel: total 192 Mbytes
-------------------------------
time:           1.08 sec
throughput:   128.05 MPoints/s
flops:          7.81 GFlops

n1=256 n2=256 n3=256 nreps=10 num_threads=4 HALF_LENGTH=8
n1_thrd_block=144 n2_thrd_block=16 n3_thrd_block=52
allocating prev, next and vel: total 192 Mbytes
-------------------------------
time:           0.97 sec
throughput:   143.19 MPoints/s
flops:          8.73 GFlops

n1=256 n2=256 n3=256 nreps=10 num_threads=4 HALF_LENGTH=8
n1_thrd_block=144 n2_thrd_block=16 n3_thrd_block=44
allocating prev, next and vel: total 192 Mbytes
-------------------------------
time:           0.98 sec
throughput:   140.74 MPoints/s
flops:          8.59 GFlops

mode: greedy-simulated-annhealing
n1=256 n2=256 n3=256 nreps=10 num_threads=4 HALF_LENGTH=8
n1_thrd_block=80 n2_thrd_block=144 n3_thrd_block=20
allocating prev, next and vel: total 192 Mbytes
-------------------------------
time:           1.92 sec
throughput:    71.99 MPoints/s
flops:          4.39 GFlops

n1=256 n2=256 n3=256 nreps=10 num_threads=4 HALF_LENGTH=8
n1_thrd_block=96 n2_thrd_block=144 n3_thrd_block=20
allocating prev, next and vel: total 192 Mbytes
-------------------------------
time:           1.98 sec
throughput:    69.77 MPoints/s
flops:          4.26 GFlops

n1=256 n2=256 n3=256 nreps=10 num_threads=4 HALF_LENGTH=8
n1_thrd_block=64 n2_thrd_block=144 n3_thrd_block=20
allocating prev, next and vel: total 192 Mbytes
-------------------------------
time:           1.87 sec
throughput:    73.81 MPoints/s
flops:          4.50 GFlops

n1=256 n2=256 n3=256 nreps=10 num_threads=4 HALF_LENGTH=8
n1_thrd_block=80 n2_thrd_block=148 n3_thrd_block=20
allocating prev, next and vel: total 192 Mbytes
-------------------------------
time:           1.91 sec
throughput:    72.30 MPoints/s
flops:          4.41 GFlops

n1=256 n2=256 n3=256 nreps=10 num_threads=4 HALF_LENGTH=8
n1_thrd_block=80 n2_thrd_block=140 n3_thrd_block=20
allocating prev, next and vel: total 192 Mbytes
-------------------------------
time:           1.93 sec
throughput:    71.71 MPoints/s
flops:          4.37 GFlops

n1=256 n2=256 n3=256 nreps=10 num_threads=4 HALF_LENGTH=8
n1_thrd_block=80 n2_thrd_block=144 n3_thrd_block=24
allocating prev, next and vel: total 192 Mbytes
-------------------------------
time:           1.90 sec
throughput:    72.83 MPoints/s
flops:          4.44 GFlops

n1=256 n2=256 n3=256 nreps=10 num_threads=4 HALF_LENGTH=8
n1_thrd_block=80 n2_thrd_block=144 n3_thrd_block=16
allocating prev, next and vel: total 192 Mbytes
-------------------------------
time:           1.85 sec
throughput:    74.88 MPoints/s
flops:          4.57 GFlops

n1=256 n2=256 n3=256 nreps=10 num_threads=4 HALF_LENGTH=8
n1_thrd_block=96 n2_thrd_block=144 n3_thrd_block=16
allocating prev, next and vel: total 192 Mbytes
-------------------------------
time:           1.86 sec
throughput:    74.45 MPoints/s
flops:          4.54 GFlops

n1=256 n2=256 n3=256 nreps=10 num_threads=4 HALF_LENGTH=8
n1_thrd_block=64 n2_thrd_block=144 n3_thrd_block=16
allocating prev, next and vel: total 192 Mbytes
-------------------------------
time:           1.82 sec
throughput:    75.81 MPoints/s
flops:          4.62 GFlops

n1=256 n2=256 n3=256 nreps=10 num_threads=4 HALF_LENGTH=8
n1_thrd_block=80 n2_thrd_block=148 n3_thrd_block=16
allocating prev, next and vel: total 192 Mbytes
-------------------------------
time:           1.84 sec
throughput:    74.97 MPoints/s
flops:          4.57 GFlops

n1=256 n2=256 n3=256 nreps=10 num_threads=4 HALF_LENGTH=8
n1_thrd_block=80 n2_thrd_block=140 n3_thrd_block=16
allocating prev, next and vel: total 192 Mbytes
-------------------------------
time:           1.84 sec
throughput:    75.31 MPoints/s
flops:          4.59 GFlops

n1=256 n2=256 n3=256 nreps=10 num_threads=4 HALF_LENGTH=8
n1_thrd_block=80 n2_thrd_block=144 n3_thrd_block=20
allocating prev, next and vel: total 192 Mbytes
-------------------------------
time:           1.78 sec
throughput:    77.46 MPoints/s
flops:          4.73 GFlops

n1=256 n2=256 n3=256 nreps=10 num_threads=4 HALF_LENGTH=8
n1_thrd_block=80 n2_thrd_block=144 n3_thrd_block=12
allocating prev, next and vel: total 192 Mbytes
-------------------------------
time:           1.84 sec
throughput:    75.06 MPoints/s
flops:          4.58 GFlops

n1=256 n2=256 n3=256 nreps=10 num_threads=4 HALF_LENGTH=8
n1_thrd_block=96 n2_thrd_block=144 n3_thrd_block=20
allocating prev, next and vel: total 192 Mbytes
-------------------------------
time:           1.85 sec
throughput:    74.53 MPoints/s
flops:          4.55 GFlops

n1=256 n2=256 n3=256 nreps=10 num_threads=4 HALF_LENGTH=8
n1_thrd_block=64 n2_thrd_block=144 n3_thrd_block=20
allocating prev, next and vel: total 192 Mbytes
-------------------------------
time:           1.82 sec
throughput:    75.95 MPoints/s
flops:          4.63 GFlops

n1=256 n2=256 n3=256 nreps=10 num_threads=4 HALF_LENGTH=8
n1_thrd_block=80 n2_thrd_block=148 n3_thrd_block=20
allocating prev, next and vel: total 192 Mbytes
-------------------------------
time:           1.77 sec
throughput:    77.89 MPoints/s
flops:          4.75 GFlops

n1=256 n2=256 n3=256 nreps=10 num_threads=4 HALF_LENGTH=8
n1_thrd_block=80 n2_thrd_block=140 n3_thrd_block=20
allocating prev, next and vel: total 192 Mbytes
-------------------------------
time:           1.71 sec
throughput:    80.95 MPoints/s
flops:          4.94 GFlops

n1=256 n2=256 n3=256 nreps=10 num_threads=4 HALF_LENGTH=8
n1_thrd_block=80 n2_thrd_block=144 n3_thrd_block=24
allocating prev, next and vel: total 192 Mbytes
-------------------------------
time:           1.68 sec
throughput:    82.43 MPoints/s
flops:          5.03 GFlops

n1=256 n2=256 n3=256 nreps=10 num_threads=4 HALF_LENGTH=8
n1_thrd_block=80 n2_thrd_block=144 n3_thrd_block=16
allocating prev, next and vel: total 192 Mbytes
-------------------------------
time:           1.56 sec
throughput:    88.89 MPoints/s
flops:          5.42 GFlops

mode: greedy-simulated-annhealing
n1=256 n2=256 n3=256 nreps=10 num_threads=4 HALF_LENGTH=8
n1_thrd_block=160 n2_thrd_block=48 n3_thrd_block=60
allocating prev, next and vel: total 192 Mbytes
-------------------------------
time:           1.60 sec
throughput:    86.47 MPoints/s
flops:          5.27 GFlops

n1=256 n2=256 n3=256 nreps=10 num_threads=4 HALF_LENGTH=8
n1_thrd_block=176 n2_thrd_block=48 n3_thrd_block=60
allocating prev, next and vel: total 192 Mbytes
-------------------------------
time:           1.61 sec
throughput:    85.99 MPoints/s
flops:          5.25 GFlops

n1=256 n2=256 n3=256 nreps=10 num_threads=4 HALF_LENGTH=8
n1_thrd_block=144 n2_thrd_block=48 n3_thrd_block=60
allocating prev, next and vel: total 192 Mbytes
-------------------------------
time:           1.65 sec
throughput:    83.75 MPoints/s
flops:          5.11 GFlops

n1=256 n2=256 n3=256 nreps=10 num_threads=4 HALF_LENGTH=8
n1_thrd_block=160 n2_thrd_block=52 n3_thrd_block=60
allocating prev, next and vel: total 192 Mbytes
-------------------------------
time:           1.61 sec
throughput:    85.75 MPoints/s
flops:          5.23 GFlops

n1=256 n2=256 n3=256 nreps=10 num_threads=4 HALF_LENGTH=8
n1_thrd_block=160 n2_thrd_block=44 n3_thrd_block=60
allocating prev, next and vel: total 192 Mbytes
-------------------------------
time:           1.56 sec
throughput:    88.78 MPoints/s
flops:          5.42 GFlops

n1=256 n2=256 n3=256 nreps=10 num_threads=4 HALF_LENGTH=8
n1_thrd_block=160 n2_thrd_block=48 n3_thrd_block=64
allocating prev, next and vel: total 192 Mbytes
-------------------------------
time:           1.57 sec
throughput:    87.87 MPoints/s
flops:          5.36 GFlops

n1=256 n2=256 n3=256 nreps=10 num_threads=4 HALF_LENGTH=8
n1_thrd_block=160 n2_thrd_block=48 n3_thrd_block=56
allocating prev, next and vel: total 192 Mbytes
-------------------------------
time:           1.50 sec
throughput:    92.30 MPoints/s
flops:          5.63 GFlops

n1=256 n2=256 n3=256 nreps=10 num_threads=4 HALF_LENGTH=8
n1_thrd_block=176 n2_thrd_block=48 n3_thrd_block=56
allocating prev, next and vel: total 192 Mbytes
-------------------------------
time:           1.45 sec
throughput:    95.47 MPoints/s
flops:          5.82 GFlops

n1=256 n2=256 n3=256 nreps=10 num_threads=4 HALF_LENGTH=8
n1_thrd_block=144 n2_thrd_block=48 n3_thrd_block=56
allocating prev, next and vel: total 192 Mbytes
-------------------------------
time:           1.41 sec
throughput:    98.00 MPoints/s
flops:          5.98 GFlops

n1=256 n2=256 n3=256 nreps=10 num_threads=4 HALF_LENGTH=8
n1_thrd_block=160 n2_thrd_block=52 n3_thrd_block=56
allocating prev, next and vel: total 192 Mbytes
-------------------------------
time:           1.42 sec
throughput:    97.13 MPoints/s
flops:          5.93 GFlops

n1=256 n2=256 n3=256 nreps=10 num_threads=4 HALF_LENGTH=8
n1_thrd_block=160 n2_thrd_block=44 n3_thrd_block=56
allocating prev, next and vel: total 192 Mbytes
-------------------------------
time:           1.31 sec
throughput:   105.25 MPoints/s
flops:          6.42 GFlops

n1=256 n2=256 n3=256 nreps=10 num_threads=4 HALF_LENGTH=8
n1_thrd_block=160 n2_thrd_block=48 n3_thrd_block=60
allocating prev, next and vel: total 192 Mbytes
-------------------------------
time:           1.62 sec
throughput:    85.37 MPoints/s
flops:          5.21 GFlops

n1=256 n2=256 n3=256 nreps=10 num_threads=4 HALF_LENGTH=8
n1_thrd_block=160 n2_thrd_block=48 n3_thrd_block=52
allocating prev, next and vel: total 192 Mbytes
-------------------------------
time:           1.37 sec
throughput:   100.70 MPoints/s
flops:          6.14 GFlops

n1=256 n2=256 n3=256 nreps=10 num_threads=4 HALF_LENGTH=8
n1_thrd_block=176 n2_thrd_block=44 n3_thrd_block=56
allocating prev, next and vel: total 192 Mbytes
-------------------------------
time:           1.31 sec
throughput:   105.85 MPoints/s
flops:          6.46 GFlops

n1=256 n2=256 n3=256 nreps=10 num_threads=4 HALF_LENGTH=8
n1_thrd_block=144 n2_thrd_block=44 n3_thrd_block=56
allocating prev, next and vel: total 192 Mbytes
-------------------------------
time:           1.27 sec
throughput:   109.10 MPoints/s
flops:          6.66 GFlops

n1=256 n2=256 n3=256 nreps=10 num_threads=4 HALF_LENGTH=8
n1_thrd_block=160 n2_thrd_block=48 n3_thrd_block=56
allocating prev, next and vel: total 192 Mbytes
-------------------------------
time:           1.37 sec
throughput:   100.89 MPoints/s
flops:          6.15 GFlops

n1=256 n2=256 n3=256 nreps=10 num_threads=4 HALF_LENGTH=8
n1_thrd_block=160 n2_thrd_block=40 n3_thrd_block=56
allocating prev, next and vel: total 192 Mbytes
-------------------------------
time:           1.27 sec
throughput:   108.74 MPoints/s
flops:          6.63 GFlops

n1=256 n2=256 n3=256 nreps=10 num_threads=4 HALF_LENGTH=8
n1_thrd_block=160 n2_thrd_block=44 n3_thrd_block=60
allocating prev, next and vel: total 192 Mbytes
-------------------------------
time:           1.44 sec
throughput:    96.14 MPoints/s
flops:          5.86 GFlops

n1=256 n2=256 n3=256 nreps=10 num_threads=4 HALF_LENGTH=8
n1_thrd_block=160 n2_thrd_block=44 n3_thrd_block=52
allocating prev, next and vel: total 192 Mbytes
-------------------------------
time:           1.23 sec
throughput:   112.72 MPoints/s
flops:          6.88 GFlops

mode: greedy-simulated-annhealing
n1=256 n2=256 n3=256 nreps=10 num_threads=4 HALF_LENGTH=8
n1_thrd_block=144 n2_thrd_block=80 n3_thrd_block=116
allocating prev, next and vel: total 192 Mbytes
-------------------------------
time:           1.79 sec
throughput:    77.17 MPoints/s
flops:          4.71 GFlops

n1=256 n2=256 n3=256 nreps=10 num_threads=4 HALF_LENGTH=8
n1_thrd_block=160 n2_thrd_block=80 n3_thrd_block=116
allocating prev, next and vel: total 192 Mbytes
-------------------------------
time:           1.92 sec
throughput:    71.96 MPoints/s
flops:          4.39 GFlops

n1=256 n2=256 n3=256 nreps=10 num_threads=4 HALF_LENGTH=8
n1_thrd_block=128 n2_thrd_block=80 n3_thrd_block=116
allocating prev, next and vel: total 192 Mbytes
-------------------------------
time:           1.76 sec
throughput:    78.44 MPoints/s
flops:          4.78 GFlops

n1=256 n2=256 n3=256 nreps=10 num_threads=4 HALF_LENGTH=8
n1_thrd_block=144 n2_thrd_block=84 n3_thrd_block=116
allocating prev, next and vel: total 192 Mbytes
-------------------------------
time:           1.87 sec
throughput:    73.78 MPoints/s
flops:          4.50 GFlops

n1=256 n2=256 n3=256 nreps=10 num_threads=4 HALF_LENGTH=8
n1_thrd_block=144 n2_thrd_block=76 n3_thrd_block=116
allocating prev, next and vel: total 192 Mbytes
-------------------------------
time:           1.84 sec
throughput:    75.14 MPoints/s
flops:          4.58 GFlops

n1=256 n2=256 n3=256 nreps=10 num_threads=4 HALF_LENGTH=8
n1_thrd_block=144 n2_thrd_block=80 n3_thrd_block=120
allocating prev, next and vel: total 192 Mbytes
-------------------------------
time:           1.85 sec
throughput:    74.57 MPoints/s
flops:          4.55 GFlops

n1=256 n2=256 n3=256 nreps=10 num_threads=4 HALF_LENGTH=8
n1_thrd_block=144 n2_thrd_block=80 n3_thrd_block=112
allocating prev, next and vel: total 192 Mbytes
-------------------------------
time:           1.74 sec
throughput:    79.50 MPoints/s
flops:          4.85 GFlops

n1=256 n2=256 n3=256 nreps=10 num_threads=4 HALF_LENGTH=8
n1_thrd_block=160 n2_thrd_block=80 n3_thrd_block=112
allocating prev, next and vel: total 192 Mbytes
-------------------------------
time:           1.84 sec
throughput:    75.09 MPoints/s
flops:          4.58 GFlops

n1=256 n2=256 n3=256 nreps=10 num_threads=4 HALF_LENGTH=8
n1_thrd_block=128 n2_thrd_block=80 n3_thrd_block=112
allocating prev, next and vel: total 192 Mbytes
-------------------------------
time:           1.81 sec
throughput:    76.35 MPoints/s
flops:          4.66 GFlops

n1=256 n2=256 n3=256 nreps=10 num_threads=4 HALF_LENGTH=8
n1_thrd_block=144 n2_thrd_block=84 n3_thrd_block=112
allocating prev, next and vel: total 192 Mbytes
-------------------------------
time:           1.83 sec
throughput:    75.72 MPoints/s
flops:          4.62 GFlops

n1=256 n2=256 n3=256 nreps=10 num_threads=4 HALF_LENGTH=8
n1_thrd_block=144 n2_thrd_block=76 n3_thrd_block=112
allocating prev, next and vel: total 192 Mbytes
-------------------------------
time:           1.82 sec
throughput:    76.16 MPoints/s
flops:          4.65 GFlops

n1=256 n2=256 n3=256 nreps=10 num_threads=4 HALF_LENGTH=8
n1_thrd_block=144 n2_thrd_block=80 n3_thrd_block=116
allocating prev, next and vel: total 192 Mbytes
-------------------------------
time:           1.82 sec
throughput:    76.13 MPoints/s
flops:          4.64 GFlops

n1=256 n2=256 n3=256 nreps=10 num_threads=4 HALF_LENGTH=8
n1_thrd_block=144 n2_thrd_block=80 n3_thrd_block=108
allocating prev, next and vel: total 192 Mbytes
-------------------------------
time:           1.85 sec
throughput:    74.74 MPoints/s
flops:          4.56 GFlops

n1=256 n2=256 n3=256 nreps=10 num_threads=4 HALF_LENGTH=8
n1_thrd_block=160 n2_thrd_block=80 n3_thrd_block=112
allocating prev, next and vel: total 192 Mbytes
-------------------------------
time:           1.77 sec
throughput:    78.21 MPoints/s
flops:          4.77 GFlops

n1=256 n2=256 n3=256 nreps=10 num_threads=4 HALF_LENGTH=8
n1_thrd_block=128 n2_thrd_block=80 n3_thrd_block=112
allocating prev, next and vel: total 192 Mbytes
-------------------------------
time:           1.71 sec
throughput:    80.74 MPoints/s
flops:          4.93 GFlops

n1=256 n2=256 n3=256 nreps=10 num_threads=4 HALF_LENGTH=8
n1_thrd_block=144 n2_thrd_block=84 n3_thrd_block=112
allocating prev, next and vel: total 192 Mbytes
-------------------------------
time:           1.78 sec
throughput:    77.62 MPoints/s
flops:          4.73 GFlops

n1=256 n2=256 n3=256 nreps=10 num_threads=4 HALF_LENGTH=8
n1_thrd_block=144 n2_thrd_block=76 n3_thrd_block=112
allocating prev, next and vel: total 192 Mbytes
-------------------------------
time:           1.58 sec
throughput:    87.67 MPoints/s
flops:          5.35 GFlops

n1=256 n2=256 n3=256 nreps=10 num_threads=4 HALF_LENGTH=8
n1_thrd_block=144 n2_thrd_block=80 n3_thrd_block=116
allocating prev, next and vel: total 192 Mbytes
-------------------------------
time:           1.63 sec
throughput:    84.72 MPoints/s
flops:          5.17 GFlops

n1=256 n2=256 n3=256 nreps=10 num_threads=4 HALF_LENGTH=8
n1_thrd_block=144 n2_thrd_block=80 n3_thrd_block=108
allocating prev, next and vel: total 192 Mbytes
-------------------------------
time:           1.60 sec
throughput:    86.39 MPoints/s
flops:          5.27 GFlops

mode: greedy-simulated-annhealing
n1=256 n2=256 n3=256 nreps=10 num_threads=4 HALF_LENGTH=8
n1_thrd_block=48 n2_thrd_block=100 n3_thrd_block=24
allocating prev, next and vel: total 192 Mbytes
-------------------------------
time:           1.77 sec
throughput:    78.19 MPoints/s
flops:          4.77 GFlops

n1=256 n2=256 n3=256 nreps=10 num_threads=4 HALF_LENGTH=8
n1_thrd_block=64 n2_thrd_block=100 n3_thrd_block=24
allocating prev, next and vel: total 192 Mbytes
-------------------------------
time:           1.78 sec
throughput:    77.62 MPoints/s
flops:          4.73 GFlops

n1=256 n2=256 n3=256 nreps=10 num_threads=4 HALF_LENGTH=8
n1_thrd_block=32 n2_thrd_block=100 n3_thrd_block=24
allocating prev, next and vel: total 192 Mbytes
-------------------------------
time:           1.95 sec
throughput:    70.91 MPoints/s
flops:          4.33 GFlops

n1=256 n2=256 n3=256 nreps=10 num_threads=4 HALF_LENGTH=8
n1_thrd_block=48 n2_thrd_block=104 n3_thrd_block=24
allocating prev, next and vel: total 192 Mbytes
-------------------------------
time:           1.80 sec
throughput:    76.89 MPoints/s
flops:          4.69 GFlops

n1=256 n2=256 n3=256 nreps=10 num_threads=4 HALF_LENGTH=8
n1_thrd_block=48 n2_thrd_block=96 n3_thrd_block=24
allocating prev, next and vel: total 192 Mbytes
-------------------------------
time:           1.79 sec
throughput:    77.07 MPoints/s
flops:          4.70 GFlops

n1=256 n2=256 n3=256 nreps=10 num_threads=4 HALF_LENGTH=8
n1_thrd_block=48 n2_thrd_block=100 n3_thrd_block=28
allocating prev, next and vel: total 192 Mbytes
-------------------------------
time:           1.77 sec
throughput:    77.99 MPoints/s
flops:          4.76 GFlops

n1=256 n2=256 n3=256 nreps=10 num_threads=4 HALF_LENGTH=8
n1_thrd_block=48 n2_thrd_block=100 n3_thrd_block=20
allocating prev, next and vel: total 192 Mbytes
-------------------------------
time:           1.84 sec
throughput:    75.10 MPoints/s
flops:          4.58 GFlops

n1=256 n2=256 n3=256 nreps=10 num_threads=4 HALF_LENGTH=8
n1_thrd_block=64 n2_thrd_block=100 n3_thrd_block=24
allocating prev, next and vel: total 192 Mbytes
-------------------------------
time:           1.73 sec
throughput:    79.83 MPoints/s
flops:          4.87 GFlops

n1=256 n2=256 n3=256 nreps=10 num_threads=4 HALF_LENGTH=8
n1_thrd_block=32 n2_thrd_block=100 n3_thrd_block=24
allocating prev, next and vel: total 192 Mbytes
-------------------------------
time:           1.91 sec
throughput:    72.23 MPoints/s
flops:          4.41 GFlops

n1=256 n2=256 n3=256 nreps=10 num_threads=4 HALF_LENGTH=8
n1_thrd_block=48 n2_thrd_block=104 n3_thrd_block=24
allocating prev, next and vel: total 192 Mbytes
-------------------------------
time:           1.79 sec
throughput:    77.18 MPoints/s
flops:          4.71 GFlops

n1=256 n2=256 n3=256 nreps=10 num_threads=4 HALF_LENGTH=8
n1_thrd_block=48 n2_thrd_block=96 n3_thrd_block=24
allocating prev, next and vel: total 192 Mbytes
-------------------------------
time:           1.78 sec
throughput:    77.47 MPoints/s
flops:          4.73 GFlops

n1=256 n2=256 n3=256 nreps=10 num_threads=4 HALF_LENGTH=8
n1_thrd_block=48 n2_thrd_block=100 n3_thrd_block=28
allocating prev, next and vel: total 192 Mbytes
-------------------------------
time:           1.73 sec
throughput:    80.11 MPoints/s
flops:          4.89 GFlops

n1=256 n2=256 n3=256 nreps=10 num_threads=4 HALF_LENGTH=8
n1_thrd_block=48 n2_thrd_block=100 n3_thrd_block=20
allocating prev, next and vel: total 192 Mbytes
-------------------------------
time:           1.76 sec
throughput:    78.40 MPoints/s
flops:          4.78 GFlops

n1=256 n2=256 n3=256 nreps=10 num_threads=4 HALF_LENGTH=8
n1_thrd_block=80 n2_thrd_block=100 n3_thrd_block=24
allocating prev, next and vel: total 192 Mbytes
-------------------------------
time:           1.65 sec
throughput:    83.75 MPoints/s
flops:          5.11 GFlops

n1=256 n2=256 n3=256 nreps=10 num_threads=4 HALF_LENGTH=8
n1_thrd_block=48 n2_thrd_block=100 n3_thrd_block=24
allocating prev, next and vel: total 192 Mbytes
-------------------------------
time:           1.70 sec
throughput:    81.11 MPoints/s
flops:          4.95 GFlops

n1=256 n2=256 n3=256 nreps=10 num_threads=4 HALF_LENGTH=8
n1_thrd_block=64 n2_thrd_block=104 n3_thrd_block=24
allocating prev, next and vel: total 192 Mbytes
-------------------------------
time:           1.68 sec
throughput:    82.34 MPoints/s
flops:          5.02 GFlops

n1=256 n2=256 n3=256 nreps=10 num_threads=4 HALF_LENGTH=8
n1_thrd_block=64 n2_thrd_block=96 n3_thrd_block=24
allocating prev, next and vel: total 192 Mbytes
-------------------------------
time:           1.63 sec
throughput:    84.68 MPoints/s
flops:          5.17 GFlops

n1=256 n2=256 n3=256 nreps=10 num_threads=4 HALF_LENGTH=8
n1_thrd_block=64 n2_thrd_block=100 n3_thrd_block=28
allocating prev, next and vel: total 192 Mbytes
-------------------------------
time:           1.58 sec
throughput:    87.67 MPoints/s
flops:          5.35 GFlops

n1=256 n2=256 n3=256 nreps=10 num_threads=4 HALF_LENGTH=8
n1_thrd_block=64 n2_thrd_block=100 n3_thrd_block=20
allocating prev, next and vel: total 192 Mbytes
-------------------------------
time:           1.63 sec
throughput:    84.89 MPoints/s
flops:          5.18 GFlops

mode: greedy-simulated-annhealing
n1=256 n2=256 n3=256 nreps=10 num_threads=4 HALF_LENGTH=8
n1_thrd_block=96 n2_thrd_block=60 n3_thrd_block=76
allocating prev, next and vel: total 192 Mbytes
-------------------------------
time:           1.61 sec
throughput:    85.61 MPoints/s
flops:          5.22 GFlops

n1=256 n2=256 n3=256 nreps=10 num_threads=4 HALF_LENGTH=8
n1_thrd_block=112 n2_thrd_block=60 n3_thrd_block=76
allocating prev, next and vel: total 192 Mbytes
-------------------------------
time:           1.76 sec
throughput:    78.72 MPoints/s
flops:          4.80 GFlops

n1=256 n2=256 n3=256 nreps=10 num_threads=4 HALF_LENGTH=8
n1_thrd_block=80 n2_thrd_block=60 n3_thrd_block=76
allocating prev, next and vel: total 192 Mbytes
-------------------------------
time:           1.63 sec
throughput:    84.78 MPoints/s
flops:          5.17 GFlops

n1=256 n2=256 n3=256 nreps=10 num_threads=4 HALF_LENGTH=8
n1_thrd_block=96 n2_thrd_block=64 n3_thrd_block=76
allocating prev, next and vel: total 192 Mbytes
-------------------------------
time:           1.65 sec
throughput:    83.84 MPoints/s
flops:          5.11 GFlops

n1=256 n2=256 n3=256 nreps=10 num_threads=4 HALF_LENGTH=8
n1_thrd_block=96 n2_thrd_block=56 n3_thrd_block=76
allocating prev, next and vel: total 192 Mbytes
-------------------------------
time:           1.62 sec
throughput:    85.44 MPoints/s
flops:          5.21 GFlops

n1=256 n2=256 n3=256 nreps=10 num_threads=4 HALF_LENGTH=8
n1_thrd_block=96 n2_thrd_block=60 n3_thrd_block=80
allocating prev, next and vel: total 192 Mbytes
-------------------------------
time:           1.64 sec
throughput:    84.23 MPoints/s
flops:          5.14 GFlops

n1=256 n2=256 n3=256 nreps=10 num_threads=4 HALF_LENGTH=8
n1_thrd_block=96 n2_thrd_block=60 n3_thrd_block=72
allocating prev, next and vel: total 192 Mbytes
-------------------------------
time:           1.67 sec
throughput:    82.75 MPoints/s
flops:          5.05 GFlops

n1=256 n2=256 n3=256 nreps=10 num_threads=4 HALF_LENGTH=8
n1_thrd_block=112 n2_thrd_block=60 n3_thrd_block=76
allocating prev, next and vel: total 192 Mbytes
-------------------------------
time:           1.63 sec
throughput:    84.87 MPoints/s
flops:          5.18 GFlops

n1=256 n2=256 n3=256 nreps=10 num_threads=4 HALF_LENGTH=8
n1_thrd_block=80 n2_thrd_block=60 n3_thrd_block=76
allocating prev, next and vel: total 192 Mbytes
-------------------------------
time:           1.65 sec
throughput:    83.97 MPoints/s
flops:          5.12 GFlops

n1=256 n2=256 n3=256 nreps=10 num_threads=4 HALF_LENGTH=8
n1_thrd_block=96 n2_thrd_block=64 n3_thrd_block=76
allocating prev, next and vel: total 192 Mbytes
-------------------------------
time:           1.63 sec
throughput:    84.95 MPoints/s
flops:          5.18 GFlops

n1=256 n2=256 n3=256 nreps=10 num_threads=4 HALF_LENGTH=8
n1_thrd_block=96 n2_thrd_block=56 n3_thrd_block=76
allocating prev, next and vel: total 192 Mbytes
-------------------------------
time:           1.55 sec
throughput:    89.44 MPoints/s
flops:          5.46 GFlops

n1=256 n2=256 n3=256 nreps=10 num_threads=4 HALF_LENGTH=8
n1_thrd_block=96 n2_thrd_block=60 n3_thrd_block=80
allocating prev, next and vel: total 192 Mbytes
-------------------------------
time:           1.65 sec
throughput:    83.83 MPoints/s
flops:          5.11 GFlops

n1=256 n2=256 n3=256 nreps=10 num_threads=4 HALF_LENGTH=8
n1_thrd_block=96 n2_thrd_block=60 n3_thrd_block=72
allocating prev, next and vel: total 192 Mbytes
-------------------------------
time:           1.61 sec
throughput:    85.97 MPoints/s
flops:          5.24 GFlops

n1=256 n2=256 n3=256 nreps=10 num_threads=4 HALF_LENGTH=8
n1_thrd_block=112 n2_thrd_block=56 n3_thrd_block=76
allocating prev, next and vel: total 192 Mbytes
-------------------------------
time:           1.55 sec
throughput:    89.36 MPoints/s
flops:          5.45 GFlops

n1=256 n2=256 n3=256 nreps=10 num_threads=4 HALF_LENGTH=8
n1_thrd_block=80 n2_thrd_block=56 n3_thrd_block=76
allocating prev, next and vel: total 192 Mbytes
-------------------------------
time:           1.56 sec
throughput:    88.65 MPoints/s
flops:          5.41 GFlops

n1=256 n2=256 n3=256 nreps=10 num_threads=4 HALF_LENGTH=8
n1_thrd_block=96 n2_thrd_block=60 n3_thrd_block=76
allocating prev, next and vel: total 192 Mbytes
-------------------------------
time:           1.60 sec
throughput:    86.49 MPoints/s
flops:          5.28 GFlops

n1=256 n2=256 n3=256 nreps=10 num_threads=4 HALF_LENGTH=8
n1_thrd_block=96 n2_thrd_block=52 n3_thrd_block=76
allocating prev, next and vel: total 192 Mbytes
-------------------------------
time:           1.47 sec
throughput:    93.74 MPoints/s
flops:          5.72 GFlops

n1=256 n2=256 n3=256 nreps=10 num_threads=4 HALF_LENGTH=8
n1_thrd_block=96 n2_thrd_block=56 n3_thrd_block=80
allocating prev, next and vel: total 192 Mbytes
-------------------------------
time:           1.57 sec
throughput:    88.25 MPoints/s
flops:          5.38 GFlops

n1=256 n2=256 n3=256 nreps=10 num_threads=4 HALF_LENGTH=8
n1_thrd_block=96 n2_thrd_block=56 n3_thrd_block=72
allocating prev, next and vel: total 192 Mbytes
-------------------------------
time:           1.44 sec
throughput:    95.88 MPoints/s
flops:          5.85 GFlops

mode: greedy-simulated-annhealing
n1=256 n2=256 n3=256 nreps=10 num_threads=4 HALF_LENGTH=8
n1_thrd_block=160 n2_thrd_block=152 n3_thrd_block=132
allocating prev, next and vel: total 192 Mbytes
-------------------------------
time:           2.53 sec
throughput:    54.55 MPoints/s
flops:          3.33 GFlops

n1=256 n2=256 n3=256 nreps=10 num_threads=4 HALF_LENGTH=8
n1_thrd_block=176 n2_thrd_block=152 n3_thrd_block=132
allocating prev, next and vel: total 192 Mbytes
-------------------------------
time:           2.62 sec
throughput:    52.71 MPoints/s
flops:          3.22 GFlops

n1=256 n2=256 n3=256 nreps=10 num_threads=4 HALF_LENGTH=8
n1_thrd_block=144 n2_thrd_block=152 n3_thrd_block=132
allocating prev, next and vel: total 192 Mbytes
-------------------------------
time:           2.58 sec
throughput:    53.55 MPoints/s
flops:          3.27 GFlops

n1=256 n2=256 n3=256 nreps=10 num_threads=4 HALF_LENGTH=8
n1_thrd_block=160 n2_thrd_block=156 n3_thrd_block=132
allocating prev, next and vel: total 192 Mbytes
-------------------------------
time:           2.23 sec
throughput:    61.97 MPoints/s
flops:          3.78 GFlops

n1=256 n2=256 n3=256 nreps=10 num_threads=4 HALF_LENGTH=8
n1_thrd_block=160 n2_thrd_block=148 n3_thrd_block=132
allocating prev, next and vel: total 192 Mbytes
-------------------------------
time:           2.23 sec
throughput:    62.00 MPoints/s
flops:          3.78 GFlops

n1=256 n2=256 n3=256 nreps=10 num_threads=4 HALF_LENGTH=8
n1_thrd_block=160 n2_thrd_block=152 n3_thrd_block=136
allocating prev, next and vel: total 192 Mbytes
-------------------------------
time:           2.61 sec
throughput:    52.95 MPoints/s
flops:          3.23 GFlops

n1=256 n2=256 n3=256 nreps=10 num_threads=4 HALF_LENGTH=8
n1_thrd_block=160 n2_thrd_block=152 n3_thrd_block=128
allocating prev, next and vel: total 192 Mbytes
-------------------------------
time:           2.50 sec
throughput:    55.37 MPoints/s
flops:          3.38 GFlops

n1=256 n2=256 n3=256 nreps=10 num_threads=4 HALF_LENGTH=8
n1_thrd_block=176 n2_thrd_block=156 n3_thrd_block=132
allocating prev, next and vel: total 192 Mbytes
-------------------------------
time:           2.20 sec
throughput:    62.70 MPoints/s
flops:          3.82 GFlops

n1=256 n2=256 n3=256 nreps=10 num_threads=4 HALF_LENGTH=8
n1_thrd_block=144 n2_thrd_block=156 n3_thrd_block=132
allocating prev, next and vel: total 192 Mbytes
-------------------------------
time:           2.55 sec
throughput:    54.31 MPoints/s
flops:          3.31 GFlops

n1=256 n2=256 n3=256 nreps=10 num_threads=4 HALF_LENGTH=8
n1_thrd_block=160 n2_thrd_block=160 n3_thrd_block=132
allocating prev, next and vel: total 192 Mbytes
-------------------------------
time:           2.24 sec
throughput:    61.68 MPoints/s
flops:          3.76 GFlops

n1=256 n2=256 n3=256 nreps=10 num_threads=4 HALF_LENGTH=8
n1_thrd_block=160 n2_thrd_block=152 n3_thrd_block=132
allocating prev, next and vel: total 192 Mbytes
-------------------------------
time:           2.47 sec
throughput:    56.07 MPoints/s
flops:          3.42 GFlops

n1=256 n2=256 n3=256 nreps=10 num_threads=4 HALF_LENGTH=8
n1_thrd_block=160 n2_thrd_block=156 n3_thrd_block=136
allocating prev, next and vel: total 192 Mbytes
-------------------------------
time:           2.55 sec
throughput:    54.23 MPoints/s
flops:          3.31 GFlops

n1=256 n2=256 n3=256 nreps=10 num_threads=4 HALF_LENGTH=8
n1_thrd_block=160 n2_thrd_block=156 n3_thrd_block=128
allocating prev, next and vel: total 192 Mbytes
-------------------------------
time:           2.30 sec
throughput:    60.17 MPoints/s
flops:          3.67 GFlops

n1=256 n2=256 n3=256 nreps=10 num_threads=4 HALF_LENGTH=8
n1_thrd_block=192 n2_thrd_block=156 n3_thrd_block=132
allocating prev, next and vel: total 192 Mbytes
-------------------------------
time:           2.28 sec
throughput:    60.69 MPoints/s
flops:          3.70 GFlops

n1=256 n2=256 n3=256 nreps=10 num_threads=4 HALF_LENGTH=8
n1_thrd_block=160 n2_thrd_block=156 n3_thrd_block=132
allocating prev, next and vel: total 192 Mbytes
-------------------------------
time:           1.90 sec
throughput:    72.86 MPoints/s
flops:          4.44 GFlops

n1=256 n2=256 n3=256 nreps=10 num_threads=4 HALF_LENGTH=8
n1_thrd_block=176 n2_thrd_block=160 n3_thrd_block=132
allocating prev, next and vel: total 192 Mbytes
-------------------------------
time:           2.04 sec
throughput:    67.80 MPoints/s
flops:          4.14 GFlops

n1=256 n2=256 n3=256 nreps=10 num_threads=4 HALF_LENGTH=8
n1_thrd_block=176 n2_thrd_block=152 n3_thrd_block=132
allocating prev, next and vel: total 192 Mbytes
-------------------------------
time:           1.99 sec
throughput:    69.50 MPoints/s
flops:          4.24 GFlops

n1=256 n2=256 n3=256 nreps=10 num_threads=4 HALF_LENGTH=8
n1_thrd_block=176 n2_thrd_block=156 n3_thrd_block=136
allocating prev, next and vel: total 192 Mbytes
-------------------------------
time:           2.09 sec
throughput:    66.01 MPoints/s
flops:          4.03 GFlops

n1=256 n2=256 n3=256 nreps=10 num_threads=4 HALF_LENGTH=8
n1_thrd_block=176 n2_thrd_block=156 n3_thrd_block=128
allocating prev, next and vel: total 192 Mbytes
-------------------------------
time:           1.98 sec
throughput:    69.83 MPoints/s
flops:          4.26 GFlops

mode: greedy-simulated-annhealing
PE:  0 / 16 : all processes started
n1=256 n2=256 n3=256 nreps=10 num_threads=4 HALF_LENGTH=8
n1_thrd_block=112 n2_thrd_block=68 n3_thrd_block=144
allocating prev, next and vel: total 192 Mbytes
-------------------------------
time:           1.68 sec
throughput:    82.18 MPoints/s
flops:          5.01 GFlops

n1=256 n2=256 n3=256 nreps=10 num_threads=4 HALF_LENGTH=8
n1_thrd_block=128 n2_thrd_block=68 n3_thrd_block=144
allocating prev, next and vel: total 192 Mbytes
-------------------------------
time:           1.80 sec
throughput:    76.85 MPoints/s
flops:          4.69 GFlops

n1=256 n2=256 n3=256 nreps=10 num_threads=4 HALF_LENGTH=8
n1_thrd_block=96 n2_thrd_block=68 n3_thrd_block=144
allocating prev, next and vel: total 192 Mbytes
-------------------------------
time:           1.74 sec
throughput:    79.61 MPoints/s
flops:          4.86 GFlops

n1=256 n2=256 n3=256 nreps=10 num_threads=4 HALF_LENGTH=8
n1_thrd_block=112 n2_thrd_block=72 n3_thrd_block=144
allocating prev, next and vel: total 192 Mbytes
-------------------------------
time:           1.90 sec
throughput:    72.82 MPoints/s
flops:          4.44 GFlops

n1=256 n2=256 n3=256 nreps=10 num_threads=4 HALF_LENGTH=8
n1_thrd_block=112 n2_thrd_block=64 n3_thrd_block=144
allocating prev, next and vel: total 192 Mbytes
-------------------------------
time:           1.83 sec
throughput:    75.57 MPoints/s
flops:          4.61 GFlops

n1=256 n2=256 n3=256 nreps=10 num_threads=4 HALF_LENGTH=8
n1_thrd_block=112 n2_thrd_block=68 n3_thrd_block=148
allocating prev, next and vel: total 192 Mbytes
-------------------------------
time:           1.74 sec
throughput:    79.54 MPoints/s
flops:          4.85 GFlops

n1=256 n2=256 n3=256 nreps=10 num_threads=4 HALF_LENGTH=8
n1_thrd_block=112 n2_thrd_block=68 n3_thrd_block=140
allocating prev, next and vel: total 192 Mbytes
-------------------------------
time:           1.72 sec
throughput:    80.23 MPoints/s
flops:          4.89 GFlops

n1=256 n2=256 n3=256 nreps=10 num_threads=4 HALF_LENGTH=8
n1_thrd_block=128 n2_thrd_block=68 n3_thrd_block=144
allocating prev, next and vel: total 192 Mbytes
-------------------------------
time:           1.74 sec
throughput:    79.58 MPoints/s
flops:          4.85 GFlops

n1=256 n2=256 n3=256 nreps=10 num_threads=4 HALF_LENGTH=8
n1_thrd_block=96 n2_thrd_block=68 n3_thrd_block=144
allocating prev, next and vel: total 192 Mbytes
-------------------------------
time:           1.71 sec
throughput:    80.90 MPoints/s
flops:          4.93 GFlops

n1=256 n2=256 n3=256 nreps=10 num_threads=4 HALF_LENGTH=8
n1_thrd_block=112 n2_thrd_block=72 n3_thrd_block=144
allocating prev, next and vel: total 192 Mbytes
-------------------------------
time:           1.76 sec
throughput:    78.58 MPoints/s
flops:          4.79 GFlops

n1=256 n2=256 n3=256 nreps=10 num_threads=4 HALF_LENGTH=8
n1_thrd_block=112 n2_thrd_block=64 n3_thrd_block=144
allocating prev, next and vel: total 192 Mbytes
-------------------------------
time:           1.82 sec
throughput:    75.78 MPoints/s
flops:          4.62 GFlops

n1=256 n2=256 n3=256 nreps=10 num_threads=4 HALF_LENGTH=8
n1_thrd_block=112 n2_thrd_block=68 n3_thrd_block=148
allocating prev, next and vel: total 192 Mbytes
-------------------------------
time:           1.75 sec
throughput:    79.19 MPoints/s
flops:          4.83 GFlops

n1=256 n2=256 n3=256 nreps=10 num_threads=4 HALF_LENGTH=8
n1_thrd_block=112 n2_thrd_block=68 n3_thrd_block=140
allocating prev, next and vel: total 192 Mbytes
-------------------------------
time:           1.71 sec
throughput:    80.64 MPoints/s
flops:          4.92 GFlops

n1=256 n2=256 n3=256 nreps=10 num_threads=4 HALF_LENGTH=8
n1_thrd_block=128 n2_thrd_block=68 n3_thrd_block=144
allocating prev, next and vel: total 192 Mbytes
-------------------------------
time:           1.70 sec
throughput:    81.54 MPoints/s
flops:          4.97 GFlops

n1=256 n2=256 n3=256 nreps=10 num_threads=4 HALF_LENGTH=8
n1_thrd_block=96 n2_thrd_block=68 n3_thrd_block=144
allocating prev, next and vel: total 192 Mbytes
-------------------------------
time:           1.66 sec
throughput:    83.30 MPoints/s
flops:          5.08 GFlops

n1=256 n2=256 n3=256 nreps=10 num_threads=4 HALF_LENGTH=8
n1_thrd_block=112 n2_thrd_block=72 n3_thrd_block=144
allocating prev, next and vel: total 192 Mbytes
-------------------------------
time:           1.68 sec
throughput:    82.26 MPoints/s
flops:          5.02 GFlops

n1=256 n2=256 n3=256 nreps=10 num_threads=4 HALF_LENGTH=8
n1_thrd_block=112 n2_thrd_block=64 n3_thrd_block=144
allocating prev, next and vel: total 192 Mbytes
-------------------------------
time:           1.63 sec
throughput:    84.64 MPoints/s
flops:          5.16 GFlops

n1=256 n2=256 n3=256 nreps=10 num_threads=4 HALF_LENGTH=8
n1_thrd_block=112 n2_thrd_block=68 n3_thrd_block=148
allocating prev, next and vel: total 192 Mbytes
-------------------------------
time:           1.62 sec
throughput:    85.13 MPoints/s
flops:          5.19 GFlops

n1=256 n2=256 n3=256 nreps=10 num_threads=4 HALF_LENGTH=8
n1_thrd_block=112 n2_thrd_block=68 n3_thrd_block=140
allocating prev, next and vel: total 192 Mbytes
-------------------------------
time:           1.60 sec
throughput:    86.49 MPoints/s
flops:          5.28 GFlops

FINAL RESULTS --------------------------------------------------------------//

      RESULTS OF THE BEST PERFORMING RUN (with greedy-simulated-annhealing):
      - Minimum energy found: 0.96 (by process #9 after 3 iterations)
      - Starting parameters for tunable fields (xCacheBlocking, yCacheBlocking, zCacheBlocking):
        [144  20  48]
      - Final parameters for tunable fields:
        [160  16  48]

Press enter to exit, <y> and enter to print results from all processes.

