cpust75_3@kyle01:~/Proj-Intel/Appli-iso3dfd$ python3 main.py -XCB -YCB -ZCB -o annealing
MPI startup(): PMI server not found. Please set I_MPI_PMI_LIBRARY variable if it is not a singleton case.
ls: cannot access 'src': No such file or directory
icpc: remark #10397: optimization reports are generated in *.optrpt files in the output location
icpc: remark #10397: optimization reports are generated in *.optrpt files in the output location
<MeId: 1>
n1=256 n2=256 n3=256 nreps=100 num_threads=4 HALF_LENGTH=8
n1_thrd_block=160 n2_thrd_block=112 n3_thrd_block=48
allocating prev, next and vel: total 192 Mbytes
-------------------------------
time:          36.89 sec
throughput:    37.47 MPoints/s
flops:          2.29 GFlops

<MeId: 1>
n1=256 n2=256 n3=256 nreps=100 num_threads=4 HALF_LENGTH=8
n1_thrd_block=160 n2_thrd_block=116 n3_thrd_block=48
allocating prev, next and vel: total 192 Mbytes
-------------------------------
time:          37.21 sec
throughput:    37.15 MPoints/s
flops:          2.27 GFlops

<MeId: 1>
n1=256 n2=256 n3=256 nreps=100 num_threads=4 HALF_LENGTH=8
n1_thrd_block=160 n2_thrd_block=116 n3_thrd_block=52
allocating prev, next and vel: total 192 Mbytes
-------------------------------
time:          37.10 sec
throughput:    37.27 MPoints/s
flops:          2.27 GFlops

<MeId: 1>
n1=256 n2=256 n3=256 nreps=100 num_threads=4 HALF_LENGTH=8
n1_thrd_block=160 n2_thrd_block=112 n3_thrd_block=52
allocating prev, next and vel: total 192 Mbytes
-------------------------------
time:          36.12 sec
throughput:    38.27 MPoints/s
flops:          2.33 GFlops


 tune_launch:['xCacheBlocking', 'yCacheBlocking', 'zCacheBlocking']

<MeId: 1>
n1=256 n2=256 n3=256 nreps=100 num_threads=4 HALF_LENGTH=8
n1_thrd_block=160 n2_thrd_block=112 n3_thrd_block=52
allocating prev, next and vel: total 192 Mbytes
-------------------------------
time:          36.11 sec
throughput:    38.28 MPoints/s
flops:          2.34 GFlops

<MeId: 1>
n1=256 n2=256 n3=256 nreps=100 num_threads=4 HALF_LENGTH=8
n1_thrd_block=160 n2_thrd_block=112 n3_thrd_block=48
allocating prev, next and vel: total 192 Mbytes
-------------------------------
time:          36.33 sec
throughput:    38.05 MPoints/s
flops:          2.32 GFlops

<MeId: 1>
n1=256 n2=256 n3=256 nreps=100 num_threads=4 HALF_LENGTH=8
n1_thrd_block=176 n2_thrd_block=112 n3_thrd_block=52
allocating prev, next and vel: total 192 Mbytes
-------------------------------
time:          36.22 sec
throughput:    38.17 MPoints/s
flops:          2.33 GFlops

<MeId: 1>
n1=256 n2=256 n3=256 nreps=100 num_threads=4 HALF_LENGTH=8
n1_thrd_block=160 n2_thrd_block=112 n3_thrd_block=56
allocating prev, next and vel: total 192 Mbytes
-------------------------------
time:          35.81 sec
throughput:    38.60 MPoints/s
flops:          2.35 GFlops

<MeId: 2>
n1=256 n2=256 n3=256 nreps=100 num_threads=4 HALF_LENGTH=8
n1_thrd_block=48 n2_thrd_block=80 n3_thrd_block=36
allocating prev, next and vel: total 192 Mbytes
-------------------------------
time:          36.99 sec
throughput:    37.37 MPoints/s
flops:          2.28 GFlops

<MeId: 2>
n1=256 n2=256 n3=256 nreps=100 num_threads=4 HALF_LENGTH=8
n1_thrd_block=64 n2_thrd_block=80 n3_thrd_block=36
allocating prev, next and vel: total 192 Mbytes
-------------------------------
time:          35.50 sec
throughput:    38.94 MPoints/s
flops:          2.38 GFlops

<MeId: 2>
n1=256 n2=256 n3=256 nreps=100 num_threads=4 HALF_LENGTH=8
n1_thrd_block=64 n2_thrd_block=80 n3_thrd_block=40
allocating prev, next and vel: total 192 Mbytes
-------------------------------
time:          35.17 sec
throughput:    39.31 MPoints/s
flops:          2.40 GFlops

<MeId: 2>
n1=256 n2=256 n3=256 nreps=100 num_threads=4 HALF_LENGTH=8
n1_thrd_block=64 n2_thrd_block=84 n3_thrd_block=40
allocating prev, next and vel: total 192 Mbytes
-------------------------------
time:          35.21 sec
throughput:    39.26 MPoints/s
flops:          2.39 GFlops


 tune_launch:['xCacheBlocking', 'yCacheBlocking', 'zCacheBlocking']

<MeId: 2>
n1=256 n2=256 n3=256 nreps=100 num_threads=4 HALF_LENGTH=8
n1_thrd_block=64 n2_thrd_block=84 n3_thrd_block=40
allocating prev, next and vel: total 192 Mbytes
-------------------------------
time:          35.42 sec
throughput:    39.03 MPoints/s
flops:          2.38 GFlops

<MeId: 2>
n1=256 n2=256 n3=256 nreps=100 num_threads=4 HALF_LENGTH=8
n1_thrd_block=64 n2_thrd_block=84 n3_thrd_block=36
allocating prev, next and vel: total 192 Mbytes
-------------------------------
time:          35.49 sec
throughput:    38.95 MPoints/s
flops:          2.38 GFlops

<MeId: 2>
n1=256 n2=256 n3=256 nreps=100 num_threads=4 HALF_LENGTH=8
n1_thrd_block=48 n2_thrd_block=84 n3_thrd_block=40
allocating prev, next and vel: total 192 Mbytes
-------------------------------
time:          36.53 sec
throughput:    37.84 MPoints/s
flops:          2.31 GFlops

<MeId: 2>
n1=256 n2=256 n3=256 nreps=100 num_threads=4 HALF_LENGTH=8
n1_thrd_block=80 n2_thrd_block=84 n3_thrd_block=40
allocating prev, next and vel: total 192 Mbytes
-------------------------------
time:          26.47 sec
throughput:    52.22 MPoints/s
flops:          3.19 GFlops

<MeId: 3>
n1=256 n2=256 n3=256 nreps=100 num_threads=4 HALF_LENGTH=8
n1_thrd_block=112 n2_thrd_block=28 n3_thrd_block=92
allocating prev, next and vel: total 192 Mbytes
-------------------------------
time:          31.64 sec
throughput:    43.69 MPoints/s
flops:          2.66 GFlops

<MeId: 3>
n1=256 n2=256 n3=256 nreps=100 num_threads=4 HALF_LENGTH=8
n1_thrd_block=112 n2_thrd_block=28 n3_thrd_block=96
allocating prev, next and vel: total 192 Mbytes
-------------------------------
time:          32.05 sec
throughput:    43.13 MPoints/s
flops:          2.63 GFlops

<MeId: 3>
n1=256 n2=256 n3=256 nreps=100 num_threads=4 HALF_LENGTH=8
n1_thrd_block=112 n2_thrd_block=24 n3_thrd_block=96
allocating prev, next and vel: total 192 Mbytes
-------------------------------
time:          31.19 sec
throughput:    44.32 MPoints/s
flops:          2.70 GFlops

<MeId: 3>
n1=256 n2=256 n3=256 nreps=100 num_threads=4 HALF_LENGTH=8
n1_thrd_block=112 n2_thrd_block=24 n3_thrd_block=92
allocating prev, next and vel: total 192 Mbytes
-------------------------------
time:          30.81 sec
throughput:    44.88 MPoints/s
flops:          2.74 GFlops


 tune_launch:['xCacheBlocking', 'yCacheBlocking', 'zCacheBlocking']

<MeId: 3>
n1=256 n2=256 n3=256 nreps=100 num_threads=4 HALF_LENGTH=8
n1_thrd_block=112 n2_thrd_block=24 n3_thrd_block=92
allocating prev, next and vel: total 192 Mbytes
-------------------------------
time:          30.80 sec
throughput:    44.88 MPoints/s
flops:          2.74 GFlops

<MeId: 3>
n1=256 n2=256 n3=256 nreps=100 num_threads=4 HALF_LENGTH=8
n1_thrd_block=112 n2_thrd_block=24 n3_thrd_block=88
allocating prev, next and vel: total 192 Mbytes
-------------------------------
time:          30.55 sec
throughput:    45.25 MPoints/s
flops:          2.76 GFlops

<MeId: 3>
n1=256 n2=256 n3=256 nreps=100 num_threads=4 HALF_LENGTH=8
n1_thrd_block=112 n2_thrd_block=28 n3_thrd_block=88
allocating prev, next and vel: total 192 Mbytes
-------------------------------
time:          31.41 sec
throughput:    44.01 MPoints/s
flops:          2.68 GFlops

<MeId: 3>
n1=256 n2=256 n3=256 nreps=100 num_threads=4 HALF_LENGTH=8
n1_thrd_block=112 n2_thrd_block=24 n3_thrd_block=92
allocating prev, next and vel: total 192 Mbytes
-------------------------------
time:          30.93 sec
throughput:    44.70 MPoints/s
flops:          2.73 GFlops

<MeId: 4>
n1=256 n2=256 n3=256 nreps=100 num_threads=4 HALF_LENGTH=8
n1_thrd_block=128 n2_thrd_block=140 n3_thrd_block=116
allocating prev, next and vel: total 192 Mbytes
-------------------------------
time:          46.71 sec
throughput:    29.59 MPoints/s
flops:          1.81 GFlops

<MeId: 4>
n1=256 n2=256 n3=256 nreps=100 num_threads=4 HALF_LENGTH=8
n1_thrd_block=128 n2_thrd_block=140 n3_thrd_block=120
allocating prev, next and vel: total 192 Mbytes
-------------------------------
time:          47.92 sec
throughput:    28.85 MPoints/s
flops:          1.76 GFlops

<MeId: 4>
n1=256 n2=256 n3=256 nreps=100 num_threads=4 HALF_LENGTH=8
n1_thrd_block=128 n2_thrd_block=144 n3_thrd_block=120
allocating prev, next and vel: total 192 Mbytes
-------------------------------
time:          49.33 sec
throughput:    28.03 MPoints/s
flops:          1.71 GFlops

<MeId: 4>
n1=256 n2=256 n3=256 nreps=100 num_threads=4 HALF_LENGTH=8
n1_thrd_block=128 n2_thrd_block=148 n3_thrd_block=120
allocating prev, next and vel: total 192 Mbytes
-------------------------------
time:          51.01 sec
throughput:    27.10 MPoints/s
flops:          1.65 GFlops


 tune_launch:['xCacheBlocking', 'yCacheBlocking', 'zCacheBlocking']

<MeId: 4>
n1=256 n2=256 n3=256 nreps=100 num_threads=4 HALF_LENGTH=8
n1_thrd_block=128 n2_thrd_block=148 n3_thrd_block=120
allocating prev, next and vel: total 192 Mbytes
-------------------------------
time:          51.05 sec
throughput:    27.08 MPoints/s
flops:          1.65 GFlops

<MeId: 4>
n1=256 n2=256 n3=256 nreps=100 num_threads=4 HALF_LENGTH=8
n1_thrd_block=112 n2_thrd_block=148 n3_thrd_block=120
allocating prev, next and vel: total 192 Mbytes
-------------------------------
time:          49.48 sec
throughput:    27.94 MPoints/s
flops:          1.70 GFlops

<MeId: 4>
n1=256 n2=256 n3=256 nreps=100 num_threads=4 HALF_LENGTH=8
n1_thrd_block=128 n2_thrd_block=148 n3_thrd_block=120
allocating prev, next and vel: total 192 Mbytes
-------------------------------
time:          42.98 sec
throughput:    32.16 MPoints/s
flops:          1.96 GFlops

<MeId: 4>
n1=256 n2=256 n3=256 nreps=100 num_threads=4 HALF_LENGTH=8
n1_thrd_block=128 n2_thrd_block=148 n3_thrd_block=124
allocating prev, next and vel: total 192 Mbytes
-------------------------------
time:          33.17 sec
throughput:    41.67 MPoints/s
flops:          2.54 GFlops

<MeId: 5>
n1=256 n2=256 n3=256 nreps=100 num_threads=4 HALF_LENGTH=8
n1_thrd_block=32 n2_thrd_block=108 n3_thrd_block=76
allocating prev, next and vel: total 192 Mbytes
-------------------------------
time:          44.08 sec
throughput:    31.36 MPoints/s
flops:          1.91 GFlops

<MeId: 5>
n1=256 n2=256 n3=256 nreps=100 num_threads=4 HALF_LENGTH=8
n1_thrd_block=32 n2_thrd_block=108 n3_thrd_block=72
allocating prev, next and vel: total 192 Mbytes
-------------------------------
time:          44.04 sec
throughput:    31.39 MPoints/s
flops:          1.91 GFlops

<MeId: 5>
n1=256 n2=256 n3=256 nreps=100 num_threads=4 HALF_LENGTH=8
n1_thrd_block=32 n2_thrd_block=108 n3_thrd_block=68
allocating prev, next and vel: total 192 Mbytes
-------------------------------
time:          43.87 sec
throughput:    31.51 MPoints/s
flops:          1.92 GFlops

<MeId: 5>
n1=256 n2=256 n3=256 nreps=100 num_threads=4 HALF_LENGTH=8
n1_thrd_block=32 n2_thrd_block=112 n3_thrd_block=68
allocating prev, next and vel: total 192 Mbytes
-------------------------------
time:          44.06 sec
throughput:    31.37 MPoints/s
flops:          1.91 GFlops


 tune_launch:['xCacheBlocking', 'yCacheBlocking', 'zCacheBlocking']

<MeId: 5>
n1=256 n2=256 n3=256 nreps=100 num_threads=4 HALF_LENGTH=8
n1_thrd_block=32 n2_thrd_block=112 n3_thrd_block=68
allocating prev, next and vel: total 192 Mbytes
-------------------------------
time:          43.72 sec
throughput:    31.62 MPoints/s
flops:          1.93 GFlops

<MeId: 5>
n1=256 n2=256 n3=256 nreps=100 num_threads=4 HALF_LENGTH=8
n1_thrd_block=32 n2_thrd_block=116 n3_thrd_block=68
allocating prev, next and vel: total 192 Mbytes
-------------------------------
time:          43.65 sec
throughput:    31.67 MPoints/s
flops:          1.93 GFlops

<MeId: 5>
n1=256 n2=256 n3=256 nreps=100 num_threads=4 HALF_LENGTH=8
n1_thrd_block=32 n2_thrd_block=120 n3_thrd_block=68
allocating prev, next and vel: total 192 Mbytes
-------------------------------
time:          41.54 sec
throughput:    33.28 MPoints/s
flops:          2.03 GFlops

<MeId: 5>
n1=256 n2=256 n3=256 nreps=100 num_threads=4 HALF_LENGTH=8
n1_thrd_block=32 n2_thrd_block=120 n3_thrd_block=64
allocating prev, next and vel: total 192 Mbytes
-------------------------------
time:          39.17 sec
throughput:    35.29 MPoints/s
flops:          2.15 GFlops

<MeId: 6>
n1=256 n2=256 n3=256 nreps=100 num_threads=4 HALF_LENGTH=8
n1_thrd_block=160 n2_thrd_block=136 n3_thrd_block=40
allocating prev, next and vel: total 192 Mbytes
-------------------------------
time:          39.02 sec
throughput:    35.43 MPoints/s
flops:          2.16 GFlops

<MeId: 6>
n1=256 n2=256 n3=256 nreps=100 num_threads=4 HALF_LENGTH=8
n1_thrd_block=160 n2_thrd_block=136 n3_thrd_block=36
allocating prev, next and vel: total 192 Mbytes
-------------------------------
time:          37.64 sec
throughput:    36.73 MPoints/s
flops:          2.24 GFlops

<MeId: 6>
n1=256 n2=256 n3=256 nreps=100 num_threads=4 HALF_LENGTH=8
n1_thrd_block=160 n2_thrd_block=140 n3_thrd_block=36
allocating prev, next and vel: total 192 Mbytes
-------------------------------
time:          37.77 sec
throughput:    36.60 MPoints/s
flops:          2.23 GFlops

<MeId: 6>
n1=256 n2=256 n3=256 nreps=100 num_threads=4 HALF_LENGTH=8
n1_thrd_block=176 n2_thrd_block=140 n3_thrd_block=36
allocating prev, next and vel: total 192 Mbytes
-------------------------------
time:          37.06 sec
throughput:    37.30 MPoints/s
flops:          2.28 GFlops


 tune_launch:['xCacheBlocking', 'yCacheBlocking', 'zCacheBlocking']

<MeId: 6>
n1=256 n2=256 n3=256 nreps=100 num_threads=4 HALF_LENGTH=8
n1_thrd_block=176 n2_thrd_block=140 n3_thrd_block=36
allocating prev, next and vel: total 192 Mbytes
-------------------------------
time:          37.37 sec
throughput:    37.00 MPoints/s
flops:          2.26 GFlops

<MeId: 6>
n1=256 n2=256 n3=256 nreps=100 num_threads=4 HALF_LENGTH=8
n1_thrd_block=176 n2_thrd_block=136 n3_thrd_block=36
allocating prev, next and vel: total 192 Mbytes
-------------------------------
time:          36.98 sec
throughput:    37.38 MPoints/s
flops:          2.28 GFlops

<MeId: 6>
n1=256 n2=256 n3=256 nreps=100 num_threads=4 HALF_LENGTH=8
n1_thrd_block=176 n2_thrd_block=140 n3_thrd_block=36
allocating prev, next and vel: total 192 Mbytes
-------------------------------
time:          31.23 sec
throughput:    44.27 MPoints/s
flops:          2.70 GFlops

<MeId: 6>
n1=256 n2=256 n3=256 nreps=100 num_threads=4 HALF_LENGTH=8
n1_thrd_block=192 n2_thrd_block=140 n3_thrd_block=36
allocating prev, next and vel: total 192 Mbytes
-------------------------------
time:          26.36 sec
throughput:    52.44 MPoints/s
flops:          3.20 GFlops

<MeId: 7>
n1=256 n2=256 n3=256 nreps=100 num_threads=4 HALF_LENGTH=8
n1_thrd_block=80 n2_thrd_block=36 n3_thrd_block=120
allocating prev, next and vel: total 192 Mbytes
-------------------------------
time:          30.31 sec
throughput:    45.60 MPoints/s
flops:          2.78 GFlops

<MeId: 7>
n1=256 n2=256 n3=256 nreps=100 num_threads=4 HALF_LENGTH=8
n1_thrd_block=80 n2_thrd_block=32 n3_thrd_block=120
allocating prev, next and vel: total 192 Mbytes
-------------------------------
time:          30.46 sec
throughput:    45.39 MPoints/s
flops:          2.77 GFlops

<MeId: 7>
n1=256 n2=256 n3=256 nreps=100 num_threads=4 HALF_LENGTH=8
n1_thrd_block=96 n2_thrd_block=32 n3_thrd_block=120
allocating prev, next and vel: total 192 Mbytes
-------------------------------
time:          30.18 sec
throughput:    45.80 MPoints/s
flops:          2.79 GFlops

<MeId: 7>
n1=256 n2=256 n3=256 nreps=100 num_threads=4 HALF_LENGTH=8
n1_thrd_block=80 n2_thrd_block=32 n3_thrd_block=120
allocating prev, next and vel: total 192 Mbytes
-------------------------------
time:          29.57 sec
throughput:    46.75 MPoints/s
flops:          2.85 GFlops


 tune_launch:['xCacheBlocking', 'yCacheBlocking', 'zCacheBlocking']

<MeId: 7>
n1=256 n2=256 n3=256 nreps=100 num_threads=4 HALF_LENGTH=8
n1_thrd_block=80 n2_thrd_block=32 n3_thrd_block=120
allocating prev, next and vel: total 192 Mbytes
-------------------------------
time:          29.43 sec
throughput:    46.97 MPoints/s
flops:          2.87 GFlops

<MeId: 7>
n1=256 n2=256 n3=256 nreps=100 num_threads=4 HALF_LENGTH=8
n1_thrd_block=80 n2_thrd_block=32 n3_thrd_block=116
allocating prev, next and vel: total 192 Mbytes
-------------------------------
time:          30.09 sec
throughput:    45.95 MPoints/s
flops:          2.80 GFlops

<MeId: 7>
n1=256 n2=256 n3=256 nreps=100 num_threads=4 HALF_LENGTH=8
n1_thrd_block=80 n2_thrd_block=36 n3_thrd_block=120
allocating prev, next and vel: total 192 Mbytes
-------------------------------
time:          31.18 sec
throughput:    44.34 MPoints/s
flops:          2.70 GFlops

<MeId: 7>
n1=256 n2=256 n3=256 nreps=100 num_threads=4 HALF_LENGTH=8
n1_thrd_block=80 n2_thrd_block=28 n3_thrd_block=120
allocating prev, next and vel: total 192 Mbytes
-------------------------------
time:          29.01 sec
throughput:    47.66 MPoints/s
flops:          2.91 GFlops

<MeId: 8>
n1=256 n2=256 n3=256 nreps=100 num_threads=4 HALF_LENGTH=8
n1_thrd_block=48 n2_thrd_block=144 n3_thrd_block=152
allocating prev, next and vel: total 192 Mbytes
-------------------------------
time:          43.04 sec
throughput:    32.12 MPoints/s
flops:          1.96 GFlops

<MeId: 8>
n1=256 n2=256 n3=256 nreps=100 num_threads=4 HALF_LENGTH=8
n1_thrd_block=48 n2_thrd_block=140 n3_thrd_block=152
allocating prev, next and vel: total 192 Mbytes
-------------------------------
time:          44.08 sec
throughput:    31.36 MPoints/s
flops:          1.91 GFlops

<MeId: 8>
n1=256 n2=256 n3=256 nreps=100 num_threads=4 HALF_LENGTH=8
n1_thrd_block=64 n2_thrd_block=140 n3_thrd_block=152
allocating prev, next and vel: total 192 Mbytes
-------------------------------
time:          42.53 sec
throughput:    32.50 MPoints/s
flops:          1.98 GFlops

<MeId: 8>
n1=256 n2=256 n3=256 nreps=100 num_threads=4 HALF_LENGTH=8
n1_thrd_block=48 n2_thrd_block=140 n3_thrd_block=152
allocating prev, next and vel: total 192 Mbytes
-------------------------------
time:          44.38 sec
throughput:    31.15 MPoints/s
flops:          1.90 GFlops


 tune_launch:['xCacheBlocking', 'yCacheBlocking', 'zCacheBlocking']

<MeId: 8>
n1=256 n2=256 n3=256 nreps=100 num_threads=4 HALF_LENGTH=8
n1_thrd_block=48 n2_thrd_block=140 n3_thrd_block=152
allocating prev, next and vel: total 192 Mbytes
-------------------------------
time:          43.96 sec
throughput:    31.45 MPoints/s
flops:          1.92 GFlops

<MeId: 8>
n1=256 n2=256 n3=256 nreps=100 num_threads=4 HALF_LENGTH=8
n1_thrd_block=48 n2_thrd_block=144 n3_thrd_block=152
allocating prev, next and vel: total 192 Mbytes
-------------------------------
time:          37.43 sec
throughput:    36.94 MPoints/s
flops:          2.25 GFlops

<MeId: 8>
n1=256 n2=256 n3=256 nreps=100 num_threads=4 HALF_LENGTH=8
n1_thrd_block=48 n2_thrd_block=144 n3_thrd_block=148
allocating prev, next and vel: total 192 Mbytes
-------------------------------
time:          34.91 sec
throughput:    39.60 MPoints/s
flops:          2.42 GFlops

<MeId: 8>
n1=256 n2=256 n3=256 nreps=100 num_threads=4 HALF_LENGTH=8
n1_thrd_block=48 n2_thrd_block=144 n3_thrd_block=152
allocating prev, next and vel: total 192 Mbytes
-------------------------------
time:          32.48 sec
throughput:    42.57 MPoints/s
flops:          2.60 GFlops

<MeId: 9>
n1=256 n2=256 n3=256 nreps=100 num_threads=4 HALF_LENGTH=8
n1_thrd_block=144 n2_thrd_block=20 n3_thrd_block=48
allocating prev, next and vel: total 192 Mbytes
-------------------------------
time:          27.41 sec
throughput:    50.43 MPoints/s
flops:          3.08 GFlops

<MeId: 9>
n1=256 n2=256 n3=256 nreps=100 num_threads=4 HALF_LENGTH=8
n1_thrd_block=144 n2_thrd_block=24 n3_thrd_block=48
allocating prev, next and vel: total 192 Mbytes
-------------------------------
time:          27.97 sec
throughput:    49.42 MPoints/s
flops:          3.01 GFlops

<MeId: 9>
n1=256 n2=256 n3=256 nreps=100 num_threads=4 HALF_LENGTH=8
n1_thrd_block=144 n2_thrd_block=28 n3_thrd_block=48
allocating prev, next and vel: total 192 Mbytes
-------------------------------
time:          27.84 sec
throughput:    49.66 MPoints/s
flops:          3.03 GFlops

<MeId: 9>
n1=256 n2=256 n3=256 nreps=100 num_threads=4 HALF_LENGTH=8
n1_thrd_block=144 n2_thrd_block=28 n3_thrd_block=44
allocating prev, next and vel: total 192 Mbytes
-------------------------------
time:          28.91 sec
throughput:    47.82 MPoints/s
flops:          2.92 GFlops


 tune_launch:['xCacheBlocking', 'yCacheBlocking', 'zCacheBlocking']

<MeId: 9>
n1=256 n2=256 n3=256 nreps=100 num_threads=4 HALF_LENGTH=8
n1_thrd_block=144 n2_thrd_block=28 n3_thrd_block=44
allocating prev, next and vel: total 192 Mbytes
-------------------------------
time:          28.39 sec
throughput:    48.70 MPoints/s
flops:          2.97 GFlops

<MeId: 9>
n1=256 n2=256 n3=256 nreps=100 num_threads=4 HALF_LENGTH=8
n1_thrd_block=144 n2_thrd_block=24 n3_thrd_block=44
allocating prev, next and vel: total 192 Mbytes
-------------------------------
time:          27.84 sec
throughput:    49.66 MPoints/s
flops:          3.03 GFlops

<MeId: 9>
n1=256 n2=256 n3=256 nreps=100 num_threads=4 HALF_LENGTH=8
n1_thrd_block=144 n2_thrd_block=24 n3_thrd_block=48
allocating prev, next and vel: total 192 Mbytes
-------------------------------
time:          27.57 sec
throughput:    50.13 MPoints/s
flops:          3.06 GFlops

<MeId: 9>
n1=256 n2=256 n3=256 nreps=100 num_threads=4 HALF_LENGTH=8
n1_thrd_block=144 n2_thrd_block=28 n3_thrd_block=48
allocating prev, next and vel: total 192 Mbytes
-------------------------------
time:          27.63 sec
throughput:    50.02 MPoints/s
flops:          3.05 GFlops

<MeId: 10>
n1=256 n2=256 n3=256 nreps=100 num_threads=4 HALF_LENGTH=8
n1_thrd_block=80 n2_thrd_block=144 n3_thrd_block=20
allocating prev, next and vel: total 192 Mbytes
-------------------------------
time:          37.71 sec
throughput:    36.66 MPoints/s
flops:          2.24 GFlops

<MeId: 10>
n1=256 n2=256 n3=256 nreps=100 num_threads=4 HALF_LENGTH=8
n1_thrd_block=64 n2_thrd_block=144 n3_thrd_block=20
allocating prev, next and vel: total 192 Mbytes
-------------------------------
time:          38.33 sec
throughput:    36.06 MPoints/s
flops:          2.20 GFlops

<MeId: 10>
n1=256 n2=256 n3=256 nreps=100 num_threads=4 HALF_LENGTH=8
n1_thrd_block=64 n2_thrd_block=148 n3_thrd_block=20
allocating prev, next and vel: total 192 Mbytes
-------------------------------
time:          38.26 sec
throughput:    36.13 MPoints/s
flops:          2.20 GFlops

<MeId: 10>
n1=256 n2=256 n3=256 nreps=100 num_threads=4 HALF_LENGTH=8
n1_thrd_block=80 n2_thrd_block=148 n3_thrd_block=20
allocating prev, next and vel: total 192 Mbytes
-------------------------------
time:          37.42 sec
throughput:    36.94 MPoints/s
flops:          2.25 GFlops


 tune_launch:['xCacheBlocking', 'yCacheBlocking', 'zCacheBlocking']

<MeId: 10>
n1=256 n2=256 n3=256 nreps=100 num_threads=4 HALF_LENGTH=8
n1_thrd_block=80 n2_thrd_block=148 n3_thrd_block=20
allocating prev, next and vel: total 192 Mbytes
-------------------------------
time:          37.21 sec
throughput:    37.15 MPoints/s
flops:          2.27 GFlops

<MeId: 10>
n1=256 n2=256 n3=256 nreps=100 num_threads=4 HALF_LENGTH=8
n1_thrd_block=80 n2_thrd_block=144 n3_thrd_block=20
allocating prev, next and vel: total 192 Mbytes
-------------------------------
time:          37.18 sec
throughput:    37.18 MPoints/s
flops:          2.27 GFlops

<MeId: 10>
n1=256 n2=256 n3=256 nreps=100 num_threads=4 HALF_LENGTH=8
n1_thrd_block=80 n2_thrd_block=144 n3_thrd_block=24
allocating prev, next and vel: total 192 Mbytes
-------------------------------
time:          36.52 sec
throughput:    37.85 MPoints/s
flops:          2.31 GFlops

<MeId: 10>
n1=256 n2=256 n3=256 nreps=100 num_threads=4 HALF_LENGTH=8
n1_thrd_block=80 n2_thrd_block=140 n3_thrd_block=24
allocating prev, next and vel: total 192 Mbytes
-------------------------------
time:          27.11 sec
throughput:    50.98 MPoints/s
flops:          3.11 GFlops

<MeId: 11>
n1=256 n2=256 n3=256 nreps=100 num_threads=4 HALF_LENGTH=8
n1_thrd_block=160 n2_thrd_block=48 n3_thrd_block=60
allocating prev, next and vel: total 192 Mbytes
-------------------------------
time:          34.27 sec
throughput:    40.34 MPoints/s
flops:          2.46 GFlops

<MeId: 11>
n1=256 n2=256 n3=256 nreps=100 num_threads=4 HALF_LENGTH=8
n1_thrd_block=144 n2_thrd_block=48 n3_thrd_block=60
allocating prev, next and vel: total 192 Mbytes
-------------------------------
time:          34.14 sec
throughput:    40.50 MPoints/s
flops:          2.47 GFlops

<MeId: 11>
n1=256 n2=256 n3=256 nreps=100 num_threads=4 HALF_LENGTH=8
n1_thrd_block=128 n2_thrd_block=48 n3_thrd_block=60
allocating prev, next and vel: total 192 Mbytes
-------------------------------
time:          33.43 sec
throughput:    41.36 MPoints/s
flops:          2.52 GFlops

<MeId: 11>
n1=256 n2=256 n3=256 nreps=100 num_threads=4 HALF_LENGTH=8
n1_thrd_block=144 n2_thrd_block=48 n3_thrd_block=60
allocating prev, next and vel: total 192 Mbytes
-------------------------------
time:          33.79 sec
throughput:    40.92 MPoints/s
flops:          2.50 GFlops


 tune_launch:['xCacheBlocking', 'yCacheBlocking', 'zCacheBlocking']

<MeId: 11>
n1=256 n2=256 n3=256 nreps=100 num_threads=4 HALF_LENGTH=8
n1_thrd_block=144 n2_thrd_block=48 n3_thrd_block=60
allocating prev, next and vel: total 192 Mbytes
-------------------------------
time:          33.70 sec
throughput:    41.03 MPoints/s
flops:          2.50 GFlops

<MeId: 11>
n1=256 n2=256 n3=256 nreps=100 num_threads=4 HALF_LENGTH=8
n1_thrd_block=144 n2_thrd_block=44 n3_thrd_block=60
allocating prev, next and vel: total 192 Mbytes
-------------------------------
time:          32.31 sec
throughput:    42.78 MPoints/s
flops:          2.61 GFlops

<MeId: 11>
n1=256 n2=256 n3=256 nreps=100 num_threads=4 HALF_LENGTH=8
n1_thrd_block=144 n2_thrd_block=48 n3_thrd_block=60
allocating prev, next and vel: total 192 Mbytes
-------------------------------
time:          33.93 sec
throughput:    40.74 MPoints/s
flops:          2.49 GFlops

<MeId: 11>
n1=256 n2=256 n3=256 nreps=100 num_threads=4 HALF_LENGTH=8
n1_thrd_block=128 n2_thrd_block=44 n3_thrd_block=60
allocating prev, next and vel: total 192 Mbytes
-------------------------------
time:          31.71 sec
throughput:    43.59 MPoints/s
flops:          2.66 GFlops

<MeId: 12>
n1=256 n2=256 n3=256 nreps=100 num_threads=4 HALF_LENGTH=8
n1_thrd_block=144 n2_thrd_block=80 n3_thrd_block=116
allocating prev, next and vel: total 192 Mbytes
-------------------------------
time:          41.19 sec
throughput:    33.56 MPoints/s
flops:          2.05 GFlops

<MeId: 12>
n1=256 n2=256 n3=256 nreps=100 num_threads=4 HALF_LENGTH=8
n1_thrd_block=144 n2_thrd_block=80 n3_thrd_block=112
allocating prev, next and vel: total 192 Mbytes
-------------------------------
time:          41.23 sec
throughput:    33.53 MPoints/s
flops:          2.05 GFlops

<MeId: 12>
n1=256 n2=256 n3=256 nreps=100 num_threads=4 HALF_LENGTH=8
n1_thrd_block=128 n2_thrd_block=80 n3_thrd_block=112
allocating prev, next and vel: total 192 Mbytes
-------------------------------
time:          41.63 sec
throughput:    33.21 MPoints/s
flops:          2.03 GFlops

<MeId: 12>
n1=256 n2=256 n3=256 nreps=100 num_threads=4 HALF_LENGTH=8
n1_thrd_block=112 n2_thrd_block=80 n3_thrd_block=112
allocating prev, next and vel: total 192 Mbytes
-------------------------------
time:          41.33 sec
throughput:    33.44 MPoints/s
flops:          2.04 GFlops


 tune_launch:['xCacheBlocking', 'yCacheBlocking', 'zCacheBlocking']

<MeId: 12>
n1=256 n2=256 n3=256 nreps=100 num_threads=4 HALF_LENGTH=8
n1_thrd_block=112 n2_thrd_block=80 n3_thrd_block=112
allocating prev, next and vel: total 192 Mbytes
-------------------------------
time:          41.04 sec
throughput:    33.69 MPoints/s
flops:          2.05 GFlops

<MeId: 12>
n1=256 n2=256 n3=256 nreps=100 num_threads=4 HALF_LENGTH=8
n1_thrd_block=112 n2_thrd_block=76 n3_thrd_block=112
allocating prev, next and vel: total 192 Mbytes
-------------------------------
time:          37.72 sec
throughput:    36.65 MPoints/s
flops:          2.24 GFlops

<MeId: 12>
n1=256 n2=256 n3=256 nreps=100 num_threads=4 HALF_LENGTH=8
n1_thrd_block=96 n2_thrd_block=76 n3_thrd_block=112
allocating prev, next and vel: total 192 Mbytes
-------------------------------
time:          36.46 sec
throughput:    37.91 MPoints/s
flops:          2.31 GFlops

<MeId: 12>
n1=256 n2=256 n3=256 nreps=100 num_threads=4 HALF_LENGTH=8
n1_thrd_block=96 n2_thrd_block=72 n3_thrd_block=112
allocating prev, next and vel: total 192 Mbytes
-------------------------------
time:          34.08 sec
throughput:    40.56 MPoints/s
flops:          2.47 GFlops

<MeId: 13>
n1=256 n2=256 n3=256 nreps=100 num_threads=4 HALF_LENGTH=8
n1_thrd_block=48 n2_thrd_block=100 n3_thrd_block=24
allocating prev, next and vel: total 192 Mbytes
-------------------------------
time:          38.54 sec
throughput:    35.87 MPoints/s
flops:          2.19 GFlops

<MeId: 13>
n1=256 n2=256 n3=256 nreps=100 num_threads=4 HALF_LENGTH=8
n1_thrd_block=32 n2_thrd_block=100 n3_thrd_block=24
allocating prev, next and vel: total 192 Mbytes
-------------------------------
time:          43.16 sec
throughput:    32.03 MPoints/s
flops:          1.95 GFlops

<MeId: 13>
n1=256 n2=256 n3=256 nreps=100 num_threads=4 HALF_LENGTH=8
n1_thrd_block=32 n2_thrd_block=104 n3_thrd_block=24
allocating prev, next and vel: total 192 Mbytes
-------------------------------
time:          43.25 sec
throughput:    31.96 MPoints/s
flops:          1.95 GFlops

<MeId: 13>
n1=256 n2=256 n3=256 nreps=100 num_threads=4 HALF_LENGTH=8
n1_thrd_block=32 n2_thrd_block=100 n3_thrd_block=24
allocating prev, next and vel: total 192 Mbytes
-------------------------------
time:          42.60 sec
throughput:    32.45 MPoints/s
flops:          1.98 GFlops


 tune_launch:['xCacheBlocking', 'yCacheBlocking', 'zCacheBlocking']

<MeId: 13>
n1=256 n2=256 n3=256 nreps=100 num_threads=4 HALF_LENGTH=8
n1_thrd_block=32 n2_thrd_block=100 n3_thrd_block=24
allocating prev, next and vel: total 192 Mbytes
-------------------------------
time:          42.64 sec
throughput:    32.42 MPoints/s
flops:          1.98 GFlops

<MeId: 13>
n1=256 n2=256 n3=256 nreps=100 num_threads=4 HALF_LENGTH=8
n1_thrd_block=32 n2_thrd_block=100 n3_thrd_block=28
allocating prev, next and vel: total 192 Mbytes
-------------------------------
time:          41.95 sec
throughput:    32.95 MPoints/s
flops:          2.01 GFlops

<MeId: 13>
n1=256 n2=256 n3=256 nreps=100 num_threads=4 HALF_LENGTH=8
n1_thrd_block=32 n2_thrd_block=100 n3_thrd_block=32
allocating prev, next and vel: total 192 Mbytes
-------------------------------
time:          41.25 sec
throughput:    33.51 MPoints/s
flops:          2.04 GFlops

<MeId: 13>
n1=256 n2=256 n3=256 nreps=100 num_threads=4 HALF_LENGTH=8
n1_thrd_block=32 n2_thrd_block=100 n3_thrd_block=28
allocating prev, next and vel: total 192 Mbytes
-------------------------------
time:          38.94 sec
throughput:    35.50 MPoints/s
flops:          2.17 GFlops

<MeId: 14>
n1=256 n2=256 n3=256 nreps=100 num_threads=4 HALF_LENGTH=8
n1_thrd_block=96 n2_thrd_block=60 n3_thrd_block=76
allocating prev, next and vel: total 192 Mbytes
-------------------------------
time:          34.15 sec
throughput:    40.48 MPoints/s
flops:          2.47 GFlops

<MeId: 14>
n1=256 n2=256 n3=256 nreps=100 num_threads=4 HALF_LENGTH=8
n1_thrd_block=80 n2_thrd_block=60 n3_thrd_block=76
allocating prev, next and vel: total 192 Mbytes
-------------------------------
time:          34.11 sec
throughput:    40.53 MPoints/s
flops:          2.47 GFlops

<MeId: 14>
n1=256 n2=256 n3=256 nreps=100 num_threads=4 HALF_LENGTH=8
n1_thrd_block=80 n2_thrd_block=60 n3_thrd_block=80
allocating prev, next and vel: total 192 Mbytes
-------------------------------
time:          34.70 sec
throughput:    39.84 MPoints/s
flops:          2.43 GFlops

<MeId: 14>
n1=256 n2=256 n3=256 nreps=100 num_threads=4 HALF_LENGTH=8
n1_thrd_block=80 n2_thrd_block=60 n3_thrd_block=84
allocating prev, next and vel: total 192 Mbytes
-------------------------------
time:          35.69 sec
throughput:    38.73 MPoints/s
flops:          2.36 GFlops


 tune_launch:['xCacheBlocking', 'yCacheBlocking', 'zCacheBlocking']

<MeId: 14>
n1=256 n2=256 n3=256 nreps=100 num_threads=4 HALF_LENGTH=8
n1_thrd_block=80 n2_thrd_block=60 n3_thrd_block=84
allocating prev, next and vel: total 192 Mbytes
-------------------------------
time:          35.76 sec
throughput:    38.66 MPoints/s
flops:          2.36 GFlops

<MeId: 14>
n1=256 n2=256 n3=256 nreps=100 num_threads=4 HALF_LENGTH=8
n1_thrd_block=80 n2_thrd_block=60 n3_thrd_block=80
allocating prev, next and vel: total 192 Mbytes
-------------------------------
time:          34.65 sec
throughput:    39.90 MPoints/s
flops:          2.43 GFlops

<MeId: 14>
n1=256 n2=256 n3=256 nreps=100 num_threads=4 HALF_LENGTH=8
n1_thrd_block=80 n2_thrd_block=64 n3_thrd_block=80
allocating prev, next and vel: total 192 Mbytes
-------------------------------
time:          35.57 sec
throughput:    38.87 MPoints/s
flops:          2.37 GFlops

<MeId: 14>
n1=256 n2=256 n3=256 nreps=100 num_threads=4 HALF_LENGTH=8
n1_thrd_block=64 n2_thrd_block=60 n3_thrd_block=80
allocating prev, next and vel: total 192 Mbytes
-------------------------------
time:          35.52 sec
throughput:    38.92 MPoints/s
flops:          2.37 GFlops

<MeId: 15>
n1=256 n2=256 n3=256 nreps=100 num_threads=4 HALF_LENGTH=8
n1_thrd_block=160 n2_thrd_block=152 n3_thrd_block=132
allocating prev, next and vel: total 192 Mbytes
-------------------------------
time:          60.61 sec
throughput:    22.81 MPoints/s
flops:          1.39 GFlops

<MeId: 15>
n1=256 n2=256 n3=256 nreps=100 num_threads=4 HALF_LENGTH=8
n1_thrd_block=160 n2_thrd_block=156 n3_thrd_block=132
allocating prev, next and vel: total 192 Mbytes
-------------------------------
time:          60.77 sec
throughput:    22.75 MPoints/s
flops:          1.39 GFlops

<MeId: 15>
n1=256 n2=256 n3=256 nreps=100 num_threads=4 HALF_LENGTH=8
n1_thrd_block=144 n2_thrd_block=156 n3_thrd_block=132
allocating prev, next and vel: total 192 Mbytes
-------------------------------
time:          59.60 sec
throughput:    23.19 MPoints/s
flops:          1.41 GFlops

<MeId: 15>
n1=256 n2=256 n3=256 nreps=100 num_threads=4 HALF_LENGTH=8
n1_thrd_block=144 n2_thrd_block=156 n3_thrd_block=128
allocating prev, next and vel: total 192 Mbytes
-------------------------------
time:          57.84 sec
throughput:    23.90 MPoints/s
flops:          1.46 GFlops


 tune_launch:['xCacheBlocking', 'yCacheBlocking', 'zCacheBlocking']

<MeId: 15>
n1=256 n2=256 n3=256 nreps=100 num_threads=4 HALF_LENGTH=8
n1_thrd_block=144 n2_thrd_block=156 n3_thrd_block=128
allocating prev, next and vel: total 192 Mbytes
-------------------------------
time:          54.45 sec
throughput:    25.39 MPoints/s
flops:          1.55 GFlops

<MeId: 15>
n1=256 n2=256 n3=256 nreps=100 num_threads=4 HALF_LENGTH=8
n1_thrd_block=128 n2_thrd_block=156 n3_thrd_block=128
allocating prev, next and vel: total 192 Mbytes
-------------------------------
time:          43.21 sec
throughput:    31.99 MPoints/s
flops:          1.95 GFlops

<MeId: 15>
n1=256 n2=256 n3=256 nreps=100 num_threads=4 HALF_LENGTH=8
n1_thrd_block=128 n2_thrd_block=152 n3_thrd_block=128
allocating prev, next and vel: total 192 Mbytes
-------------------------------
time:          42.37 sec
throughput:    32.63 MPoints/s
flops:          1.99 GFlops

<MeId: 15>
n1=256 n2=256 n3=256 nreps=100 num_threads=4 HALF_LENGTH=8
n1_thrd_block=144 n2_thrd_block=152 n3_thrd_block=128
allocating prev, next and vel: total 192 Mbytes
-------------------------------
time:          41.59 sec
throughput:    33.24 MPoints/s
flops:          2.03 GFlops

<MeId: 25>
n1=256 n2=256 n3=256 nreps=100 num_threads=4 HALF_LENGTH=8
n1_thrd_block=64 n2_thrd_block=68 n3_thrd_block=28
allocating prev, next and vel: total 192 Mbytes
-------------------------------
time:          29.50 sec
throughput:    46.86 MPoints/s
flops:          2.86 GFlops

<MeId: 25>
n1=256 n2=256 n3=256 nreps=100 num_threads=4 HALF_LENGTH=8
n1_thrd_block=64 n2_thrd_block=64 n3_thrd_block=28
allocating prev, next and vel: total 192 Mbytes
-------------------------------
time:          29.70 sec
throughput:    46.54 MPoints/s
flops:          2.84 GFlops

<MeId: 25>
n1=256 n2=256 n3=256 nreps=100 num_threads=4 HALF_LENGTH=8
n1_thrd_block=64 n2_thrd_block=64 n3_thrd_block=24
allocating prev, next and vel: total 192 Mbytes
-------------------------------
time:          30.41 sec
throughput:    45.46 MPoints/s
flops:          2.77 GFlops

<MeId: 25>
n1=256 n2=256 n3=256 nreps=100 num_threads=4 HALF_LENGTH=8
n1_thrd_block=48 n2_thrd_block=64 n3_thrd_block=28
allocating prev, next and vel: total 192 Mbytes
-------------------------------
time:          33.19 sec
throughput:    41.65 MPoints/s
flops:          2.54 GFlops


 tune_launch:['xCacheBlocking', 'yCacheBlocking', 'zCacheBlocking']

<MeId: 25>
n1=256 n2=256 n3=256 nreps=100 num_threads=4 HALF_LENGTH=8
n1_thrd_block=48 n2_thrd_block=64 n3_thrd_block=28
allocating prev, next and vel: total 192 Mbytes
-------------------------------
time:          33.53 sec
throughput:    41.23 MPoints/s
flops:          2.51 GFlops

<MeId: 25>
n1=256 n2=256 n3=256 nreps=100 num_threads=4 HALF_LENGTH=8
n1_thrd_block=32 n2_thrd_block=64 n3_thrd_block=28
allocating prev, next and vel: total 192 Mbytes
-------------------------------
time:          38.86 sec
throughput:    35.58 MPoints/s
flops:          2.17 GFlops

<MeId: 25>
n1=256 n2=256 n3=256 nreps=100 num_threads=4 HALF_LENGTH=8
n1_thrd_block=48 n2_thrd_block=68 n3_thrd_block=28
allocating prev, next and vel: total 192 Mbytes
-------------------------------
time:          33.91 sec
throughput:    40.77 MPoints/s
flops:          2.49 GFlops

<MeId: 25>
n1=256 n2=256 n3=256 nreps=100 num_threads=4 HALF_LENGTH=8
n1_thrd_block=48 n2_thrd_block=64 n3_thrd_block=24
allocating prev, next and vel: total 192 Mbytes
-------------------------------
time:          33.59 sec
throughput:    41.16 MPoints/s
flops:          2.51 GFlops

<MeId: 16>
n1=256 n2=256 n3=256 nreps=100 num_threads=4 HALF_LENGTH=8
n1_thrd_block=48 n2_thrd_block=120 n3_thrd_block=128
allocating prev, next and vel: total 192 Mbytes
-------------------------------
time:          40.98 sec
throughput:    33.74 MPoints/s
flops:          2.06 GFlops

<MeId: 16>
n1=256 n2=256 n3=256 nreps=100 num_threads=4 HALF_LENGTH=8
n1_thrd_block=32 n2_thrd_block=120 n3_thrd_block=128
allocating prev, next and vel: total 192 Mbytes
-------------------------------
time:          42.65 sec
throughput:    32.42 MPoints/s
flops:          1.98 GFlops

<MeId: 16>
n1=256 n2=256 n3=256 nreps=100 num_threads=4 HALF_LENGTH=8
n1_thrd_block=32 n2_thrd_block=124 n3_thrd_block=128
allocating prev, next and vel: total 192 Mbytes
-------------------------------
time:          43.06 sec
throughput:    32.10 MPoints/s
flops:          1.96 GFlops

<MeId: 16>
n1=256 n2=256 n3=256 nreps=100 num_threads=4 HALF_LENGTH=8
n1_thrd_block=32 n2_thrd_block=124 n3_thrd_block=124
allocating prev, next and vel: total 192 Mbytes
-------------------------------
time:          42.28 sec
throughput:    32.69 MPoints/s
flops:          1.99 GFlops


 tune_launch:['xCacheBlocking', 'yCacheBlocking', 'zCacheBlocking']

<MeId: 16>
n1=256 n2=256 n3=256 nreps=100 num_threads=4 HALF_LENGTH=8
n1_thrd_block=32 n2_thrd_block=124 n3_thrd_block=124
allocating prev, next and vel: total 192 Mbytes
-------------------------------
time:          42.15 sec
throughput:    32.80 MPoints/s
flops:          2.00 GFlops

<MeId: 16>
n1=256 n2=256 n3=256 nreps=100 num_threads=4 HALF_LENGTH=8
n1_thrd_block=32 n2_thrd_block=120 n3_thrd_block=124
allocating prev, next and vel: total 192 Mbytes
-------------------------------
time:          42.59 sec
throughput:    32.45 MPoints/s
flops:          1.98 GFlops

<MeId: 16>
n1=256 n2=256 n3=256 nreps=100 num_threads=4 HALF_LENGTH=8
n1_thrd_block=32 n2_thrd_block=124 n3_thrd_block=120
allocating prev, next and vel: total 192 Mbytes
-------------------------------
time:          37.19 sec
throughput:    37.17 MPoints/s
flops:          2.27 GFlops

<MeId: 16>
n1=256 n2=256 n3=256 nreps=100 num_threads=4 HALF_LENGTH=8
n1_thrd_block=16 n2_thrd_block=124 n3_thrd_block=120
allocating prev, next and vel: total 192 Mbytes
-------------------------------
time:          40.01 sec
throughput:    34.55 MPoints/s
flops:          2.11 GFlops

<MeId: 17>
n1=256 n2=256 n3=256 nreps=100 num_threads=4 HALF_LENGTH=8
n1_thrd_block=96 n2_thrd_block=56 n3_thrd_block=124
allocating prev, next and vel: total 192 Mbytes
-------------------------------
time:          34.86 sec
throughput:    39.66 MPoints/s
flops:          2.42 GFlops

<MeId: 17>
n1=256 n2=256 n3=256 nreps=100 num_threads=4 HALF_LENGTH=8
n1_thrd_block=96 n2_thrd_block=52 n3_thrd_block=124
allocating prev, next and vel: total 192 Mbytes
-------------------------------
time:          34.22 sec
throughput:    40.40 MPoints/s
flops:          2.46 GFlops

<MeId: 17>
n1=256 n2=256 n3=256 nreps=100 num_threads=4 HALF_LENGTH=8
n1_thrd_block=96 n2_thrd_block=52 n3_thrd_block=120
allocating prev, next and vel: total 192 Mbytes
-------------------------------
time:          34.28 sec
throughput:    40.33 MPoints/s
flops:          2.46 GFlops

<MeId: 17>
n1=256 n2=256 n3=256 nreps=100 num_threads=4 HALF_LENGTH=8
n1_thrd_block=96 n2_thrd_block=48 n3_thrd_block=120
allocating prev, next and vel: total 192 Mbytes
-------------------------------
time:          33.53 sec
throughput:    41.23 MPoints/s
flops:          2.52 GFlops


 tune_launch:['xCacheBlocking', 'yCacheBlocking', 'zCacheBlocking']

<MeId: 17>
n1=256 n2=256 n3=256 nreps=100 num_threads=4 HALF_LENGTH=8
n1_thrd_block=96 n2_thrd_block=48 n3_thrd_block=120
allocating prev, next and vel: total 192 Mbytes
-------------------------------
time:          34.25 sec
throughput:    40.36 MPoints/s
flops:          2.46 GFlops

<MeId: 17>
n1=256 n2=256 n3=256 nreps=100 num_threads=4 HALF_LENGTH=8
n1_thrd_block=96 n2_thrd_block=52 n3_thrd_block=120
allocating prev, next and vel: total 192 Mbytes
-------------------------------
time:          34.63 sec
throughput:    39.92 MPoints/s
flops:          2.44 GFlops

<MeId: 17>
n1=256 n2=256 n3=256 nreps=100 num_threads=4 HALF_LENGTH=8
n1_thrd_block=96 n2_thrd_block=48 n3_thrd_block=116
allocating prev, next and vel: total 192 Mbytes
-------------------------------
time:          35.17 sec
throughput:    39.30 MPoints/s
flops:          2.40 GFlops

<MeId: 17>
n1=256 n2=256 n3=256 nreps=100 num_threads=4 HALF_LENGTH=8
n1_thrd_block=112 n2_thrd_block=48 n3_thrd_block=120
allocating prev, next and vel: total 192 Mbytes
-------------------------------
time:          34.05 sec
throughput:    40.60 MPoints/s
flops:          2.48 GFlops

<MeId: 18>
n1=256 n2=256 n3=256 nreps=100 num_threads=4 HALF_LENGTH=8
n1_thrd_block=64 n2_thrd_block=60 n3_thrd_block=128
allocating prev, next and vel: total 192 Mbytes
-------------------------------
time:          36.60 sec
throughput:    37.77 MPoints/s
flops:          2.30 GFlops

<MeId: 18>
n1=256 n2=256 n3=256 nreps=100 num_threads=4 HALF_LENGTH=8
n1_thrd_block=64 n2_thrd_block=64 n3_thrd_block=128
allocating prev, next and vel: total 192 Mbytes
-------------------------------
time:          37.61 sec
throughput:    36.76 MPoints/s
flops:          2.24 GFlops

<MeId: 18>
n1=256 n2=256 n3=256 nreps=100 num_threads=4 HALF_LENGTH=8
n1_thrd_block=64 n2_thrd_block=60 n3_thrd_block=128
allocating prev, next and vel: total 192 Mbytes
-------------------------------
time:          36.48 sec
throughput:    37.90 MPoints/s
flops:          2.31 GFlops

<MeId: 18>
n1=256 n2=256 n3=256 nreps=100 num_threads=4 HALF_LENGTH=8
n1_thrd_block=64 n2_thrd_block=64 n3_thrd_block=128
allocating prev, next and vel: total 192 Mbytes
-------------------------------
time:          37.13 sec
throughput:    37.23 MPoints/s
flops:          2.27 GFlops


 tune_launch:['xCacheBlocking', 'yCacheBlocking', 'zCacheBlocking']

<MeId: 18>
n1=256 n2=256 n3=256 nreps=100 num_threads=4 HALF_LENGTH=8
n1_thrd_block=64 n2_thrd_block=64 n3_thrd_block=128
allocating prev, next and vel: total 192 Mbytes
-------------------------------
time:          36.84 sec
throughput:    37.53 MPoints/s
flops:          2.29 GFlops

<MeId: 18>
n1=256 n2=256 n3=256 nreps=100 num_threads=4 HALF_LENGTH=8
n1_thrd_block=64 n2_thrd_block=64 n3_thrd_block=132
allocating prev, next and vel: total 192 Mbytes
-------------------------------
time:          37.15 sec
throughput:    37.21 MPoints/s
flops:          2.27 GFlops

<MeId: 18>
n1=256 n2=256 n3=256 nreps=100 num_threads=4 HALF_LENGTH=8
n1_thrd_block=48 n2_thrd_block=64 n3_thrd_block=128
allocating prev, next and vel: total 192 Mbytes
-------------------------------
time:          36.96 sec
throughput:    37.40 MPoints/s
flops:          2.28 GFlops

<MeId: 18>
n1=256 n2=256 n3=256 nreps=100 num_threads=4 HALF_LENGTH=8
n1_thrd_block=64 n2_thrd_block=68 n3_thrd_block=128
allocating prev, next and vel: total 192 Mbytes
-------------------------------
time:          35.99 sec
throughput:    38.41 MPoints/s
flops:          2.34 GFlops

<MeId: 19>
n1=256 n2=256 n3=256 nreps=100 num_threads=4 HALF_LENGTH=8
n1_thrd_block=160 n2_thrd_block=84 n3_thrd_block=144
allocating prev, next and vel: total 192 Mbytes
-------------------------------
time:          45.55 sec
throughput:    30.35 MPoints/s
flops:          1.85 GFlops

<MeId: 19>
n1=256 n2=256 n3=256 nreps=100 num_threads=4 HALF_LENGTH=8
n1_thrd_block=160 n2_thrd_block=84 n3_thrd_block=148
allocating prev, next and vel: total 192 Mbytes
-------------------------------
time:          45.83 sec
throughput:    30.16 MPoints/s
flops:          1.84 GFlops

<MeId: 19>
n1=256 n2=256 n3=256 nreps=100 num_threads=4 HALF_LENGTH=8
n1_thrd_block=160 n2_thrd_block=88 n3_thrd_block=148
allocating prev, next and vel: total 192 Mbytes
-------------------------------
time:          45.93 sec
throughput:    30.10 MPoints/s
flops:          1.84 GFlops

<MeId: 19>
n1=256 n2=256 n3=256 nreps=100 num_threads=4 HALF_LENGTH=8
n1_thrd_block=160 n2_thrd_block=92 n3_thrd_block=148
allocating prev, next and vel: total 192 Mbytes
-------------------------------
time:          46.53 sec
throughput:    29.71 MPoints/s
flops:          1.81 GFlops


 tune_launch:['xCacheBlocking', 'yCacheBlocking', 'zCacheBlocking']

<MeId: 19>
n1=256 n2=256 n3=256 nreps=100 num_threads=4 HALF_LENGTH=8
n1_thrd_block=160 n2_thrd_block=92 n3_thrd_block=148
allocating prev, next and vel: total 192 Mbytes
-------------------------------
time:          46.28 sec
throughput:    29.87 MPoints/s
flops:          1.82 GFlops

<MeId: 19>
n1=256 n2=256 n3=256 nreps=100 num_threads=4 HALF_LENGTH=8
n1_thrd_block=160 n2_thrd_block=92 n3_thrd_block=152
allocating prev, next and vel: total 192 Mbytes
-------------------------------
time:          46.58 sec
throughput:    29.68 MPoints/s
flops:          1.81 GFlops

<MeId: 19>
n1=256 n2=256 n3=256 nreps=100 num_threads=4 HALF_LENGTH=8
n1_thrd_block=160 n2_thrd_block=92 n3_thrd_block=144
allocating prev, next and vel: total 192 Mbytes
-------------------------------
time:          41.13 sec
throughput:    33.61 MPoints/s
flops:          2.05 GFlops

<MeId: 19>
n1=256 n2=256 n3=256 nreps=100 num_threads=4 HALF_LENGTH=8
n1_thrd_block=160 n2_thrd_block=92 n3_thrd_block=148
allocating prev, next and vel: total 192 Mbytes
-------------------------------
time:          38.96 sec
throughput:    35.48 MPoints/s
flops:          2.16 GFlops

<MeId: 20>
n1=256 n2=256 n3=256 nreps=100 num_threads=4 HALF_LENGTH=8
n1_thrd_block=32 n2_thrd_block=92 n3_thrd_block=56
allocating prev, next and vel: total 192 Mbytes
-------------------------------
time:          41.56 sec
throughput:    33.26 MPoints/s
flops:          2.03 GFlops

<MeId: 20>
n1=256 n2=256 n3=256 nreps=100 num_threads=4 HALF_LENGTH=8
n1_thrd_block=16 n2_thrd_block=92 n3_thrd_block=56
allocating prev, next and vel: total 192 Mbytes
-------------------------------
time:          50.18 sec
throughput:    27.55 MPoints/s
flops:          1.68 GFlops

<MeId: 20>
n1=256 n2=256 n3=256 nreps=100 num_threads=4 HALF_LENGTH=8
n1_thrd_block=32 n2_thrd_block=92 n3_thrd_block=56
allocating prev, next and vel: total 192 Mbytes
-------------------------------
time:          41.53 sec
throughput:    33.29 MPoints/s
flops:          2.03 GFlops

<MeId: 20>
n1=256 n2=256 n3=256 nreps=100 num_threads=4 HALF_LENGTH=8
n1_thrd_block=32 n2_thrd_block=92 n3_thrd_block=52
allocating prev, next and vel: total 192 Mbytes
-------------------------------
time:          41.67 sec
throughput:    33.18 MPoints/s
flops:          2.02 GFlops


 tune_launch:['xCacheBlocking', 'yCacheBlocking', 'zCacheBlocking']

<MeId: 20>
n1=256 n2=256 n3=256 nreps=100 num_threads=4 HALF_LENGTH=8
n1_thrd_block=32 n2_thrd_block=92 n3_thrd_block=52
allocating prev, next and vel: total 192 Mbytes
-------------------------------
time:          41.69 sec
throughput:    33.16 MPoints/s
flops:          2.02 GFlops

<MeId: 20>
n1=256 n2=256 n3=256 nreps=100 num_threads=4 HALF_LENGTH=8
n1_thrd_block=32 n2_thrd_block=92 n3_thrd_block=56
allocating prev, next and vel: total 192 Mbytes
-------------------------------
time:          41.35 sec
throughput:    33.43 MPoints/s
flops:          2.04 GFlops

<MeId: 20>
n1=256 n2=256 n3=256 nreps=100 num_threads=4 HALF_LENGTH=8
n1_thrd_block=32 n2_thrd_block=92 n3_thrd_block=52
allocating prev, next and vel: total 192 Mbytes
-------------------------------
time:          39.84 sec
throughput:    34.69 MPoints/s
flops:          2.12 GFlops

<MeId: 20>
n1=256 n2=256 n3=256 nreps=100 num_threads=4 HALF_LENGTH=8
n1_thrd_block=16 n2_thrd_block=92 n3_thrd_block=52
allocating prev, next and vel: total 192 Mbytes
-------------------------------
time:          41.88 sec
throughput:    33.01 MPoints/s
flops:          2.01 GFlops

<MeId: 21>
n1=256 n2=256 n3=256 nreps=100 num_threads=4 HALF_LENGTH=8
n1_thrd_block=96 n2_thrd_block=116 n3_thrd_block=148
allocating prev, next and vel: total 192 Mbytes
-------------------------------
time:          42.04 sec
throughput:    32.88 MPoints/s
flops:          2.01 GFlops

<MeId: 21>
n1=256 n2=256 n3=256 nreps=100 num_threads=4 HALF_LENGTH=8
n1_thrd_block=96 n2_thrd_block=112 n3_thrd_block=148
allocating prev, next and vel: total 192 Mbytes
-------------------------------
time:          40.37 sec
throughput:    34.24 MPoints/s
flops:          2.09 GFlops

<MeId: 21>
n1=256 n2=256 n3=256 nreps=100 num_threads=4 HALF_LENGTH=8
n1_thrd_block=80 n2_thrd_block=112 n3_thrd_block=148
allocating prev, next and vel: total 192 Mbytes
-------------------------------
time:          39.84 sec
throughput:    34.70 MPoints/s
flops:          2.12 GFlops

<MeId: 21>
n1=256 n2=256 n3=256 nreps=100 num_threads=4 HALF_LENGTH=8
n1_thrd_block=80 n2_thrd_block=112 n3_thrd_block=152
allocating prev, next and vel: total 192 Mbytes
-------------------------------
time:          40.11 sec
throughput:    34.46 MPoints/s
flops:          2.10 GFlops


 tune_launch:['xCacheBlocking', 'yCacheBlocking', 'zCacheBlocking']

<MeId: 21>
n1=256 n2=256 n3=256 nreps=100 num_threads=4 HALF_LENGTH=8
n1_thrd_block=80 n2_thrd_block=112 n3_thrd_block=152
allocating prev, next and vel: total 192 Mbytes
-------------------------------
time:          40.16 sec
throughput:    34.42 MPoints/s
flops:          2.10 GFlops

<MeId: 21>
n1=256 n2=256 n3=256 nreps=100 num_threads=4 HALF_LENGTH=8
n1_thrd_block=96 n2_thrd_block=112 n3_thrd_block=152
allocating prev, next and vel: total 192 Mbytes
-------------------------------
time:          41.63 sec
throughput:    33.21 MPoints/s
flops:          2.03 GFlops

<MeId: 21>
n1=256 n2=256 n3=256 nreps=100 num_threads=4 HALF_LENGTH=8
n1_thrd_block=80 n2_thrd_block=112 n3_thrd_block=148
allocating prev, next and vel: total 192 Mbytes
-------------------------------
time:          39.16 sec
throughput:    35.30 MPoints/s
flops:          2.15 GFlops

<MeId: 21>
n1=256 n2=256 n3=256 nreps=100 num_threads=4 HALF_LENGTH=8
n1_thrd_block=96 n2_thrd_block=112 n3_thrd_block=148
allocating prev, next and vel: total 192 Mbytes
-------------------------------
time:          38.01 sec
throughput:    36.37 MPoints/s
flops:          2.22 GFlops

<MeId: 22>
n1=256 n2=256 n3=256 nreps=100 num_threads=4 HALF_LENGTH=8
n1_thrd_block=80 n2_thrd_block=12 n3_thrd_block=100
allocating prev, next and vel: total 192 Mbytes
-------------------------------
time:          28.47 sec
throughput:    48.55 MPoints/s
flops:          2.96 GFlops

<MeId: 22>
n1=256 n2=256 n3=256 nreps=100 num_threads=4 HALF_LENGTH=8
n1_thrd_block=80 n2_thrd_block=8 n3_thrd_block=100
allocating prev, next and vel: total 192 Mbytes
-------------------------------
time:          29.32 sec
throughput:    47.15 MPoints/s
flops:          2.88 GFlops

<MeId: 22>
n1=256 n2=256 n3=256 nreps=100 num_threads=4 HALF_LENGTH=8
n1_thrd_block=80 n2_thrd_block=12 n3_thrd_block=100
allocating prev, next and vel: total 192 Mbytes
-------------------------------
time:          28.59 sec
throughput:    48.35 MPoints/s
flops:          2.95 GFlops

<MeId: 22>
n1=256 n2=256 n3=256 nreps=100 num_threads=4 HALF_LENGTH=8
n1_thrd_block=80 n2_thrd_block=8 n3_thrd_block=100
allocating prev, next and vel: total 192 Mbytes
-------------------------------
time:          29.04 sec
throughput:    47.60 MPoints/s
flops:          2.90 GFlops


 tune_launch:['xCacheBlocking', 'yCacheBlocking', 'zCacheBlocking']

<MeId: 22>
n1=256 n2=256 n3=256 nreps=100 num_threads=4 HALF_LENGTH=8
n1_thrd_block=80 n2_thrd_block=8 n3_thrd_block=100
allocating prev, next and vel: total 192 Mbytes
-------------------------------
time:          29.00 sec
throughput:    47.66 MPoints/s
flops:          2.91 GFlops

<MeId: 22>
n1=256 n2=256 n3=256 nreps=100 num_threads=4 HALF_LENGTH=8
n1_thrd_block=80 n2_thrd_block=8 n3_thrd_block=96
allocating prev, next and vel: total 192 Mbytes
-------------------------------
time:          28.86 sec
throughput:    47.91 MPoints/s
flops:          2.92 GFlops

<MeId: 22>
n1=256 n2=256 n3=256 nreps=100 num_threads=4 HALF_LENGTH=8
n1_thrd_block=64 n2_thrd_block=8 n3_thrd_block=96
allocating prev, next and vel: total 192 Mbytes
-------------------------------
time:          31.26 sec
throughput:    44.22 MPoints/s
flops:          2.70 GFlops

<MeId: 22>
n1=256 n2=256 n3=256 nreps=100 num_threads=4 HALF_LENGTH=8
n1_thrd_block=80 n2_thrd_block=4 n3_thrd_block=96
allocating prev, next and vel: total 192 Mbytes
-------------------------------
time:          31.42 sec
throughput:    44.00 MPoints/s
flops:          2.68 GFlops

<MeId: 23>
n1=256 n2=256 n3=256 nreps=100 num_threads=4 HALF_LENGTH=8
n1_thrd_block=64 n2_thrd_block=96 n3_thrd_block=40
allocating prev, next and vel: total 192 Mbytes
-------------------------------
time:          33.67 sec
throughput:    41.06 MPoints/s
flops:          2.50 GFlops

<MeId: 23>
n1=256 n2=256 n3=256 nreps=100 num_threads=4 HALF_LENGTH=8
n1_thrd_block=64 n2_thrd_block=96 n3_thrd_block=44
allocating prev, next and vel: total 192 Mbytes
-------------------------------
time:          33.14 sec
throughput:    41.71 MPoints/s
flops:          2.54 GFlops

<MeId: 23>
n1=256 n2=256 n3=256 nreps=100 num_threads=4 HALF_LENGTH=8
n1_thrd_block=48 n2_thrd_block=96 n3_thrd_block=44
allocating prev, next and vel: total 192 Mbytes
-------------------------------
time:          35.24 sec
throughput:    39.23 MPoints/s
flops:          2.39 GFlops

<MeId: 23>
n1=256 n2=256 n3=256 nreps=100 num_threads=4 HALF_LENGTH=8
n1_thrd_block=48 n2_thrd_block=100 n3_thrd_block=44
allocating prev, next and vel: total 192 Mbytes
-------------------------------
time:          35.24 sec
throughput:    39.23 MPoints/s
flops:          2.39 GFlops


 tune_launch:['xCacheBlocking', 'yCacheBlocking', 'zCacheBlocking']

<MeId: 23>
n1=256 n2=256 n3=256 nreps=100 num_threads=4 HALF_LENGTH=8
n1_thrd_block=48 n2_thrd_block=100 n3_thrd_block=44
allocating prev, next and vel: total 192 Mbytes
-------------------------------
time:          34.94 sec
throughput:    39.57 MPoints/s
flops:          2.41 GFlops

<MeId: 23>
n1=256 n2=256 n3=256 nreps=100 num_threads=4 HALF_LENGTH=8
n1_thrd_block=64 n2_thrd_block=100 n3_thrd_block=44
allocating prev, next and vel: total 192 Mbytes
-------------------------------
time:          33.18 sec
throughput:    41.66 MPoints/s
flops:          2.54 GFlops

<MeId: 23>
n1=256 n2=256 n3=256 nreps=100 num_threads=4 HALF_LENGTH=8
n1_thrd_block=64 n2_thrd_block=100 n3_thrd_block=48
allocating prev, next and vel: total 192 Mbytes
-------------------------------
time:          33.68 sec
throughput:    41.04 MPoints/s
flops:          2.50 GFlops

<MeId: 23>
n1=256 n2=256 n3=256 nreps=100 num_threads=4 HALF_LENGTH=8
n1_thrd_block=64 n2_thrd_block=96 n3_thrd_block=44
allocating prev, next and vel: total 192 Mbytes
-------------------------------
time:          34.96 sec
throughput:    39.55 MPoints/s
flops:          2.41 GFlops

<MeId: 24>
n1=256 n2=256 n3=256 nreps=100 num_threads=4 HALF_LENGTH=8
n1_thrd_block=16 n2_thrd_block=12 n3_thrd_block=120
allocating prev, next and vel: total 192 Mbytes
-------------------------------
time:          50.34 sec
throughput:    27.46 MPoints/s
flops:          1.68 GFlops

<MeId: 24>
n1=256 n2=256 n3=256 nreps=100 num_threads=4 HALF_LENGTH=8
n1_thrd_block=16 n2_thrd_block=8 n3_thrd_block=120
allocating prev, next and vel: total 192 Mbytes
-------------------------------
time:          50.82 sec
throughput:    27.20 MPoints/s
flops:          1.66 GFlops

<MeId: 24>
n1=256 n2=256 n3=256 nreps=100 num_threads=4 HALF_LENGTH=8
n1_thrd_block=16 n2_thrd_block=4 n3_thrd_block=120
allocating prev, next and vel: total 192 Mbytes
-------------------------------
time:          49.67 sec
throughput:    27.83 MPoints/s
flops:          1.70 GFlops

<MeId: 24>
n1=256 n2=256 n3=256 nreps=100 num_threads=4 HALF_LENGTH=8
n1_thrd_block=16 n2_thrd_block=4 n3_thrd_block=124
allocating prev, next and vel: total 192 Mbytes
-------------------------------
time:          48.21 sec
throughput:    28.68 MPoints/s
flops:          1.75 GFlops


 tune_launch:['xCacheBlocking', 'yCacheBlocking', 'zCacheBlocking']

<MeId: 24>
n1=256 n2=256 n3=256 nreps=100 num_threads=4 HALF_LENGTH=8
n1_thrd_block=16 n2_thrd_block=4 n3_thrd_block=124
allocating prev, next and vel: total 192 Mbytes
-------------------------------
time:          49.35 sec
throughput:    28.01 MPoints/s
flops:          1.71 GFlops

<MeId: 24>
n1=256 n2=256 n3=256 nreps=100 num_threads=4 HALF_LENGTH=8
n1_thrd_block=32 n2_thrd_block=4 n3_thrd_block=124
allocating prev, next and vel: total 192 Mbytes
-------------------------------
time:          36.26 sec
throughput:    38.12 MPoints/s
flops:          2.33 GFlops

<MeId: 24>
n1=256 n2=256 n3=256 nreps=100 num_threads=4 HALF_LENGTH=8
n1_thrd_block=48 n2_thrd_block=4 n3_thrd_block=124
allocating prev, next and vel: total 192 Mbytes
-------------------------------
time:          26.98 sec
throughput:    51.24 MPoints/s
flops:          3.13 GFlops

<MeId: 24>
n1=256 n2=256 n3=256 nreps=100 num_threads=4 HALF_LENGTH=8
n1_thrd_block=48 n2_thrd_block=4 n3_thrd_block=128
allocating prev, next and vel: total 192 Mbytes
-------------------------------
time:          26.58 sec
throughput:    52.01 MPoints/s
flops:          3.17 GFlops

<MeId: 26>
n1=256 n2=256 n3=256 nreps=100 num_threads=4 HALF_LENGTH=8
n1_thrd_block=80 n2_thrd_block=32 n3_thrd_block=120
allocating prev, next and vel: total 192 Mbytes
-------------------------------
time:          28.37 sec
throughput:    48.73 MPoints/s
flops:          2.97 GFlops

<MeId: 26>
n1=256 n2=256 n3=256 nreps=100 num_threads=4 HALF_LENGTH=8
n1_thrd_block=80 n2_thrd_block=32 n3_thrd_block=116
allocating prev, next and vel: total 192 Mbytes
-------------------------------
time:          29.63 sec
throughput:    46.65 MPoints/s
flops:          2.85 GFlops

<MeId: 26>
n1=256 n2=256 n3=256 nreps=100 num_threads=4 HALF_LENGTH=8
n1_thrd_block=80 n2_thrd_block=32 n3_thrd_block=112
allocating prev, next and vel: total 192 Mbytes
-------------------------------
time:          28.76 sec
throughput:    48.06 MPoints/s
flops:          2.93 GFlops

<MeId: 26>
n1=256 n2=256 n3=256 nreps=100 num_threads=4 HALF_LENGTH=8
n1_thrd_block=64 n2_thrd_block=32 n3_thrd_block=112
allocating prev, next and vel: total 192 Mbytes
-------------------------------
time:          30.16 sec
throughput:    45.84 MPoints/s
flops:          2.80 GFlops


 tune_launch:['xCacheBlocking', 'yCacheBlocking', 'zCacheBlocking']

<MeId: 26>
n1=256 n2=256 n3=256 nreps=100 num_threads=4 HALF_LENGTH=8
n1_thrd_block=64 n2_thrd_block=32 n3_thrd_block=112
allocating prev, next and vel: total 192 Mbytes
-------------------------------
time:          29.71 sec
throughput:    46.52 MPoints/s
flops:          2.84 GFlops

<MeId: 26>
n1=256 n2=256 n3=256 nreps=100 num_threads=4 HALF_LENGTH=8
n1_thrd_block=64 n2_thrd_block=36 n3_thrd_block=112
allocating prev, next and vel: total 192 Mbytes
-------------------------------
time:          31.48 sec
throughput:    43.91 MPoints/s
flops:          2.68 GFlops

<MeId: 26>
n1=256 n2=256 n3=256 nreps=100 num_threads=4 HALF_LENGTH=8
n1_thrd_block=80 n2_thrd_block=32 n3_thrd_block=112
allocating prev, next and vel: total 192 Mbytes
-------------------------------
time:          28.77 sec
throughput:    48.05 MPoints/s
flops:          2.93 GFlops

<MeId: 26>
n1=256 n2=256 n3=256 nreps=100 num_threads=4 HALF_LENGTH=8
n1_thrd_block=80 n2_thrd_block=32 n3_thrd_block=108
allocating prev, next and vel: total 192 Mbytes
-------------------------------
time:          29.78 sec
throughput:    46.42 MPoints/s
flops:          2.83 GFlops

<MeId: 27>
n1=256 n2=256 n3=256 nreps=100 num_threads=4 HALF_LENGTH=8
n1_thrd_block=48 n2_thrd_block=52 n3_thrd_block=140
allocating prev, next and vel: total 192 Mbytes
-------------------------------
time:          33.66 sec
throughput:    41.07 MPoints/s
flops:          2.51 GFlops

<MeId: 27>
n1=256 n2=256 n3=256 nreps=100 num_threads=4 HALF_LENGTH=8
n1_thrd_block=48 n2_thrd_block=56 n3_thrd_block=140
allocating prev, next and vel: total 192 Mbytes
-------------------------------
time:          34.50 sec
throughput:    40.07 MPoints/s
flops:          2.44 GFlops

<MeId: 27>
n1=256 n2=256 n3=256 nreps=100 num_threads=4 HALF_LENGTH=8
n1_thrd_block=48 n2_thrd_block=56 n3_thrd_block=144
allocating prev, next and vel: total 192 Mbytes
-------------------------------
time:          34.26 sec
throughput:    40.35 MPoints/s
flops:          2.46 GFlops

<MeId: 27>
n1=256 n2=256 n3=256 nreps=100 num_threads=4 HALF_LENGTH=8
n1_thrd_block=48 n2_thrd_block=56 n3_thrd_block=148
allocating prev, next and vel: total 192 Mbytes
-------------------------------
time:          34.54 sec
throughput:    40.03 MPoints/s
flops:          2.44 GFlops


 tune_launch:['xCacheBlocking', 'yCacheBlocking', 'zCacheBlocking']

<MeId: 27>
n1=256 n2=256 n3=256 nreps=100 num_threads=4 HALF_LENGTH=8
n1_thrd_block=48 n2_thrd_block=56 n3_thrd_block=148
allocating prev, next and vel: total 192 Mbytes
-------------------------------
time:          34.79 sec
throughput:    39.73 MPoints/s
flops:          2.42 GFlops

<MeId: 27>
n1=256 n2=256 n3=256 nreps=100 num_threads=4 HALF_LENGTH=8
n1_thrd_block=48 n2_thrd_block=56 n3_thrd_block=152
allocating prev, next and vel: total 192 Mbytes
-------------------------------
time:          35.72 sec
throughput:    38.71 MPoints/s
flops:          2.36 GFlops

<MeId: 27>
n1=256 n2=256 n3=256 nreps=100 num_threads=4 HALF_LENGTH=8
n1_thrd_block=48 n2_thrd_block=60 n3_thrd_block=148
allocating prev, next and vel: total 192 Mbytes
-------------------------------
time:          35.96 sec
throughput:    38.44 MPoints/s
flops:          2.34 GFlops

<MeId: 27>
n1=256 n2=256 n3=256 nreps=100 num_threads=4 HALF_LENGTH=8
n1_thrd_block=48 n2_thrd_block=52 n3_thrd_block=148
allocating prev, next and vel: total 192 Mbytes
-------------------------------
time:          35.93 sec
throughput:    38.47 MPoints/s
flops:          2.35 GFlops

<MeId: 28>
n1=256 n2=256 n3=256 nreps=100 num_threads=4 HALF_LENGTH=8
n1_thrd_block=80 n2_thrd_block=128 n3_thrd_block=92
allocating prev, next and vel: total 192 Mbytes
-------------------------------
time:          44.71 sec
throughput:    30.92 MPoints/s
flops:          1.89 GFlops

<MeId: 28>
n1=256 n2=256 n3=256 nreps=100 num_threads=4 HALF_LENGTH=8
n1_thrd_block=64 n2_thrd_block=128 n3_thrd_block=92
allocating prev, next and vel: total 192 Mbytes
-------------------------------
time:          41.35 sec
throughput:    33.43 MPoints/s
flops:          2.04 GFlops

<MeId: 28>
n1=256 n2=256 n3=256 nreps=100 num_threads=4 HALF_LENGTH=8
n1_thrd_block=64 n2_thrd_block=128 n3_thrd_block=96
allocating prev, next and vel: total 192 Mbytes
-------------------------------
time:          41.82 sec
throughput:    33.06 MPoints/s
flops:          2.02 GFlops

<MeId: 28>
n1=256 n2=256 n3=256 nreps=100 num_threads=4 HALF_LENGTH=8
n1_thrd_block=80 n2_thrd_block=128 n3_thrd_block=96
allocating prev, next and vel: total 192 Mbytes
-------------------------------
time:          43.47 sec
throughput:    31.80 MPoints/s
flops:          1.94 GFlops


 tune_launch:['xCacheBlocking', 'yCacheBlocking', 'zCacheBlocking']

<MeId: 28>
n1=256 n2=256 n3=256 nreps=100 num_threads=4 HALF_LENGTH=8
n1_thrd_block=80 n2_thrd_block=128 n3_thrd_block=96
allocating prev, next and vel: total 192 Mbytes
-------------------------------
time:          43.55 sec
throughput:    31.74 MPoints/s
flops:          1.94 GFlops

<MeId: 28>
n1=256 n2=256 n3=256 nreps=100 num_threads=4 HALF_LENGTH=8
n1_thrd_block=80 n2_thrd_block=124 n3_thrd_block=96
allocating prev, next and vel: total 192 Mbytes
-------------------------------
time:          43.11 sec
throughput:    32.07 MPoints/s
flops:          1.96 GFlops

<MeId: 28>
n1=256 n2=256 n3=256 nreps=100 num_threads=4 HALF_LENGTH=8
n1_thrd_block=80 n2_thrd_block=124 n3_thrd_block=92
allocating prev, next and vel: total 192 Mbytes
-------------------------------
time:          42.63 sec
throughput:    32.43 MPoints/s
flops:          1.98 GFlops

<MeId: 28>
n1=256 n2=256 n3=256 nreps=100 num_threads=4 HALF_LENGTH=8
n1_thrd_block=80 n2_thrd_block=124 n3_thrd_block=96
allocating prev, next and vel: total 192 Mbytes
-------------------------------
time:          41.07 sec
throughput:    33.66 MPoints/s
flops:          2.05 GFlops

<MeId: 29>
n1=256 n2=256 n3=256 nreps=100 num_threads=4 HALF_LENGTH=8
n1_thrd_block=16 n2_thrd_block=152 n3_thrd_block=104
allocating prev, next and vel: total 192 Mbytes
-------------------------------
time:          50.87 sec
throughput:    27.18 MPoints/s
flops:          1.66 GFlops

<MeId: 29>
n1=256 n2=256 n3=256 nreps=100 num_threads=4 HALF_LENGTH=8
n1_thrd_block=32 n2_thrd_block=152 n3_thrd_block=104
allocating prev, next and vel: total 192 Mbytes
-------------------------------
time:          44.70 sec
throughput:    30.93 MPoints/s
flops:          1.89 GFlops

<MeId: 29>
n1=256 n2=256 n3=256 nreps=100 num_threads=4 HALF_LENGTH=8
n1_thrd_block=32 n2_thrd_block=152 n3_thrd_block=108
allocating prev, next and vel: total 192 Mbytes
-------------------------------
time:          45.09 sec
throughput:    30.66 MPoints/s
flops:          1.87 GFlops

<MeId: 29>
n1=256 n2=256 n3=256 nreps=100 num_threads=4 HALF_LENGTH=8
n1_thrd_block=32 n2_thrd_block=152 n3_thrd_block=112
allocating prev, next and vel: total 192 Mbytes
-------------------------------
time:          44.97 sec
throughput:    30.74 MPoints/s
flops:          1.88 GFlops


 tune_launch:['xCacheBlocking', 'yCacheBlocking', 'zCacheBlocking']

<MeId: 29>
n1=256 n2=256 n3=256 nreps=100 num_threads=4 HALF_LENGTH=8
n1_thrd_block=32 n2_thrd_block=152 n3_thrd_block=112
allocating prev, next and vel: total 192 Mbytes
-------------------------------
time:          44.91 sec
throughput:    30.78 MPoints/s
flops:          1.88 GFlops

<MeId: 29>
n1=256 n2=256 n3=256 nreps=100 num_threads=4 HALF_LENGTH=8
n1_thrd_block=32 n2_thrd_block=148 n3_thrd_block=112
allocating prev, next and vel: total 192 Mbytes
-------------------------------
time:          44.01 sec
throughput:    31.41 MPoints/s
flops:          1.92 GFlops

<MeId: 29>
n1=256 n2=256 n3=256 nreps=100 num_threads=4 HALF_LENGTH=8
n1_thrd_block=32 n2_thrd_block=144 n3_thrd_block=112
allocating prev, next and vel: total 192 Mbytes
-------------------------------
time:          42.12 sec
throughput:    32.82 MPoints/s
flops:          2.00 GFlops

<MeId: 29>
n1=256 n2=256 n3=256 nreps=100 num_threads=4 HALF_LENGTH=8
n1_thrd_block=48 n2_thrd_block=144 n3_thrd_block=112
allocating prev, next and vel: total 192 Mbytes
-------------------------------
time:          37.63 sec
throughput:    36.74 MPoints/s
flops:          2.24 GFlops

<MeId: 30>
n1=256 n2=256 n3=256 nreps=100 num_threads=4 HALF_LENGTH=8
n1_thrd_block=160 n2_thrd_block=104 n3_thrd_block=132
allocating prev, next and vel: total 192 Mbytes
-------------------------------
time:          43.10 sec
throughput:    32.08 MPoints/s
flops:          1.96 GFlops

<MeId: 30>
n1=256 n2=256 n3=256 nreps=100 num_threads=4 HALF_LENGTH=8
n1_thrd_block=160 n2_thrd_block=108 n3_thrd_block=132
allocating prev, next and vel: total 192 Mbytes
-------------------------------
time:          42.81 sec
throughput:    32.29 MPoints/s
flops:          1.97 GFlops

<MeId: 30>
n1=256 n2=256 n3=256 nreps=100 num_threads=4 HALF_LENGTH=8
n1_thrd_block=160 n2_thrd_block=108 n3_thrd_block=136
allocating prev, next and vel: total 192 Mbytes
-------------------------------
time:          43.09 sec
throughput:    32.08 MPoints/s
flops:          1.96 GFlops

<MeId: 30>
n1=256 n2=256 n3=256 nreps=100 num_threads=4 HALF_LENGTH=8
n1_thrd_block=160 n2_thrd_block=112 n3_thrd_block=136
allocating prev, next and vel: total 192 Mbytes
-------------------------------
time:          42.71 sec
throughput:    32.36 MPoints/s
flops:          1.97 GFlops


 tune_launch:['xCacheBlocking', 'yCacheBlocking', 'zCacheBlocking']

<MeId: 30>
n1=256 n2=256 n3=256 nreps=100 num_threads=4 HALF_LENGTH=8
n1_thrd_block=160 n2_thrd_block=112 n3_thrd_block=136
allocating prev, next and vel: total 192 Mbytes
-------------------------------
time:          43.03 sec
throughput:    32.13 MPoints/s
flops:          1.96 GFlops

<MeId: 30>
n1=256 n2=256 n3=256 nreps=100 num_threads=4 HALF_LENGTH=8
n1_thrd_block=160 n2_thrd_block=112 n3_thrd_block=132
allocating prev, next and vel: total 192 Mbytes
-------------------------------
time:          41.01 sec
throughput:    33.71 MPoints/s
flops:          2.06 GFlops

<MeId: 30>
n1=256 n2=256 n3=256 nreps=100 num_threads=4 HALF_LENGTH=8
n1_thrd_block=144 n2_thrd_block=112 n3_thrd_block=132
allocating prev, next and vel: total 192 Mbytes
-------------------------------
time:          38.60 sec
throughput:    35.81 MPoints/s
flops:          2.18 GFlops

<MeId: 30>
n1=256 n2=256 n3=256 nreps=100 num_threads=4 HALF_LENGTH=8
n1_thrd_block=144 n2_thrd_block=112 n3_thrd_block=136
allocating prev, next and vel: total 192 Mbytes
-------------------------------
time:          39.01 sec
throughput:    35.44 MPoints/s
flops:          2.16 GFlops

<MeId: 31>
n1=256 n2=256 n3=256 nreps=100 num_threads=4 HALF_LENGTH=8
n1_thrd_block=32 n2_thrd_block=56 n3_thrd_block=92
allocating prev, next and vel: total 192 Mbytes
-------------------------------
time:          41.39 sec
throughput:    33.40 MPoints/s
flops:          2.04 GFlops

<MeId: 31>
n1=256 n2=256 n3=256 nreps=100 num_threads=4 HALF_LENGTH=8
n1_thrd_block=32 n2_thrd_block=56 n3_thrd_block=96
allocating prev, next and vel: total 192 Mbytes
-------------------------------
time:          41.81 sec
throughput:    33.06 MPoints/s
flops:          2.02 GFlops

<MeId: 31>
n1=256 n2=256 n3=256 nreps=100 num_threads=4 HALF_LENGTH=8
n1_thrd_block=16 n2_thrd_block=56 n3_thrd_block=96
allocating prev, next and vel: total 192 Mbytes
-------------------------------
time:          50.43 sec
throughput:    27.41 MPoints/s
flops:          1.67 GFlops

<MeId: 31>
n1=256 n2=256 n3=256 nreps=100 num_threads=4 HALF_LENGTH=8
n1_thrd_block=16 n2_thrd_block=56 n3_thrd_block=100
allocating prev, next and vel: total 192 Mbytes
-------------------------------
time:          50.12 sec
throughput:    27.58 MPoints/s
flops:          1.68 GFlops


 tune_launch:['xCacheBlocking', 'yCacheBlocking', 'zCacheBlocking']

<MeId: 31>
n1=256 n2=256 n3=256 nreps=100 num_threads=4 HALF_LENGTH=8
n1_thrd_block=16 n2_thrd_block=56 n3_thrd_block=100
allocating prev, next and vel: total 192 Mbytes
-------------------------------
time:          50.38 sec
throughput:    27.44 MPoints/s
flops:          1.67 GFlops

<MeId: 31>
n1=256 n2=256 n3=256 nreps=100 num_threads=4 HALF_LENGTH=8
n1_thrd_block=16 n2_thrd_block=52 n3_thrd_block=100
allocating prev, next and vel: total 192 Mbytes
-------------------------------
time:          48.61 sec
throughput:    28.44 MPoints/s
flops:          1.73 GFlops

<MeId: 31>
n1=256 n2=256 n3=256 nreps=100 num_threads=4 HALF_LENGTH=8
n1_thrd_block=16 n2_thrd_block=56 n3_thrd_block=100
allocating prev, next and vel: total 192 Mbytes
-------------------------------
time:          46.94 sec
throughput:    29.45 MPoints/s
flops:          1.80 GFlops

<MeId: 31>
n1=256 n2=256 n3=256 nreps=100 num_threads=4 HALF_LENGTH=8
n1_thrd_block=16 n2_thrd_block=60 n3_thrd_block=100
allocating prev, next and vel: total 192 Mbytes
-------------------------------
time:          48.35 sec
throughput:    28.59 MPoints/s
flops:          1.74 GFlops

PE:  0 / 32 : all processes started
#####################################################
INITIAL MAKE CALLED: with -O3 avx512
#####################################################
<MeId: 0>
n1=256 n2=256 n3=256 nreps=100 num_threads=4 HALF_LENGTH=8
n1_thrd_block=112 n2_thrd_block=68 n3_thrd_block=144
allocating prev, next and vel: total 192 Mbytes
-------------------------------
time:          38.85 sec
throughput:    35.58 MPoints/s
flops:          2.17 GFlops

<MeId: 0>
n1=256 n2=256 n3=256 nreps=100 num_threads=4 HALF_LENGTH=8
n1_thrd_block=128 n2_thrd_block=68 n3_thrd_block=144
allocating prev, next and vel: total 192 Mbytes
-------------------------------
time:          39.54 sec
throughput:    34.96 MPoints/s
flops:          2.13 GFlops

<MeId: 0>
n1=256 n2=256 n3=256 nreps=100 num_threads=4 HALF_LENGTH=8
n1_thrd_block=144 n2_thrd_block=68 n3_thrd_block=144
allocating prev, next and vel: total 192 Mbytes
-------------------------------
time:          40.43 sec
throughput:    34.19 MPoints/s
flops:          2.09 GFlops

<MeId: 0>
n1=256 n2=256 n3=256 nreps=100 num_threads=4 HALF_LENGTH=8
n1_thrd_block=128 n2_thrd_block=68 n3_thrd_block=144
allocating prev, next and vel: total 192 Mbytes
-------------------------------
time:          39.76 sec
throughput:    34.77 MPoints/s
flops:          2.12 GFlops


 tune_launch:['xCacheBlocking', 'yCacheBlocking', 'zCacheBlocking']

<MeId: 0>
n1=256 n2=256 n3=256 nreps=100 num_threads=4 HALF_LENGTH=8
n1_thrd_block=128 n2_thrd_block=68 n3_thrd_block=144
allocating prev, next and vel: total 192 Mbytes
-------------------------------
time:          39.47 sec
throughput:    35.03 MPoints/s
flops:          2.14 GFlops

<MeId: 0>
n1=256 n2=256 n3=256 nreps=100 num_threads=4 HALF_LENGTH=8
n1_thrd_block=128 n2_thrd_block=68 n3_thrd_block=148
allocating prev, next and vel: total 192 Mbytes
-------------------------------
time:          39.12 sec
throughput:    35.34 MPoints/s
flops:          2.16 GFlops

<MeId: 0>
n1=256 n2=256 n3=256 nreps=100 num_threads=4 HALF_LENGTH=8
n1_thrd_block=128 n2_thrd_block=64 n3_thrd_block=148
allocating prev, next and vel: total 192 Mbytes
-------------------------------
time:          38.66 sec
throughput:    35.76 MPoints/s
flops:          2.18 GFlops

<MeId: 0>
n1=256 n2=256 n3=256 nreps=100 num_threads=4 HALF_LENGTH=8
n1_thrd_block=128 n2_thrd_block=60 n3_thrd_block=148
allocating prev, next and vel: total 192 Mbytes
-------------------------------
time:          30.78 sec
throughput:    44.92 MPoints/s
flops:          2.74 GFlops

FINAL RESULTS --------------------------------------------------------------//

      RESULTS OF THE BEST PERFORMING RUN (with ['annealing']):
      - Minimum energy found: 26.36 (by process #6 after 3 iterations)
      - Starting parameters for tunable fields (xCacheBlocking, yCacheBlocking, zCacheBlocking):
        [160 136  40]
      - Final parameters for tunable fields:
        [192 140  36]
      
Press enter to exit, <y> and enter to print results from all processes.
[30.78 35.81 26.47 30.55 33.17 39.17 26.36 29.01 32.48 27.57 27.11 31.71
 34.08 38.94 34.65 41.59 37.19 34.05 35.99 38.96 39.84 38.01 28.86 33.18
 26.58 33.53 28.77 34.79 41.07 37.63 38.6  46.94] [128  60 148 160 112  56  80  84  40 112  24  88 128 148 124  32 120  64
 192 140  36  80  28 120  48 144 152 144  24  48  80 140  24 128  44  60
  96  72 112  32 100  28  80  60  80 144 152 128  32 124 120 112  48 120
  64  68 128 160  92 148  32  92  52  96 112 148  80   8  96  64 100  44
  48   4 128  48  64  28  80  32 112  48  56 148  80 124  96  48 144 112
 144 112 132  16  56 100] [112  68 144 160 112  48  48  80  36 112  28  92 128 140 116  32 108  76
 160 136  40  80  36 120  48 144 152 144  20  48  80 144  20 160  48  60
 144  80 116  48 100  24  96  60  76 160 152 132  48 120 128  96  56 124
  64  60 128 160  84 144  32  92  56  96 116 148  80  12 100  64  96  40
  16  12 120  64  68  28  80  32 120  48  52 140  80 128  92  16 152 104
 160 104 132  32  56  92] [3 3 3 3 3 3 3 3 3 3 3 3 3 3 3 3 3 3 3 3 3 3 3 3 3 3 3 3 3 3 3 3]
PE:  0 / 32  bye!