cpust75_3@kyle01:~/Proj-Intel/Appli-iso3dfd$ python3 main.py -XCB -YCB -o annealing
MPI startup(): PMI server not found. Please set I_MPI_PMI_LIBRARY variable if it is not a singleton case.
ls: cannot access 'src': No such file or directory
icpc: remark #10397: optimization reports are generated in *.optrpt files in the output location
icpc: remark #10397: optimization reports are generated in *.optrpt files in the output location
<MeId: 2>
n1=256 n2=256 n3=256 nreps=100 num_threads=4 HALF_LENGTH=8
n1_thrd_block=48 n2_thrd_block=80 n3_thrd_block=32
allocating prev, next and vel: total 192 Mbytes
-------------------------------
time:          37.44 sec
throughput:    36.92 MPoints/s
flops:          2.25 GFlops

<MeId: 2>
n1=256 n2=256 n3=256 nreps=100 num_threads=4 HALF_LENGTH=8
n1_thrd_block=32 n2_thrd_block=80 n3_thrd_block=32
allocating prev, next and vel: total 192 Mbytes
-------------------------------
time:          42.62 sec
throughput:    32.43 MPoints/s
flops:          1.98 GFlops

<MeId: 2>
n1=256 n2=256 n3=256 nreps=100 num_threads=4 HALF_LENGTH=8
n1_thrd_block=32 n2_thrd_block=84 n3_thrd_block=32
allocating prev, next and vel: total 192 Mbytes
-------------------------------
time:          42.70 sec
throughput:    32.38 MPoints/s
flops:          1.98 GFlops

<MeId: 2>
n1=256 n2=256 n3=256 nreps=100 num_threads=4 HALF_LENGTH=8
n1_thrd_block=16 n2_thrd_block=84 n3_thrd_block=32
allocating prev, next and vel: total 192 Mbytes
-------------------------------
time:          50.87 sec
throughput:    27.18 MPoints/s
flops:          1.66 GFlops


 tune_launch:['xCacheBlocking', 'yCacheBlocking']

<MeId: 2>
n1=256 n2=256 n3=256 nreps=100 num_threads=4 HALF_LENGTH=8
n1_thrd_block=16 n2_thrd_block=84 n3_thrd_block=32
allocating prev, next and vel: total 192 Mbytes
-------------------------------
time:          51.13 sec
throughput:    27.04 MPoints/s
flops:          1.65 GFlops

<MeId: 2>
n1=256 n2=256 n3=256 nreps=100 num_threads=4 HALF_LENGTH=8
n1_thrd_block=16 n2_thrd_block=88 n3_thrd_block=32
allocating prev, next and vel: total 192 Mbytes
-------------------------------
time:          45.80 sec
throughput:    30.19 MPoints/s
flops:          1.84 GFlops

<MeId: 2>
n1=256 n2=256 n3=256 nreps=100 num_threads=4 HALF_LENGTH=8
n1_thrd_block=16 n2_thrd_block=84 n3_thrd_block=32
allocating prev, next and vel: total 192 Mbytes
-------------------------------
time:          41.40 sec
throughput:    33.39 MPoints/s
flops:          2.04 GFlops

<MeId: 2>
n1=256 n2=256 n3=256 nreps=100 num_threads=4 HALF_LENGTH=8
n1_thrd_block=16 n2_thrd_block=80 n3_thrd_block=32
allocating prev, next and vel: total 192 Mbytes
-------------------------------
time:          34.92 sec
throughput:    39.58 MPoints/s
flops:          2.41 GFlops

<MeId: 1>
n1=256 n2=256 n3=256 nreps=100 num_threads=4 HALF_LENGTH=8
n1_thrd_block=160 n2_thrd_block=112 n3_thrd_block=32
allocating prev, next and vel: total 192 Mbytes
-------------------------------
time:          40.88 sec
throughput:    33.81 MPoints/s
flops:          2.06 GFlops

<MeId: 1>
n1=256 n2=256 n3=256 nreps=100 num_threads=4 HALF_LENGTH=8
n1_thrd_block=144 n2_thrd_block=112 n3_thrd_block=32
allocating prev, next and vel: total 192 Mbytes
-------------------------------
time:          40.52 sec
throughput:    34.11 MPoints/s
flops:          2.08 GFlops

<MeId: 1>
n1=256 n2=256 n3=256 nreps=100 num_threads=4 HALF_LENGTH=8
n1_thrd_block=144 n2_thrd_block=116 n3_thrd_block=32
allocating prev, next and vel: total 192 Mbytes
-------------------------------
time:          41.36 sec
throughput:    33.43 MPoints/s
flops:          2.04 GFlops

<MeId: 1>
n1=256 n2=256 n3=256 nreps=100 num_threads=4 HALF_LENGTH=8
n1_thrd_block=144 n2_thrd_block=112 n3_thrd_block=32
allocating prev, next and vel: total 192 Mbytes
-------------------------------
time:          40.68 sec
throughput:    33.98 MPoints/s
flops:          2.07 GFlops


 tune_launch:['xCacheBlocking', 'yCacheBlocking']

<MeId: 1>
n1=256 n2=256 n3=256 nreps=100 num_threads=4 HALF_LENGTH=8
n1_thrd_block=144 n2_thrd_block=112 n3_thrd_block=32
allocating prev, next and vel: total 192 Mbytes
-------------------------------
time:          39.83 sec
throughput:    34.71 MPoints/s
flops:          2.12 GFlops

<MeId: 1>
n1=256 n2=256 n3=256 nreps=100 num_threads=4 HALF_LENGTH=8
n1_thrd_block=160 n2_thrd_block=112 n3_thrd_block=32
allocating prev, next and vel: total 192 Mbytes
-------------------------------
time:          40.58 sec
throughput:    34.07 MPoints/s
flops:          2.08 GFlops

<MeId: 1>
n1=256 n2=256 n3=256 nreps=100 num_threads=4 HALF_LENGTH=8
n1_thrd_block=144 n2_thrd_block=116 n3_thrd_block=32
allocating prev, next and vel: total 192 Mbytes
-------------------------------
time:          39.74 sec
throughput:    34.78 MPoints/s
flops:          2.12 GFlops

<MeId: 1>
n1=256 n2=256 n3=256 nreps=100 num_threads=4 HALF_LENGTH=8
n1_thrd_block=160 n2_thrd_block=116 n3_thrd_block=32
allocating prev, next and vel: total 192 Mbytes
-------------------------------
time:          32.17 sec
throughput:    42.98 MPoints/s
flops:          2.62 GFlops

<MeId: 5>
n1=256 n2=256 n3=256 nreps=100 num_threads=4 HALF_LENGTH=8
n1_thrd_block=32 n2_thrd_block=108 n3_thrd_block=32
allocating prev, next and vel: total 192 Mbytes
-------------------------------
time:          44.17 sec
throughput:    31.30 MPoints/s
flops:          1.91 GFlops

<MeId: 5>
n1=256 n2=256 n3=256 nreps=100 num_threads=4 HALF_LENGTH=8
n1_thrd_block=32 n2_thrd_block=112 n3_thrd_block=32
allocating prev, next and vel: total 192 Mbytes
-------------------------------
time:          43.95 sec
throughput:    31.45 MPoints/s
flops:          1.92 GFlops

<MeId: 5>
n1=256 n2=256 n3=256 nreps=100 num_threads=4 HALF_LENGTH=8
n1_thrd_block=32 n2_thrd_block=116 n3_thrd_block=32
allocating prev, next and vel: total 192 Mbytes
-------------------------------
time:          44.02 sec
throughput:    31.40 MPoints/s
flops:          1.92 GFlops

<MeId: 5>
n1=256 n2=256 n3=256 nreps=100 num_threads=4 HALF_LENGTH=8
n1_thrd_block=32 n2_thrd_block=120 n3_thrd_block=32
allocating prev, next and vel: total 192 Mbytes
-------------------------------
time:          44.11 sec
throughput:    31.34 MPoints/s
flops:          1.91 GFlops


 tune_launch:['xCacheBlocking', 'yCacheBlocking']

<MeId: 5>
n1=256 n2=256 n3=256 nreps=100 num_threads=4 HALF_LENGTH=8
n1_thrd_block=32 n2_thrd_block=120 n3_thrd_block=32
allocating prev, next and vel: total 192 Mbytes
-------------------------------
time:          43.71 sec
throughput:    31.62 MPoints/s
flops:          1.93 GFlops

<MeId: 5>
n1=256 n2=256 n3=256 nreps=100 num_threads=4 HALF_LENGTH=8
n1_thrd_block=48 n2_thrd_block=120 n3_thrd_block=32
allocating prev, next and vel: total 192 Mbytes
-------------------------------
time:          40.19 sec
throughput:    34.39 MPoints/s
flops:          2.10 GFlops

<MeId: 5>
n1=256 n2=256 n3=256 nreps=100 num_threads=4 HALF_LENGTH=8
n1_thrd_block=32 n2_thrd_block=120 n3_thrd_block=32
allocating prev, next and vel: total 192 Mbytes
-------------------------------
time:          41.63 sec
throughput:    33.20 MPoints/s
flops:          2.03 GFlops

<MeId: 5>
n1=256 n2=256 n3=256 nreps=100 num_threads=4 HALF_LENGTH=8
n1_thrd_block=48 n2_thrd_block=124 n3_thrd_block=32
allocating prev, next and vel: total 192 Mbytes
-------------------------------
time:          35.85 sec
throughput:    38.56 MPoints/s
flops:          2.35 GFlops

<MeId: 8>
n1=256 n2=256 n3=256 nreps=100 num_threads=4 HALF_LENGTH=8
n1_thrd_block=48 n2_thrd_block=144 n3_thrd_block=32
allocating prev, next and vel: total 192 Mbytes
-------------------------------
time:          38.63 sec
throughput:    35.79 MPoints/s
flops:          2.18 GFlops

<MeId: 8>
n1=256 n2=256 n3=256 nreps=100 num_threads=4 HALF_LENGTH=8
n1_thrd_block=48 n2_thrd_block=140 n3_thrd_block=32
allocating prev, next and vel: total 192 Mbytes
-------------------------------
time:          38.78 sec
throughput:    35.65 MPoints/s
flops:          2.17 GFlops

<MeId: 8>
n1=256 n2=256 n3=256 nreps=100 num_threads=4 HALF_LENGTH=8
n1_thrd_block=64 n2_thrd_block=140 n3_thrd_block=32
allocating prev, next and vel: total 192 Mbytes
-------------------------------
time:          37.82 sec
throughput:    36.55 MPoints/s
flops:          2.23 GFlops

<MeId: 8>
n1=256 n2=256 n3=256 nreps=100 num_threads=4 HALF_LENGTH=8
n1_thrd_block=48 n2_thrd_block=140 n3_thrd_block=32
allocating prev, next and vel: total 192 Mbytes
-------------------------------
time:          39.01 sec
throughput:    35.44 MPoints/s
flops:          2.16 GFlops


 tune_launch:['xCacheBlocking', 'yCacheBlocking']

<MeId: 8>
n1=256 n2=256 n3=256 nreps=100 num_threads=4 HALF_LENGTH=8
n1_thrd_block=48 n2_thrd_block=140 n3_thrd_block=32
allocating prev, next and vel: total 192 Mbytes
-------------------------------
time:          38.75 sec
throughput:    35.67 MPoints/s
flops:          2.18 GFlops

<MeId: 8>
n1=256 n2=256 n3=256 nreps=100 num_threads=4 HALF_LENGTH=8
n1_thrd_block=48 n2_thrd_block=144 n3_thrd_block=32
allocating prev, next and vel: total 192 Mbytes
-------------------------------
time:          38.89 sec
throughput:    35.55 MPoints/s
flops:          2.17 GFlops

<MeId: 8>
n1=256 n2=256 n3=256 nreps=100 num_threads=4 HALF_LENGTH=8
n1_thrd_block=48 n2_thrd_block=136 n3_thrd_block=32
allocating prev, next and vel: total 192 Mbytes
-------------------------------
time:          31.79 sec
throughput:    43.49 MPoints/s
flops:          2.65 GFlops

<MeId: 8>
n1=256 n2=256 n3=256 nreps=100 num_threads=4 HALF_LENGTH=8
n1_thrd_block=32 n2_thrd_block=136 n3_thrd_block=32
allocating prev, next and vel: total 192 Mbytes
-------------------------------
time:          35.86 sec
throughput:    38.55 MPoints/s
flops:          2.35 GFlops

<MeId: 9>
n1=256 n2=256 n3=256 nreps=100 num_threads=4 HALF_LENGTH=8
n1_thrd_block=144 n2_thrd_block=20 n3_thrd_block=32
allocating prev, next and vel: total 192 Mbytes
-------------------------------
time:          28.90 sec
throughput:    47.83 MPoints/s
flops:          2.92 GFlops

<MeId: 9>
n1=256 n2=256 n3=256 nreps=100 num_threads=4 HALF_LENGTH=8
n1_thrd_block=128 n2_thrd_block=20 n3_thrd_block=32
allocating prev, next and vel: total 192 Mbytes
-------------------------------
time:          28.62 sec
throughput:    48.29 MPoints/s
flops:          2.95 GFlops

<MeId: 9>
n1=256 n2=256 n3=256 nreps=100 num_threads=4 HALF_LENGTH=8
n1_thrd_block=128 n2_thrd_block=24 n3_thrd_block=32
allocating prev, next and vel: total 192 Mbytes
-------------------------------
time:          28.66 sec
throughput:    48.24 MPoints/s
flops:          2.94 GFlops

<MeId: 9>
n1=256 n2=256 n3=256 nreps=100 num_threads=4 HALF_LENGTH=8
n1_thrd_block=128 n2_thrd_block=28 n3_thrd_block=32
allocating prev, next and vel: total 192 Mbytes
-------------------------------
time:          28.93 sec
throughput:    47.78 MPoints/s
flops:          2.91 GFlops


 tune_launch:['xCacheBlocking', 'yCacheBlocking']

<MeId: 9>
n1=256 n2=256 n3=256 nreps=100 num_threads=4 HALF_LENGTH=8
n1_thrd_block=128 n2_thrd_block=28 n3_thrd_block=32
allocating prev, next and vel: total 192 Mbytes
-------------------------------
time:          29.41 sec
throughput:    47.00 MPoints/s
flops:          2.87 GFlops

<MeId: 9>
n1=256 n2=256 n3=256 nreps=100 num_threads=4 HALF_LENGTH=8
n1_thrd_block=128 n2_thrd_block=24 n3_thrd_block=32
allocating prev, next and vel: total 192 Mbytes
-------------------------------
time:          28.70 sec
throughput:    48.17 MPoints/s
flops:          2.94 GFlops

<MeId: 9>
n1=256 n2=256 n3=256 nreps=100 num_threads=4 HALF_LENGTH=8
n1_thrd_block=128 n2_thrd_block=28 n3_thrd_block=32
allocating prev, next and vel: total 192 Mbytes
-------------------------------
time:          29.83 sec
throughput:    46.34 MPoints/s
flops:          2.83 GFlops

<MeId: 9>
n1=256 n2=256 n3=256 nreps=100 num_threads=4 HALF_LENGTH=8
n1_thrd_block=144 n2_thrd_block=24 n3_thrd_block=32
allocating prev, next and vel: total 192 Mbytes
-------------------------------
time:          28.58 sec
throughput:    48.37 MPoints/s
flops:          2.95 GFlops

<MeId: 12>
n1=256 n2=256 n3=256 nreps=100 num_threads=4 HALF_LENGTH=8
n1_thrd_block=144 n2_thrd_block=80 n3_thrd_block=32
allocating prev, next and vel: total 192 Mbytes
-------------------------------
time:          37.62 sec
throughput:    36.75 MPoints/s
flops:          2.24 GFlops

<MeId: 12>
n1=256 n2=256 n3=256 nreps=100 num_threads=4 HALF_LENGTH=8
n1_thrd_block=144 n2_thrd_block=76 n3_thrd_block=32
allocating prev, next and vel: total 192 Mbytes
-------------------------------
time:          36.95 sec
throughput:    37.41 MPoints/s
flops:          2.28 GFlops

<MeId: 12>
n1=256 n2=256 n3=256 nreps=100 num_threads=4 HALF_LENGTH=8
n1_thrd_block=144 n2_thrd_block=80 n3_thrd_block=32
allocating prev, next and vel: total 192 Mbytes
-------------------------------
time:          37.23 sec
throughput:    37.13 MPoints/s
flops:          2.27 GFlops

<MeId: 12>
n1=256 n2=256 n3=256 nreps=100 num_threads=4 HALF_LENGTH=8
n1_thrd_block=144 n2_thrd_block=84 n3_thrd_block=32
allocating prev, next and vel: total 192 Mbytes
-------------------------------
time:          37.20 sec
throughput:    37.16 MPoints/s
flops:          2.27 GFlops


 tune_launch:['xCacheBlocking', 'yCacheBlocking']

<MeId: 12>
n1=256 n2=256 n3=256 nreps=100 num_threads=4 HALF_LENGTH=8
n1_thrd_block=144 n2_thrd_block=84 n3_thrd_block=32
allocating prev, next and vel: total 192 Mbytes
-------------------------------
time:          37.82 sec
throughput:    36.55 MPoints/s
flops:          2.23 GFlops

<MeId: 12>
n1=256 n2=256 n3=256 nreps=100 num_threads=4 HALF_LENGTH=8
n1_thrd_block=128 n2_thrd_block=84 n3_thrd_block=32
allocating prev, next and vel: total 192 Mbytes
-------------------------------
time:          36.96 sec
throughput:    37.40 MPoints/s
flops:          2.28 GFlops

<MeId: 12>
n1=256 n2=256 n3=256 nreps=100 num_threads=4 HALF_LENGTH=8
n1_thrd_block=128 n2_thrd_block=80 n3_thrd_block=32
allocating prev, next and vel: total 192 Mbytes
-------------------------------
time:          35.83 sec
throughput:    38.59 MPoints/s
flops:          2.35 GFlops

<MeId: 12>
n1=256 n2=256 n3=256 nreps=100 num_threads=4 HALF_LENGTH=8
n1_thrd_block=112 n2_thrd_block=80 n3_thrd_block=32
allocating prev, next and vel: total 192 Mbytes
-------------------------------
time:          35.74 sec
throughput:    38.68 MPoints/s
flops:          2.36 GFlops

<MeId: 13>
n1=256 n2=256 n3=256 nreps=100 num_threads=4 HALF_LENGTH=8
n1_thrd_block=48 n2_thrd_block=100 n3_thrd_block=32
allocating prev, next and vel: total 192 Mbytes
-------------------------------
time:          39.53 sec
throughput:    34.97 MPoints/s
flops:          2.13 GFlops

<MeId: 13>
n1=256 n2=256 n3=256 nreps=100 num_threads=4 HALF_LENGTH=8
n1_thrd_block=64 n2_thrd_block=100 n3_thrd_block=32
allocating prev, next and vel: total 192 Mbytes
-------------------------------
time:          38.73 sec
throughput:    35.70 MPoints/s
flops:          2.18 GFlops

<MeId: 13>
n1=256 n2=256 n3=256 nreps=100 num_threads=4 HALF_LENGTH=8
n1_thrd_block=48 n2_thrd_block=100 n3_thrd_block=32
allocating prev, next and vel: total 192 Mbytes
-------------------------------
time:          39.18 sec
throughput:    35.28 MPoints/s
flops:          2.15 GFlops

<MeId: 13>
n1=256 n2=256 n3=256 nreps=100 num_threads=4 HALF_LENGTH=8
n1_thrd_block=48 n2_thrd_block=104 n3_thrd_block=32
allocating prev, next and vel: total 192 Mbytes
-------------------------------
time:          38.37 sec
throughput:    36.03 MPoints/s
flops:          2.20 GFlops


 tune_launch:['xCacheBlocking', 'yCacheBlocking']

<MeId: 13>
n1=256 n2=256 n3=256 nreps=100 num_threads=4 HALF_LENGTH=8
n1_thrd_block=48 n2_thrd_block=104 n3_thrd_block=32
allocating prev, next and vel: total 192 Mbytes
-------------------------------
time:          38.63 sec
throughput:    35.79 MPoints/s
flops:          2.18 GFlops

<MeId: 13>
n1=256 n2=256 n3=256 nreps=100 num_threads=4 HALF_LENGTH=8
n1_thrd_block=48 n2_thrd_block=108 n3_thrd_block=32
allocating prev, next and vel: total 192 Mbytes
-------------------------------
time:          39.35 sec
throughput:    35.13 MPoints/s
flops:          2.14 GFlops

<MeId: 13>
n1=256 n2=256 n3=256 nreps=100 num_threads=4 HALF_LENGTH=8
n1_thrd_block=32 n2_thrd_block=104 n3_thrd_block=32
allocating prev, next and vel: total 192 Mbytes
-------------------------------
time:          41.99 sec
throughput:    32.92 MPoints/s
flops:          2.01 GFlops

<MeId: 13>
n1=256 n2=256 n3=256 nreps=100 num_threads=4 HALF_LENGTH=8
n1_thrd_block=48 n2_thrd_block=100 n3_thrd_block=32
allocating prev, next and vel: total 192 Mbytes
-------------------------------
time:          36.26 sec
throughput:    38.13 MPoints/s
flops:          2.33 GFlops

<MeId: 3>
n1=256 n2=256 n3=256 nreps=100 num_threads=4 HALF_LENGTH=8
n1_thrd_block=112 n2_thrd_block=28 n3_thrd_block=32
allocating prev, next and vel: total 192 Mbytes
-------------------------------
time:          31.50 sec
throughput:    43.88 MPoints/s
flops:          2.68 GFlops

<MeId: 3>
n1=256 n2=256 n3=256 nreps=100 num_threads=4 HALF_LENGTH=8
n1_thrd_block=112 n2_thrd_block=32 n3_thrd_block=32
allocating prev, next and vel: total 192 Mbytes
-------------------------------
time:          31.03 sec
throughput:    44.55 MPoints/s
flops:          2.72 GFlops

<MeId: 3>
n1=256 n2=256 n3=256 nreps=100 num_threads=4 HALF_LENGTH=8
n1_thrd_block=128 n2_thrd_block=32 n3_thrd_block=32
allocating prev, next and vel: total 192 Mbytes
-------------------------------
time:          28.96 sec
throughput:    47.74 MPoints/s
flops:          2.91 GFlops

<MeId: 3>
n1=256 n2=256 n3=256 nreps=100 num_threads=4 HALF_LENGTH=8
n1_thrd_block=128 n2_thrd_block=28 n3_thrd_block=32
allocating prev, next and vel: total 192 Mbytes
-------------------------------
time:          27.95 sec
throughput:    49.46 MPoints/s
flops:          3.02 GFlops


 tune_launch:['xCacheBlocking', 'yCacheBlocking']

<MeId: 3>
n1=256 n2=256 n3=256 nreps=100 num_threads=4 HALF_LENGTH=8
n1_thrd_block=128 n2_thrd_block=28 n3_thrd_block=32
allocating prev, next and vel: total 192 Mbytes
-------------------------------
time:          28.09 sec
throughput:    49.20 MPoints/s
flops:          3.00 GFlops

<MeId: 3>
n1=256 n2=256 n3=256 nreps=100 num_threads=4 HALF_LENGTH=8
n1_thrd_block=128 n2_thrd_block=32 n3_thrd_block=32
allocating prev, next and vel: total 192 Mbytes
-------------------------------
time:          28.04 sec
throughput:    49.30 MPoints/s
flops:          3.01 GFlops

<MeId: 3>
n1=256 n2=256 n3=256 nreps=100 num_threads=4 HALF_LENGTH=8
n1_thrd_block=128 n2_thrd_block=28 n3_thrd_block=32
allocating prev, next and vel: total 192 Mbytes
-------------------------------
time:          28.00 sec
throughput:    49.38 MPoints/s
flops:          3.01 GFlops

<MeId: 3>
n1=256 n2=256 n3=256 nreps=100 num_threads=4 HALF_LENGTH=8
n1_thrd_block=128 n2_thrd_block=24 n3_thrd_block=32
allocating prev, next and vel: total 192 Mbytes
-------------------------------
time:          27.58 sec
throughput:    50.13 MPoints/s
flops:          3.06 GFlops

<MeId: 4>
n1=256 n2=256 n3=256 nreps=100 num_threads=4 HALF_LENGTH=8
n1_thrd_block=128 n2_thrd_block=140 n3_thrd_block=32
allocating prev, next and vel: total 192 Mbytes
-------------------------------
time:          41.06 sec
throughput:    33.67 MPoints/s
flops:          2.05 GFlops

<MeId: 4>
n1=256 n2=256 n3=256 nreps=100 num_threads=4 HALF_LENGTH=8
n1_thrd_block=128 n2_thrd_block=136 n3_thrd_block=32
allocating prev, next and vel: total 192 Mbytes
-------------------------------
time:          41.29 sec
throughput:    33.48 MPoints/s
flops:          2.04 GFlops

<MeId: 4>
n1=256 n2=256 n3=256 nreps=100 num_threads=4 HALF_LENGTH=8
n1_thrd_block=128 n2_thrd_block=140 n3_thrd_block=32
allocating prev, next and vel: total 192 Mbytes
-------------------------------
time:          41.49 sec
throughput:    33.32 MPoints/s
flops:          2.03 GFlops

<MeId: 4>
n1=256 n2=256 n3=256 nreps=100 num_threads=4 HALF_LENGTH=8
n1_thrd_block=128 n2_thrd_block=144 n3_thrd_block=32
allocating prev, next and vel: total 192 Mbytes
-------------------------------
time:          41.61 sec
throughput:    33.22 MPoints/s
flops:          2.03 GFlops


 tune_launch:['xCacheBlocking', 'yCacheBlocking']

<MeId: 4>
n1=256 n2=256 n3=256 nreps=100 num_threads=4 HALF_LENGTH=8
n1_thrd_block=128 n2_thrd_block=144 n3_thrd_block=32
allocating prev, next and vel: total 192 Mbytes
-------------------------------
time:          41.90 sec
throughput:    33.00 MPoints/s
flops:          2.01 GFlops

<MeId: 4>
n1=256 n2=256 n3=256 nreps=100 num_threads=4 HALF_LENGTH=8
n1_thrd_block=112 n2_thrd_block=144 n3_thrd_block=32
allocating prev, next and vel: total 192 Mbytes
-------------------------------
time:          42.49 sec
throughput:    32.53 MPoints/s
flops:          1.98 GFlops

<MeId: 4>
n1=256 n2=256 n3=256 nreps=100 num_threads=4 HALF_LENGTH=8
n1_thrd_block=144 n2_thrd_block=144 n3_thrd_block=32
allocating prev, next and vel: total 192 Mbytes
-------------------------------
time:          40.18 sec
throughput:    34.41 MPoints/s
flops:          2.10 GFlops

<MeId: 4>
n1=256 n2=256 n3=256 nreps=100 num_threads=4 HALF_LENGTH=8
n1_thrd_block=160 n2_thrd_block=144 n3_thrd_block=32
allocating prev, next and vel: total 192 Mbytes
-------------------------------
time:          37.22 sec
throughput:    37.14 MPoints/s
flops:          2.27 GFlops

<MeId: 6>
n1=256 n2=256 n3=256 nreps=100 num_threads=4 HALF_LENGTH=8
n1_thrd_block=160 n2_thrd_block=136 n3_thrd_block=32
allocating prev, next and vel: total 192 Mbytes
-------------------------------
time:          38.21 sec
throughput:    36.18 MPoints/s
flops:          2.21 GFlops

<MeId: 6>
n1=256 n2=256 n3=256 nreps=100 num_threads=4 HALF_LENGTH=8
n1_thrd_block=144 n2_thrd_block=136 n3_thrd_block=32
allocating prev, next and vel: total 192 Mbytes
-------------------------------
time:          37.96 sec
throughput:    36.42 MPoints/s
flops:          2.22 GFlops

<MeId: 6>
n1=256 n2=256 n3=256 nreps=100 num_threads=4 HALF_LENGTH=8
n1_thrd_block=144 n2_thrd_block=140 n3_thrd_block=32
allocating prev, next and vel: total 192 Mbytes
-------------------------------
time:          37.66 sec
throughput:    36.71 MPoints/s
flops:          2.24 GFlops

<MeId: 6>
n1=256 n2=256 n3=256 nreps=100 num_threads=4 HALF_LENGTH=8
n1_thrd_block=144 n2_thrd_block=144 n3_thrd_block=32
allocating prev, next and vel: total 192 Mbytes
-------------------------------
time:          37.75 sec
throughput:    36.62 MPoints/s
flops:          2.23 GFlops


 tune_launch:['xCacheBlocking', 'yCacheBlocking']

<MeId: 6>
n1=256 n2=256 n3=256 nreps=100 num_threads=4 HALF_LENGTH=8
n1_thrd_block=144 n2_thrd_block=144 n3_thrd_block=32
allocating prev, next and vel: total 192 Mbytes
-------------------------------
time:          38.43 sec
throughput:    35.97 MPoints/s
flops:          2.19 GFlops

<MeId: 6>
n1=256 n2=256 n3=256 nreps=100 num_threads=4 HALF_LENGTH=8
n1_thrd_block=144 n2_thrd_block=140 n3_thrd_block=32
allocating prev, next and vel: total 192 Mbytes
-------------------------------
time:          37.37 sec
throughput:    37.00 MPoints/s
flops:          2.26 GFlops

<MeId: 6>
n1=256 n2=256 n3=256 nreps=100 num_threads=4 HALF_LENGTH=8
n1_thrd_block=144 n2_thrd_block=144 n3_thrd_block=32
allocating prev, next and vel: total 192 Mbytes
-------------------------------
time:          33.31 sec
throughput:    41.50 MPoints/s
flops:          2.53 GFlops

<MeId: 6>
n1=256 n2=256 n3=256 nreps=100 num_threads=4 HALF_LENGTH=8
n1_thrd_block=160 n2_thrd_block=144 n3_thrd_block=32
allocating prev, next and vel: total 192 Mbytes
-------------------------------
time:          25.95 sec
throughput:    53.28 MPoints/s
flops:          3.25 GFlops

<MeId: 7>
n1=256 n2=256 n3=256 nreps=100 num_threads=4 HALF_LENGTH=8
n1_thrd_block=80 n2_thrd_block=36 n3_thrd_block=32
allocating prev, next and vel: total 192 Mbytes
-------------------------------
time:          31.37 sec
throughput:    44.07 MPoints/s
flops:          2.69 GFlops

<MeId: 7>
n1=256 n2=256 n3=256 nreps=100 num_threads=4 HALF_LENGTH=8
n1_thrd_block=80 n2_thrd_block=32 n3_thrd_block=32
allocating prev, next and vel: total 192 Mbytes
-------------------------------
time:          31.94 sec
throughput:    43.28 MPoints/s
flops:          2.64 GFlops

<MeId: 7>
n1=256 n2=256 n3=256 nreps=100 num_threads=4 HALF_LENGTH=8
n1_thrd_block=96 n2_thrd_block=32 n3_thrd_block=32
allocating prev, next and vel: total 192 Mbytes
-------------------------------
time:          31.06 sec
throughput:    44.50 MPoints/s
flops:          2.71 GFlops

<MeId: 7>
n1=256 n2=256 n3=256 nreps=100 num_threads=4 HALF_LENGTH=8
n1_thrd_block=112 n2_thrd_block=32 n3_thrd_block=32
allocating prev, next and vel: total 192 Mbytes
-------------------------------
time:          31.19 sec
throughput:    44.32 MPoints/s
flops:          2.70 GFlops


 tune_launch:['xCacheBlocking', 'yCacheBlocking']

<MeId: 7>
n1=256 n2=256 n3=256 nreps=100 num_threads=4 HALF_LENGTH=8
n1_thrd_block=112 n2_thrd_block=32 n3_thrd_block=32
allocating prev, next and vel: total 192 Mbytes
-------------------------------
time:          31.08 sec
throughput:    44.47 MPoints/s
flops:          2.71 GFlops

<MeId: 7>
n1=256 n2=256 n3=256 nreps=100 num_threads=4 HALF_LENGTH=8
n1_thrd_block=112 n2_thrd_block=36 n3_thrd_block=32
allocating prev, next and vel: total 192 Mbytes
-------------------------------
time:          31.87 sec
throughput:    43.38 MPoints/s
flops:          2.65 GFlops

<MeId: 7>
n1=256 n2=256 n3=256 nreps=100 num_threads=4 HALF_LENGTH=8
n1_thrd_block=96 n2_thrd_block=32 n3_thrd_block=32
allocating prev, next and vel: total 192 Mbytes
-------------------------------
time:          31.07 sec
throughput:    44.49 MPoints/s
flops:          2.71 GFlops

<MeId: 7>
n1=256 n2=256 n3=256 nreps=100 num_threads=4 HALF_LENGTH=8
n1_thrd_block=80 n2_thrd_block=32 n3_thrd_block=32
allocating prev, next and vel: total 192 Mbytes
-------------------------------
time:          30.70 sec
throughput:    45.02 MPoints/s
flops:          2.75 GFlops

<MeId: 10>
n1=256 n2=256 n3=256 nreps=100 num_threads=4 HALF_LENGTH=8
n1_thrd_block=80 n2_thrd_block=144 n3_thrd_block=32
allocating prev, next and vel: total 192 Mbytes
-------------------------------
time:          40.05 sec
throughput:    34.52 MPoints/s
flops:          2.11 GFlops

<MeId: 10>
n1=256 n2=256 n3=256 nreps=100 num_threads=4 HALF_LENGTH=8
n1_thrd_block=96 n2_thrd_block=144 n3_thrd_block=32
allocating prev, next and vel: total 192 Mbytes
-------------------------------
time:          41.46 sec
throughput:    33.34 MPoints/s
flops:          2.03 GFlops

<MeId: 10>
n1=256 n2=256 n3=256 nreps=100 num_threads=4 HALF_LENGTH=8
n1_thrd_block=96 n2_thrd_block=148 n3_thrd_block=32
allocating prev, next and vel: total 192 Mbytes
-------------------------------
time:          41.22 sec
throughput:    33.54 MPoints/s
flops:          2.05 GFlops

<MeId: 10>
n1=256 n2=256 n3=256 nreps=100 num_threads=4 HALF_LENGTH=8
n1_thrd_block=112 n2_thrd_block=148 n3_thrd_block=32
allocating prev, next and vel: total 192 Mbytes
-------------------------------
time:          42.01 sec
throughput:    32.91 MPoints/s
flops:          2.01 GFlops


 tune_launch:['xCacheBlocking', 'yCacheBlocking']

<MeId: 10>
n1=256 n2=256 n3=256 nreps=100 num_threads=4 HALF_LENGTH=8
n1_thrd_block=112 n2_thrd_block=148 n3_thrd_block=32
allocating prev, next and vel: total 192 Mbytes
-------------------------------
time:          41.54 sec
throughput:    33.28 MPoints/s
flops:          2.03 GFlops

<MeId: 10>
n1=256 n2=256 n3=256 nreps=100 num_threads=4 HALF_LENGTH=8
n1_thrd_block=112 n2_thrd_block=144 n3_thrd_block=32
allocating prev, next and vel: total 192 Mbytes
-------------------------------
time:          41.05 sec
throughput:    33.68 MPoints/s
flops:          2.05 GFlops

<MeId: 10>
n1=256 n2=256 n3=256 nreps=100 num_threads=4 HALF_LENGTH=8
n1_thrd_block=112 n2_thrd_block=140 n3_thrd_block=32
allocating prev, next and vel: total 192 Mbytes
-------------------------------
time:          32.06 sec
throughput:    43.12 MPoints/s
flops:          2.63 GFlops

<MeId: 10>
n1=256 n2=256 n3=256 nreps=100 num_threads=4 HALF_LENGTH=8
n1_thrd_block=112 n2_thrd_block=136 n3_thrd_block=32
allocating prev, next and vel: total 192 Mbytes
-------------------------------
time:          27.16 sec
throughput:    50.90 MPoints/s
flops:          3.11 GFlops

<MeId: 11>
n1=256 n2=256 n3=256 nreps=100 num_threads=4 HALF_LENGTH=8
n1_thrd_block=160 n2_thrd_block=48 n3_thrd_block=32
allocating prev, next and vel: total 192 Mbytes
-------------------------------
time:          33.42 sec
throughput:    41.36 MPoints/s
flops:          2.52 GFlops

<MeId: 11>
n1=256 n2=256 n3=256 nreps=100 num_threads=4 HALF_LENGTH=8
n1_thrd_block=144 n2_thrd_block=48 n3_thrd_block=32
allocating prev, next and vel: total 192 Mbytes
-------------------------------
time:          33.49 sec
throughput:    41.28 MPoints/s
flops:          2.52 GFlops

<MeId: 11>
n1=256 n2=256 n3=256 nreps=100 num_threads=4 HALF_LENGTH=8
n1_thrd_block=160 n2_thrd_block=48 n3_thrd_block=32
allocating prev, next and vel: total 192 Mbytes
-------------------------------
time:          32.93 sec
throughput:    41.98 MPoints/s
flops:          2.56 GFlops

<MeId: 11>
n1=256 n2=256 n3=256 nreps=100 num_threads=4 HALF_LENGTH=8
n1_thrd_block=144 n2_thrd_block=48 n3_thrd_block=32
allocating prev, next and vel: total 192 Mbytes
-------------------------------
time:          32.53 sec
throughput:    42.49 MPoints/s
flops:          2.59 GFlops


 tune_launch:['xCacheBlocking', 'yCacheBlocking']

<MeId: 11>
n1=256 n2=256 n3=256 nreps=100 num_threads=4 HALF_LENGTH=8
n1_thrd_block=144 n2_thrd_block=48 n3_thrd_block=32
allocating prev, next and vel: total 192 Mbytes
-------------------------------
time:          32.59 sec
throughput:    42.42 MPoints/s
flops:          2.59 GFlops

<MeId: 11>
n1=256 n2=256 n3=256 nreps=100 num_threads=4 HALF_LENGTH=8
n1_thrd_block=144 n2_thrd_block=44 n3_thrd_block=32
allocating prev, next and vel: total 192 Mbytes
-------------------------------
time:          31.56 sec
throughput:    43.80 MPoints/s
flops:          2.67 GFlops

<MeId: 11>
n1=256 n2=256 n3=256 nreps=100 num_threads=4 HALF_LENGTH=8
n1_thrd_block=144 n2_thrd_block=48 n3_thrd_block=32
allocating prev, next and vel: total 192 Mbytes
-------------------------------
time:          32.77 sec
throughput:    42.19 MPoints/s
flops:          2.57 GFlops

<MeId: 11>
n1=256 n2=256 n3=256 nreps=100 num_threads=4 HALF_LENGTH=8
n1_thrd_block=160 n2_thrd_block=44 n3_thrd_block=32
allocating prev, next and vel: total 192 Mbytes
-------------------------------
time:          31.21 sec
throughput:    44.29 MPoints/s
flops:          2.70 GFlops

<MeId: 14>
n1=256 n2=256 n3=256 nreps=100 num_threads=4 HALF_LENGTH=8
n1_thrd_block=96 n2_thrd_block=60 n3_thrd_block=32
allocating prev, next and vel: total 192 Mbytes
-------------------------------
time:          36.90 sec
throughput:    37.46 MPoints/s
flops:          2.29 GFlops

<MeId: 14>
n1=256 n2=256 n3=256 nreps=100 num_threads=4 HALF_LENGTH=8
n1_thrd_block=96 n2_thrd_block=64 n3_thrd_block=32
allocating prev, next and vel: total 192 Mbytes
-------------------------------
time:          36.31 sec
throughput:    38.08 MPoints/s
flops:          2.32 GFlops

<MeId: 14>
n1=256 n2=256 n3=256 nreps=100 num_threads=4 HALF_LENGTH=8
n1_thrd_block=80 n2_thrd_block=64 n3_thrd_block=32
allocating prev, next and vel: total 192 Mbytes
-------------------------------
time:          35.82 sec
throughput:    38.59 MPoints/s
flops:          2.35 GFlops

<MeId: 14>
n1=256 n2=256 n3=256 nreps=100 num_threads=4 HALF_LENGTH=8
n1_thrd_block=64 n2_thrd_block=64 n3_thrd_block=32
allocating prev, next and vel: total 192 Mbytes
-------------------------------
time:          37.12 sec
throughput:    37.24 MPoints/s
flops:          2.27 GFlops


 tune_launch:['xCacheBlocking', 'yCacheBlocking']

<MeId: 14>
n1=256 n2=256 n3=256 nreps=100 num_threads=4 HALF_LENGTH=8
n1_thrd_block=64 n2_thrd_block=64 n3_thrd_block=32
allocating prev, next and vel: total 192 Mbytes
-------------------------------
time:          36.89 sec
throughput:    37.47 MPoints/s
flops:          2.29 GFlops

<MeId: 14>
n1=256 n2=256 n3=256 nreps=100 num_threads=4 HALF_LENGTH=8
n1_thrd_block=48 n2_thrd_block=64 n3_thrd_block=32
allocating prev, next and vel: total 192 Mbytes
-------------------------------
time:          37.97 sec
throughput:    36.41 MPoints/s
flops:          2.22 GFlops

<MeId: 14>
n1=256 n2=256 n3=256 nreps=100 num_threads=4 HALF_LENGTH=8
n1_thrd_block=64 n2_thrd_block=60 n3_thrd_block=32
allocating prev, next and vel: total 192 Mbytes
-------------------------------
time:          36.56 sec
throughput:    37.81 MPoints/s
flops:          2.31 GFlops

<MeId: 14>
n1=256 n2=256 n3=256 nreps=100 num_threads=4 HALF_LENGTH=8
n1_thrd_block=64 n2_thrd_block=64 n3_thrd_block=32
allocating prev, next and vel: total 192 Mbytes
-------------------------------
time:          35.70 sec
throughput:    38.72 MPoints/s
flops:          2.36 GFlops

<MeId: 15>
n1=256 n2=256 n3=256 nreps=100 num_threads=4 HALF_LENGTH=8
n1_thrd_block=160 n2_thrd_block=152 n3_thrd_block=32
allocating prev, next and vel: total 192 Mbytes
-------------------------------
time:          43.61 sec
throughput:    31.70 MPoints/s
flops:          1.93 GFlops

<MeId: 15>
n1=256 n2=256 n3=256 nreps=100 num_threads=4 HALF_LENGTH=8
n1_thrd_block=160 n2_thrd_block=156 n3_thrd_block=32
allocating prev, next and vel: total 192 Mbytes
-------------------------------
time:          43.96 sec
throughput:    31.45 MPoints/s
flops:          1.92 GFlops

<MeId: 15>
n1=256 n2=256 n3=256 nreps=100 num_threads=4 HALF_LENGTH=8
n1_thrd_block=144 n2_thrd_block=156 n3_thrd_block=32
allocating prev, next and vel: total 192 Mbytes
-------------------------------
time:          43.21 sec
throughput:    31.99 MPoints/s
flops:          1.95 GFlops

<MeId: 15>
n1=256 n2=256 n3=256 nreps=100 num_threads=4 HALF_LENGTH=8
n1_thrd_block=128 n2_thrd_block=156 n3_thrd_block=32
allocating prev, next and vel: total 192 Mbytes
-------------------------------
time:          42.37 sec
throughput:    32.63 MPoints/s
flops:          1.99 GFlops


 tune_launch:['xCacheBlocking', 'yCacheBlocking']

<MeId: 15>
n1=256 n2=256 n3=256 nreps=100 num_threads=4 HALF_LENGTH=8
n1_thrd_block=128 n2_thrd_block=156 n3_thrd_block=32
allocating prev, next and vel: total 192 Mbytes
-------------------------------
time:          42.23 sec
throughput:    32.74 MPoints/s
flops:          2.00 GFlops

<MeId: 15>
n1=256 n2=256 n3=256 nreps=100 num_threads=4 HALF_LENGTH=8
n1_thrd_block=128 n2_thrd_block=152 n3_thrd_block=32
allocating prev, next and vel: total 192 Mbytes
-------------------------------
time:          41.56 sec
throughput:    33.26 MPoints/s
flops:          2.03 GFlops

<MeId: 15>
n1=256 n2=256 n3=256 nreps=100 num_threads=4 HALF_LENGTH=8
n1_thrd_block=144 n2_thrd_block=152 n3_thrd_block=32
allocating prev, next and vel: total 192 Mbytes
-------------------------------
time:          39.97 sec
throughput:    34.59 MPoints/s
flops:          2.11 GFlops

<MeId: 15>
n1=256 n2=256 n3=256 nreps=100 num_threads=4 HALF_LENGTH=8
n1_thrd_block=160 n2_thrd_block=152 n3_thrd_block=32
allocating prev, next and vel: total 192 Mbytes
-------------------------------
time:          31.71 sec
throughput:    43.59 MPoints/s
flops:          2.66 GFlops

<MeId: 22>
n1=256 n2=256 n3=256 nreps=100 num_threads=4 HALF_LENGTH=8
n1_thrd_block=80 n2_thrd_block=12 n3_thrd_block=32
allocating prev, next and vel: total 192 Mbytes
-------------------------------
time:          29.16 sec
throughput:    47.40 MPoints/s
flops:          2.89 GFlops

<MeId: 22>
n1=256 n2=256 n3=256 nreps=100 num_threads=4 HALF_LENGTH=8
n1_thrd_block=80 n2_thrd_block=8 n3_thrd_block=32
allocating prev, next and vel: total 192 Mbytes
-------------------------------
time:          29.69 sec
throughput:    46.56 MPoints/s
flops:          2.84 GFlops

<MeId: 22>
n1=256 n2=256 n3=256 nreps=100 num_threads=4 HALF_LENGTH=8
n1_thrd_block=64 n2_thrd_block=8 n3_thrd_block=32
allocating prev, next and vel: total 192 Mbytes
-------------------------------
time:          31.11 sec
throughput:    44.44 MPoints/s
flops:          2.71 GFlops

<MeId: 22>
n1=256 n2=256 n3=256 nreps=100 num_threads=4 HALF_LENGTH=8
n1_thrd_block=64 n2_thrd_block=12 n3_thrd_block=32
allocating prev, next and vel: total 192 Mbytes
-------------------------------
time:          29.73 sec
throughput:    46.50 MPoints/s
flops:          2.84 GFlops


 tune_launch:['xCacheBlocking', 'yCacheBlocking']

<MeId: 22>
n1=256 n2=256 n3=256 nreps=100 num_threads=4 HALF_LENGTH=8
n1_thrd_block=64 n2_thrd_block=12 n3_thrd_block=32
allocating prev, next and vel: total 192 Mbytes
-------------------------------
time:          29.92 sec
throughput:    46.20 MPoints/s
flops:          2.82 GFlops

<MeId: 22>
n1=256 n2=256 n3=256 nreps=100 num_threads=4 HALF_LENGTH=8
n1_thrd_block=64 n2_thrd_block=8 n3_thrd_block=32
allocating prev, next and vel: total 192 Mbytes
-------------------------------
time:          30.49 sec
throughput:    45.34 MPoints/s
flops:          2.77 GFlops

<MeId: 22>
n1=256 n2=256 n3=256 nreps=100 num_threads=4 HALF_LENGTH=8
n1_thrd_block=64 n2_thrd_block=16 n3_thrd_block=32
allocating prev, next and vel: total 192 Mbytes
-------------------------------
time:          30.24 sec
throughput:    45.72 MPoints/s
flops:          2.79 GFlops

<MeId: 22>
n1=256 n2=256 n3=256 nreps=100 num_threads=4 HALF_LENGTH=8
n1_thrd_block=80 n2_thrd_block=12 n3_thrd_block=32
allocating prev, next and vel: total 192 Mbytes
-------------------------------
time:          29.17 sec
throughput:    47.40 MPoints/s
flops:          2.89 GFlops

<MeId: 23>
n1=256 n2=256 n3=256 nreps=100 num_threads=4 HALF_LENGTH=8
n1_thrd_block=64 n2_thrd_block=96 n3_thrd_block=32
allocating prev, next and vel: total 192 Mbytes
-------------------------------
time:          33.56 sec
throughput:    41.19 MPoints/s
flops:          2.51 GFlops

<MeId: 23>
n1=256 n2=256 n3=256 nreps=100 num_threads=4 HALF_LENGTH=8
n1_thrd_block=48 n2_thrd_block=96 n3_thrd_block=32
allocating prev, next and vel: total 192 Mbytes
-------------------------------
time:          35.56 sec
throughput:    38.88 MPoints/s
flops:          2.37 GFlops

<MeId: 23>
n1=256 n2=256 n3=256 nreps=100 num_threads=4 HALF_LENGTH=8
n1_thrd_block=32 n2_thrd_block=96 n3_thrd_block=32
allocating prev, next and vel: total 192 Mbytes
-------------------------------
time:          41.17 sec
throughput:    33.58 MPoints/s
flops:          2.05 GFlops

<MeId: 23>
n1=256 n2=256 n3=256 nreps=100 num_threads=4 HALF_LENGTH=8
n1_thrd_block=32 n2_thrd_block=100 n3_thrd_block=32
allocating prev, next and vel: total 192 Mbytes
-------------------------------
time:          40.79 sec
throughput:    33.89 MPoints/s
flops:          2.07 GFlops


 tune_launch:['xCacheBlocking', 'yCacheBlocking']

<MeId: 23>
n1=256 n2=256 n3=256 nreps=100 num_threads=4 HALF_LENGTH=8
n1_thrd_block=32 n2_thrd_block=100 n3_thrd_block=32
allocating prev, next and vel: total 192 Mbytes
-------------------------------
time:          41.43 sec
throughput:    33.36 MPoints/s
flops:          2.04 GFlops

<MeId: 23>
n1=256 n2=256 n3=256 nreps=100 num_threads=4 HALF_LENGTH=8
n1_thrd_block=48 n2_thrd_block=100 n3_thrd_block=32
allocating prev, next and vel: total 192 Mbytes
-------------------------------
time:          35.49 sec
throughput:    38.96 MPoints/s
flops:          2.38 GFlops

<MeId: 23>
n1=256 n2=256 n3=256 nreps=100 num_threads=4 HALF_LENGTH=8
n1_thrd_block=64 n2_thrd_block=100 n3_thrd_block=32
allocating prev, next and vel: total 192 Mbytes
-------------------------------
time:          34.27 sec
throughput:    40.34 MPoints/s
flops:          2.46 GFlops

<MeId: 23>
n1=256 n2=256 n3=256 nreps=100 num_threads=4 HALF_LENGTH=8
n1_thrd_block=64 n2_thrd_block=96 n3_thrd_block=32
allocating prev, next and vel: total 192 Mbytes
-------------------------------
time:          33.90 sec
throughput:    40.78 MPoints/s
flops:          2.49 GFlops

<MeId: 16>
n1=256 n2=256 n3=256 nreps=100 num_threads=4 HALF_LENGTH=8
n1_thrd_block=48 n2_thrd_block=120 n3_thrd_block=32
allocating prev, next and vel: total 192 Mbytes
-------------------------------
time:          39.03 sec
throughput:    35.42 MPoints/s
flops:          2.16 GFlops

<MeId: 16>
n1=256 n2=256 n3=256 nreps=100 num_threads=4 HALF_LENGTH=8
n1_thrd_block=48 n2_thrd_block=116 n3_thrd_block=32
allocating prev, next and vel: total 192 Mbytes
-------------------------------
time:          38.84 sec
throughput:    35.60 MPoints/s
flops:          2.17 GFlops

<MeId: 16>
n1=256 n2=256 n3=256 nreps=100 num_threads=4 HALF_LENGTH=8
n1_thrd_block=32 n2_thrd_block=116 n3_thrd_block=32
allocating prev, next and vel: total 192 Mbytes
-------------------------------
time:          41.99 sec
throughput:    32.92 MPoints/s
flops:          2.01 GFlops

<MeId: 16>
n1=256 n2=256 n3=256 nreps=100 num_threads=4 HALF_LENGTH=8
n1_thrd_block=32 n2_thrd_block=120 n3_thrd_block=32
allocating prev, next and vel: total 192 Mbytes
-------------------------------
time:          41.81 sec
throughput:    33.06 MPoints/s
flops:          2.02 GFlops


 tune_launch:['xCacheBlocking', 'yCacheBlocking']

<MeId: 16>
n1=256 n2=256 n3=256 nreps=100 num_threads=4 HALF_LENGTH=8
n1_thrd_block=32 n2_thrd_block=120 n3_thrd_block=32
allocating prev, next and vel: total 192 Mbytes
-------------------------------
time:          41.95 sec
throughput:    32.96 MPoints/s
flops:          2.01 GFlops

<MeId: 16>
n1=256 n2=256 n3=256 nreps=100 num_threads=4 HALF_LENGTH=8
n1_thrd_block=32 n2_thrd_block=116 n3_thrd_block=32
allocating prev, next and vel: total 192 Mbytes
-------------------------------
time:          41.88 sec
throughput:    33.01 MPoints/s
flops:          2.01 GFlops

<MeId: 16>
n1=256 n2=256 n3=256 nreps=100 num_threads=4 HALF_LENGTH=8
n1_thrd_block=16 n2_thrd_block=116 n3_thrd_block=32
allocating prev, next and vel: total 192 Mbytes
-------------------------------
time:          43.10 sec
throughput:    32.08 MPoints/s
flops:          1.96 GFlops

<MeId: 16>
n1=256 n2=256 n3=256 nreps=100 num_threads=4 HALF_LENGTH=8
n1_thrd_block=32 n2_thrd_block=120 n3_thrd_block=32
allocating prev, next and vel: total 192 Mbytes
-------------------------------
time:          33.34 sec
throughput:    41.47 MPoints/s
flops:          2.53 GFlops

<MeId: 17>
n1=256 n2=256 n3=256 nreps=100 num_threads=4 HALF_LENGTH=8
n1_thrd_block=96 n2_thrd_block=56 n3_thrd_block=32
allocating prev, next and vel: total 192 Mbytes
-------------------------------
time:          35.18 sec
throughput:    39.29 MPoints/s
flops:          2.40 GFlops

<MeId: 17>
n1=256 n2=256 n3=256 nreps=100 num_threads=4 HALF_LENGTH=8
n1_thrd_block=96 n2_thrd_block=52 n3_thrd_block=32
allocating prev, next and vel: total 192 Mbytes
-------------------------------
time:          34.97 sec
throughput:    39.54 MPoints/s
flops:          2.41 GFlops

<MeId: 17>
n1=256 n2=256 n3=256 nreps=100 num_threads=4 HALF_LENGTH=8
n1_thrd_block=96 n2_thrd_block=48 n3_thrd_block=32
allocating prev, next and vel: total 192 Mbytes
-------------------------------
time:          33.44 sec
throughput:    41.33 MPoints/s
flops:          2.52 GFlops

<MeId: 17>
n1=256 n2=256 n3=256 nreps=100 num_threads=4 HALF_LENGTH=8
n1_thrd_block=96 n2_thrd_block=44 n3_thrd_block=32
allocating prev, next and vel: total 192 Mbytes
-------------------------------
time:          32.07 sec
throughput:    43.11 MPoints/s
flops:          2.63 GFlops


 tune_launch:['xCacheBlocking', 'yCacheBlocking']

<MeId: 17>
n1=256 n2=256 n3=256 nreps=100 num_threads=4 HALF_LENGTH=8
n1_thrd_block=96 n2_thrd_block=44 n3_thrd_block=32
allocating prev, next and vel: total 192 Mbytes
-------------------------------
time:          31.92 sec
throughput:    43.31 MPoints/s
flops:          2.64 GFlops

<MeId: 17>
n1=256 n2=256 n3=256 nreps=100 num_threads=4 HALF_LENGTH=8
n1_thrd_block=96 n2_thrd_block=40 n3_thrd_block=32
allocating prev, next and vel: total 192 Mbytes
-------------------------------
time:          30.87 sec
throughput:    44.77 MPoints/s
flops:          2.73 GFlops

<MeId: 17>
n1=256 n2=256 n3=256 nreps=100 num_threads=4 HALF_LENGTH=8
n1_thrd_block=96 n2_thrd_block=44 n3_thrd_block=32
allocating prev, next and vel: total 192 Mbytes
-------------------------------
time:          32.01 sec
throughput:    43.19 MPoints/s
flops:          2.63 GFlops

<MeId: 17>
n1=256 n2=256 n3=256 nreps=100 num_threads=4 HALF_LENGTH=8
n1_thrd_block=96 n2_thrd_block=36 n3_thrd_block=32
allocating prev, next and vel: total 192 Mbytes
-------------------------------
time:          29.86 sec
throughput:    46.30 MPoints/s
flops:          2.82 GFlops

<MeId: 18>
n1=256 n2=256 n3=256 nreps=100 num_threads=4 HALF_LENGTH=8
n1_thrd_block=64 n2_thrd_block=60 n3_thrd_block=32
allocating prev, next and vel: total 192 Mbytes
-------------------------------
time:          37.17 sec
throughput:    37.19 MPoints/s
flops:          2.27 GFlops

<MeId: 18>
n1=256 n2=256 n3=256 nreps=100 num_threads=4 HALF_LENGTH=8
n1_thrd_block=64 n2_thrd_block=56 n3_thrd_block=32
allocating prev, next and vel: total 192 Mbytes
-------------------------------
time:          36.12 sec
throughput:    38.27 MPoints/s
flops:          2.33 GFlops

<MeId: 18>
n1=256 n2=256 n3=256 nreps=100 num_threads=4 HALF_LENGTH=8
n1_thrd_block=64 n2_thrd_block=60 n3_thrd_block=32
allocating prev, next and vel: total 192 Mbytes
-------------------------------
time:          36.42 sec
throughput:    37.96 MPoints/s
flops:          2.32 GFlops

<MeId: 18>
n1=256 n2=256 n3=256 nreps=100 num_threads=4 HALF_LENGTH=8
n1_thrd_block=64 n2_thrd_block=56 n3_thrd_block=32
allocating prev, next and vel: total 192 Mbytes
-------------------------------
time:          35.89 sec
throughput:    38.52 MPoints/s
flops:          2.35 GFlops


 tune_launch:['xCacheBlocking', 'yCacheBlocking']

<MeId: 18>
n1=256 n2=256 n3=256 nreps=100 num_threads=4 HALF_LENGTH=8
n1_thrd_block=64 n2_thrd_block=56 n3_thrd_block=32
allocating prev, next and vel: total 192 Mbytes
-------------------------------
time:          35.98 sec
throughput:    38.42 MPoints/s
flops:          2.34 GFlops

<MeId: 18>
n1=256 n2=256 n3=256 nreps=100 num_threads=4 HALF_LENGTH=8
n1_thrd_block=64 n2_thrd_block=60 n3_thrd_block=32
allocating prev, next and vel: total 192 Mbytes
-------------------------------
time:          36.70 sec
throughput:    37.67 MPoints/s
flops:          2.30 GFlops

<MeId: 18>
n1=256 n2=256 n3=256 nreps=100 num_threads=4 HALF_LENGTH=8
n1_thrd_block=64 n2_thrd_block=52 n3_thrd_block=32
allocating prev, next and vel: total 192 Mbytes
-------------------------------
time:          34.95 sec
throughput:    39.56 MPoints/s
flops:          2.41 GFlops

<MeId: 18>
n1=256 n2=256 n3=256 nreps=100 num_threads=4 HALF_LENGTH=8
n1_thrd_block=48 n2_thrd_block=52 n3_thrd_block=32
allocating prev, next and vel: total 192 Mbytes
-------------------------------
time:          35.30 sec
throughput:    39.16 MPoints/s
flops:          2.39 GFlops

<MeId: 19>
n1=256 n2=256 n3=256 nreps=100 num_threads=4 HALF_LENGTH=8
n1_thrd_block=160 n2_thrd_block=84 n3_thrd_block=32
allocating prev, next and vel: total 192 Mbytes
-------------------------------
time:          37.77 sec
throughput:    36.60 MPoints/s
flops:          2.23 GFlops

<MeId: 19>
n1=256 n2=256 n3=256 nreps=100 num_threads=4 HALF_LENGTH=8
n1_thrd_block=160 n2_thrd_block=88 n3_thrd_block=32
allocating prev, next and vel: total 192 Mbytes
-------------------------------
time:          37.28 sec
throughput:    37.08 MPoints/s
flops:          2.26 GFlops

<MeId: 19>
n1=256 n2=256 n3=256 nreps=100 num_threads=4 HALF_LENGTH=8
n1_thrd_block=160 n2_thrd_block=92 n3_thrd_block=32
allocating prev, next and vel: total 192 Mbytes
-------------------------------
time:          37.77 sec
throughput:    36.60 MPoints/s
flops:          2.23 GFlops

<MeId: 19>
n1=256 n2=256 n3=256 nreps=100 num_threads=4 HALF_LENGTH=8
n1_thrd_block=160 n2_thrd_block=96 n3_thrd_block=32
allocating prev, next and vel: total 192 Mbytes
-------------------------------
time:          37.74 sec
throughput:    36.63 MPoints/s
flops:          2.23 GFlops


 tune_launch:['xCacheBlocking', 'yCacheBlocking']

<MeId: 19>
n1=256 n2=256 n3=256 nreps=100 num_threads=4 HALF_LENGTH=8
n1_thrd_block=160 n2_thrd_block=96 n3_thrd_block=32
allocating prev, next and vel: total 192 Mbytes
-------------------------------
time:          37.93 sec
throughput:    36.45 MPoints/s
flops:          2.22 GFlops

<MeId: 19>
n1=256 n2=256 n3=256 nreps=100 num_threads=4 HALF_LENGTH=8
n1_thrd_block=160 n2_thrd_block=92 n3_thrd_block=32
allocating prev, next and vel: total 192 Mbytes
-------------------------------
time:          38.14 sec
throughput:    36.25 MPoints/s
flops:          2.21 GFlops

<MeId: 19>
n1=256 n2=256 n3=256 nreps=100 num_threads=4 HALF_LENGTH=8
n1_thrd_block=176 n2_thrd_block=96 n3_thrd_block=32
allocating prev, next and vel: total 192 Mbytes
-------------------------------
time:          36.40 sec
throughput:    37.97 MPoints/s
flops:          2.32 GFlops

<MeId: 19>
n1=256 n2=256 n3=256 nreps=100 num_threads=4 HALF_LENGTH=8
n1_thrd_block=176 n2_thrd_block=92 n3_thrd_block=32
allocating prev, next and vel: total 192 Mbytes
-------------------------------
time:          33.70 sec
throughput:    41.02 MPoints/s
flops:          2.50 GFlops

<MeId: 20>
n1=256 n2=256 n3=256 nreps=100 num_threads=4 HALF_LENGTH=8
n1_thrd_block=32 n2_thrd_block=92 n3_thrd_block=32
allocating prev, next and vel: total 192 Mbytes
-------------------------------
time:          42.67 sec
throughput:    32.39 MPoints/s
flops:          1.98 GFlops

<MeId: 20>
n1=256 n2=256 n3=256 nreps=100 num_threads=4 HALF_LENGTH=8
n1_thrd_block=16 n2_thrd_block=92 n3_thrd_block=32
allocating prev, next and vel: total 192 Mbytes
-------------------------------
time:          50.70 sec
throughput:    27.27 MPoints/s
flops:          1.66 GFlops

<MeId: 20>
n1=256 n2=256 n3=256 nreps=100 num_threads=4 HALF_LENGTH=8
n1_thrd_block=16 n2_thrd_block=88 n3_thrd_block=32
allocating prev, next and vel: total 192 Mbytes
-------------------------------
time:          50.33 sec
throughput:    27.46 MPoints/s
flops:          1.68 GFlops

<MeId: 20>
n1=256 n2=256 n3=256 nreps=100 num_threads=4 HALF_LENGTH=8
n1_thrd_block=32 n2_thrd_block=88 n3_thrd_block=32
allocating prev, next and vel: total 192 Mbytes
-------------------------------
time:          42.30 sec
throughput:    32.68 MPoints/s
flops:          1.99 GFlops


 tune_launch:['xCacheBlocking', 'yCacheBlocking']

<MeId: 20>
n1=256 n2=256 n3=256 nreps=100 num_threads=4 HALF_LENGTH=8
n1_thrd_block=32 n2_thrd_block=88 n3_thrd_block=32
allocating prev, next and vel: total 192 Mbytes
-------------------------------
time:          42.67 sec
throughput:    32.40 MPoints/s
flops:          1.98 GFlops

<MeId: 20>
n1=256 n2=256 n3=256 nreps=100 num_threads=4 HALF_LENGTH=8
n1_thrd_block=16 n2_thrd_block=88 n3_thrd_block=32
allocating prev, next and vel: total 192 Mbytes
-------------------------------
time:          49.18 sec
throughput:    28.11 MPoints/s
flops:          1.71 GFlops

<MeId: 20>
n1=256 n2=256 n3=256 nreps=100 num_threads=4 HALF_LENGTH=8
n1_thrd_block=48 n2_thrd_block=88 n3_thrd_block=32
allocating prev, next and vel: total 192 Mbytes
-------------------------------
time:          32.43 sec
throughput:    42.62 MPoints/s
flops:          2.60 GFlops

<MeId: 20>
n1=256 n2=256 n3=256 nreps=100 num_threads=4 HALF_LENGTH=8
n1_thrd_block=64 n2_thrd_block=88 n3_thrd_block=32
allocating prev, next and vel: total 192 Mbytes
-------------------------------
time:          25.20 sec
throughput:    54.85 MPoints/s
flops:          3.35 GFlops

<MeId: 21>
n1=256 n2=256 n3=256 nreps=100 num_threads=4 HALF_LENGTH=8
n1_thrd_block=96 n2_thrd_block=116 n3_thrd_block=32
allocating prev, next and vel: total 192 Mbytes
-------------------------------
time:          39.10 sec
throughput:    35.35 MPoints/s
flops:          2.16 GFlops

<MeId: 21>
n1=256 n2=256 n3=256 nreps=100 num_threads=4 HALF_LENGTH=8
n1_thrd_block=96 n2_thrd_block=112 n3_thrd_block=32
allocating prev, next and vel: total 192 Mbytes
-------------------------------
time:          37.68 sec
throughput:    36.69 MPoints/s
flops:          2.24 GFlops

<MeId: 21>
n1=256 n2=256 n3=256 nreps=100 num_threads=4 HALF_LENGTH=8
n1_thrd_block=80 n2_thrd_block=112 n3_thrd_block=32
allocating prev, next and vel: total 192 Mbytes
-------------------------------
time:          35.89 sec
throughput:    38.52 MPoints/s
flops:          2.35 GFlops

<MeId: 21>
n1=256 n2=256 n3=256 nreps=100 num_threads=4 HALF_LENGTH=8
n1_thrd_block=80 n2_thrd_block=116 n3_thrd_block=32
allocating prev, next and vel: total 192 Mbytes
-------------------------------
time:          36.58 sec
throughput:    37.79 MPoints/s
flops:          2.31 GFlops


 tune_launch:['xCacheBlocking', 'yCacheBlocking']

<MeId: 21>
n1=256 n2=256 n3=256 nreps=100 num_threads=4 HALF_LENGTH=8
n1_thrd_block=80 n2_thrd_block=116 n3_thrd_block=32
allocating prev, next and vel: total 192 Mbytes
-------------------------------
time:          37.56 sec
throughput:    36.81 MPoints/s
flops:          2.25 GFlops

<MeId: 21>
n1=256 n2=256 n3=256 nreps=100 num_threads=4 HALF_LENGTH=8
n1_thrd_block=96 n2_thrd_block=116 n3_thrd_block=32
allocating prev, next and vel: total 192 Mbytes
-------------------------------
time:          39.06 sec
throughput:    35.39 MPoints/s
flops:          2.16 GFlops

<MeId: 21>
n1=256 n2=256 n3=256 nreps=100 num_threads=4 HALF_LENGTH=8
n1_thrd_block=80 n2_thrd_block=120 n3_thrd_block=32
allocating prev, next and vel: total 192 Mbytes
-------------------------------
time:          36.56 sec
throughput:    37.82 MPoints/s
flops:          2.31 GFlops

<MeId: 21>
n1=256 n2=256 n3=256 nreps=100 num_threads=4 HALF_LENGTH=8
n1_thrd_block=96 n2_thrd_block=120 n3_thrd_block=32
allocating prev, next and vel: total 192 Mbytes
-------------------------------
time:          36.84 sec
throughput:    37.53 MPoints/s
flops:          2.29 GFlops

<MeId: 24>
n1=256 n2=256 n3=256 nreps=100 num_threads=4 HALF_LENGTH=8
n1_thrd_block=16 n2_thrd_block=12 n3_thrd_block=32
allocating prev, next and vel: total 192 Mbytes
-------------------------------
time:          46.33 sec
throughput:    29.84 MPoints/s
flops:          1.82 GFlops

<MeId: 24>
n1=256 n2=256 n3=256 nreps=100 num_threads=4 HALF_LENGTH=8
n1_thrd_block=16 n2_thrd_block=16 n3_thrd_block=32
allocating prev, next and vel: total 192 Mbytes
-------------------------------
time:          47.19 sec
throughput:    29.30 MPoints/s
flops:          1.79 GFlops

<MeId: 24>
n1=256 n2=256 n3=256 nreps=100 num_threads=4 HALF_LENGTH=8
n1_thrd_block=16 n2_thrd_block=20 n3_thrd_block=32
allocating prev, next and vel: total 192 Mbytes
-------------------------------
time:          47.83 sec
throughput:    28.90 MPoints/s
flops:          1.76 GFlops

<MeId: 24>
n1=256 n2=256 n3=256 nreps=100 num_threads=4 HALF_LENGTH=8
n1_thrd_block=16 n2_thrd_block=24 n3_thrd_block=32
allocating prev, next and vel: total 192 Mbytes
-------------------------------
time:          48.66 sec
throughput:    28.41 MPoints/s
flops:          1.73 GFlops


 tune_launch:['xCacheBlocking', 'yCacheBlocking']

<MeId: 24>
n1=256 n2=256 n3=256 nreps=100 num_threads=4 HALF_LENGTH=8
n1_thrd_block=16 n2_thrd_block=24 n3_thrd_block=32
allocating prev, next and vel: total 192 Mbytes
-------------------------------
time:          48.16 sec
throughput:    28.70 MPoints/s
flops:          1.75 GFlops

<MeId: 24>
n1=256 n2=256 n3=256 nreps=100 num_threads=4 HALF_LENGTH=8
n1_thrd_block=32 n2_thrd_block=24 n3_thrd_block=32
allocating prev, next and vel: total 192 Mbytes
-------------------------------
time:          32.23 sec
throughput:    42.89 MPoints/s
flops:          2.62 GFlops

<MeId: 24>
n1=256 n2=256 n3=256 nreps=100 num_threads=4 HALF_LENGTH=8
n1_thrd_block=48 n2_thrd_block=24 n3_thrd_block=32
allocating prev, next and vel: total 192 Mbytes
-------------------------------
time:          25.37 sec
throughput:    54.50 MPoints/s
flops:          3.32 GFlops

<MeId: 24>
n1=256 n2=256 n3=256 nreps=100 num_threads=4 HALF_LENGTH=8
n1_thrd_block=48 n2_thrd_block=20 n3_thrd_block=32
allocating prev, next and vel: total 192 Mbytes
-------------------------------
time:          23.84 sec
throughput:    57.98 MPoints/s
flops:          3.54 GFlops

<MeId: 25>
n1=256 n2=256 n3=256 nreps=100 num_threads=4 HALF_LENGTH=8
n1_thrd_block=64 n2_thrd_block=68 n3_thrd_block=32
allocating prev, next and vel: total 192 Mbytes
-------------------------------
time:          30.24 sec
throughput:    45.71 MPoints/s
flops:          2.79 GFlops

<MeId: 25>
n1=256 n2=256 n3=256 nreps=100 num_threads=4 HALF_LENGTH=8
n1_thrd_block=80 n2_thrd_block=68 n3_thrd_block=32
allocating prev, next and vel: total 192 Mbytes
-------------------------------
time:          29.34 sec
throughput:    47.12 MPoints/s
flops:          2.87 GFlops

<MeId: 25>
n1=256 n2=256 n3=256 nreps=100 num_threads=4 HALF_LENGTH=8
n1_thrd_block=80 n2_thrd_block=64 n3_thrd_block=32
allocating prev, next and vel: total 192 Mbytes
-------------------------------
time:          28.26 sec
throughput:    48.92 MPoints/s
flops:          2.98 GFlops

<MeId: 25>
n1=256 n2=256 n3=256 nreps=100 num_threads=4 HALF_LENGTH=8
n1_thrd_block=80 n2_thrd_block=60 n3_thrd_block=32
allocating prev, next and vel: total 192 Mbytes
-------------------------------
time:          28.42 sec
throughput:    48.65 MPoints/s
flops:          2.97 GFlops


 tune_launch:['xCacheBlocking', 'yCacheBlocking']

<MeId: 25>
n1=256 n2=256 n3=256 nreps=100 num_threads=4 HALF_LENGTH=8
n1_thrd_block=80 n2_thrd_block=60 n3_thrd_block=32
allocating prev, next and vel: total 192 Mbytes
-------------------------------
time:          28.02 sec
throughput:    49.33 MPoints/s
flops:          3.01 GFlops

<MeId: 25>
n1=256 n2=256 n3=256 nreps=100 num_threads=4 HALF_LENGTH=8
n1_thrd_block=96 n2_thrd_block=60 n3_thrd_block=32
allocating prev, next and vel: total 192 Mbytes
-------------------------------
time:          28.54 sec
throughput:    48.44 MPoints/s
flops:          2.95 GFlops

<MeId: 25>
n1=256 n2=256 n3=256 nreps=100 num_threads=4 HALF_LENGTH=8
n1_thrd_block=64 n2_thrd_block=60 n3_thrd_block=32
allocating prev, next and vel: total 192 Mbytes
-------------------------------
time:          30.20 sec
throughput:    45.77 MPoints/s
flops:          2.79 GFlops

<MeId: 25>
n1=256 n2=256 n3=256 nreps=100 num_threads=4 HALF_LENGTH=8
n1_thrd_block=80 n2_thrd_block=56 n3_thrd_block=32
allocating prev, next and vel: total 192 Mbytes
-------------------------------
time:          27.78 sec
throughput:    49.76 MPoints/s
flops:          3.04 GFlops

<MeId: 26>
n1=256 n2=256 n3=256 nreps=100 num_threads=4 HALF_LENGTH=8
n1_thrd_block=80 n2_thrd_block=32 n3_thrd_block=32
allocating prev, next and vel: total 192 Mbytes
-------------------------------
time:          29.76 sec
throughput:    46.46 MPoints/s
flops:          2.83 GFlops

<MeId: 26>
n1=256 n2=256 n3=256 nreps=100 num_threads=4 HALF_LENGTH=8
n1_thrd_block=80 n2_thrd_block=28 n3_thrd_block=32
allocating prev, next and vel: total 192 Mbytes
-------------------------------
time:          29.31 sec
throughput:    47.16 MPoints/s
flops:          2.88 GFlops

<MeId: 26>
n1=256 n2=256 n3=256 nreps=100 num_threads=4 HALF_LENGTH=8
n1_thrd_block=80 n2_thrd_block=32 n3_thrd_block=32
allocating prev, next and vel: total 192 Mbytes
-------------------------------
time:          29.65 sec
throughput:    46.62 MPoints/s
flops:          2.84 GFlops

<MeId: 26>
n1=256 n2=256 n3=256 nreps=100 num_threads=4 HALF_LENGTH=8
n1_thrd_block=64 n2_thrd_block=32 n3_thrd_block=32
allocating prev, next and vel: total 192 Mbytes
-------------------------------
time:          31.19 sec
throughput:    44.33 MPoints/s
flops:          2.70 GFlops


 tune_launch:['xCacheBlocking', 'yCacheBlocking']

<MeId: 26>
n1=256 n2=256 n3=256 nreps=100 num_threads=4 HALF_LENGTH=8
n1_thrd_block=64 n2_thrd_block=32 n3_thrd_block=32
allocating prev, next and vel: total 192 Mbytes
-------------------------------
time:          31.64 sec
throughput:    43.69 MPoints/s
flops:          2.67 GFlops

<MeId: 26>
n1=256 n2=256 n3=256 nreps=100 num_threads=4 HALF_LENGTH=8
n1_thrd_block=64 n2_thrd_block=36 n3_thrd_block=32
allocating prev, next and vel: total 192 Mbytes
-------------------------------
time:          32.51 sec
throughput:    42.52 MPoints/s
flops:          2.59 GFlops

<MeId: 26>
n1=256 n2=256 n3=256 nreps=100 num_threads=4 HALF_LENGTH=8
n1_thrd_block=80 n2_thrd_block=32 n3_thrd_block=32
allocating prev, next and vel: total 192 Mbytes
-------------------------------
time:          30.59 sec
throughput:    45.19 MPoints/s
flops:          2.76 GFlops

<MeId: 26>
n1=256 n2=256 n3=256 nreps=100 num_threads=4 HALF_LENGTH=8
n1_thrd_block=96 n2_thrd_block=32 n3_thrd_block=32
allocating prev, next and vel: total 192 Mbytes
-------------------------------
time:          30.53 sec
throughput:    45.28 MPoints/s
flops:          2.76 GFlops

<MeId: 27>
n1=256 n2=256 n3=256 nreps=100 num_threads=4 HALF_LENGTH=8
n1_thrd_block=48 n2_thrd_block=52 n3_thrd_block=32
allocating prev, next and vel: total 192 Mbytes
-------------------------------
time:          34.74 sec
throughput:    39.80 MPoints/s
flops:          2.43 GFlops

<MeId: 27>
n1=256 n2=256 n3=256 nreps=100 num_threads=4 HALF_LENGTH=8
n1_thrd_block=48 n2_thrd_block=56 n3_thrd_block=32
allocating prev, next and vel: total 192 Mbytes
-------------------------------
time:          35.34 sec
throughput:    39.12 MPoints/s
flops:          2.39 GFlops

<MeId: 27>
n1=256 n2=256 n3=256 nreps=100 num_threads=4 HALF_LENGTH=8
n1_thrd_block=64 n2_thrd_block=56 n3_thrd_block=32
allocating prev, next and vel: total 192 Mbytes
-------------------------------
time:          32.95 sec
throughput:    41.96 MPoints/s
flops:          2.56 GFlops

<MeId: 27>
n1=256 n2=256 n3=256 nreps=100 num_threads=4 HALF_LENGTH=8
n1_thrd_block=64 n2_thrd_block=60 n3_thrd_block=32
allocating prev, next and vel: total 192 Mbytes
-------------------------------
time:          32.98 sec
throughput:    41.91 MPoints/s
flops:          2.56 GFlops


 tune_launch:['xCacheBlocking', 'yCacheBlocking']

<MeId: 27>
n1=256 n2=256 n3=256 nreps=100 num_threads=4 HALF_LENGTH=8
n1_thrd_block=64 n2_thrd_block=60 n3_thrd_block=32
allocating prev, next and vel: total 192 Mbytes
-------------------------------
time:          33.44 sec
throughput:    41.33 MPoints/s
flops:          2.52 GFlops

<MeId: 27>
n1=256 n2=256 n3=256 nreps=100 num_threads=4 HALF_LENGTH=8
n1_thrd_block=64 n2_thrd_block=64 n3_thrd_block=32
allocating prev, next and vel: total 192 Mbytes
-------------------------------
time:          33.76 sec
throughput:    40.94 MPoints/s
flops:          2.50 GFlops

<MeId: 27>
n1=256 n2=256 n3=256 nreps=100 num_threads=4 HALF_LENGTH=8
n1_thrd_block=80 n2_thrd_block=60 n3_thrd_block=32
allocating prev, next and vel: total 192 Mbytes
-------------------------------
time:          32.49 sec
throughput:    42.55 MPoints/s
flops:          2.60 GFlops

<MeId: 27>
n1=256 n2=256 n3=256 nreps=100 num_threads=4 HALF_LENGTH=8
n1_thrd_block=80 n2_thrd_block=56 n3_thrd_block=32
allocating prev, next and vel: total 192 Mbytes
-------------------------------
time:          30.35 sec
throughput:    45.55 MPoints/s
flops:          2.78 GFlops

<MeId: 28>
n1=256 n2=256 n3=256 nreps=100 num_threads=4 HALF_LENGTH=8
n1_thrd_block=80 n2_thrd_block=128 n3_thrd_block=32
allocating prev, next and vel: total 192 Mbytes
-------------------------------
time:          37.63 sec
throughput:    36.73 MPoints/s
flops:          2.24 GFlops

<MeId: 28>
n1=256 n2=256 n3=256 nreps=100 num_threads=4 HALF_LENGTH=8
n1_thrd_block=80 n2_thrd_block=132 n3_thrd_block=32
allocating prev, next and vel: total 192 Mbytes
-------------------------------
time:          38.10 sec
throughput:    36.29 MPoints/s
flops:          2.21 GFlops

<MeId: 28>
n1=256 n2=256 n3=256 nreps=100 num_threads=4 HALF_LENGTH=8
n1_thrd_block=80 n2_thrd_block=128 n3_thrd_block=32
allocating prev, next and vel: total 192 Mbytes
-------------------------------
time:          37.24 sec
throughput:    37.12 MPoints/s
flops:          2.26 GFlops

<MeId: 28>
n1=256 n2=256 n3=256 nreps=100 num_threads=4 HALF_LENGTH=8
n1_thrd_block=96 n2_thrd_block=128 n3_thrd_block=32
allocating prev, next and vel: total 192 Mbytes
-------------------------------
time:          38.72 sec
throughput:    35.70 MPoints/s
flops:          2.18 GFlops


 tune_launch:['xCacheBlocking', 'yCacheBlocking']

<MeId: 28>
n1=256 n2=256 n3=256 nreps=100 num_threads=4 HALF_LENGTH=8
n1_thrd_block=96 n2_thrd_block=128 n3_thrd_block=32
allocating prev, next and vel: total 192 Mbytes
-------------------------------
time:          39.67 sec
throughput:    34.85 MPoints/s
flops:          2.13 GFlops

<MeId: 28>
n1=256 n2=256 n3=256 nreps=100 num_threads=4 HALF_LENGTH=8
n1_thrd_block=96 n2_thrd_block=124 n3_thrd_block=32
allocating prev, next and vel: total 192 Mbytes
-------------------------------
time:          40.04 sec
throughput:    34.53 MPoints/s
flops:          2.11 GFlops

<MeId: 28>
n1=256 n2=256 n3=256 nreps=100 num_threads=4 HALF_LENGTH=8
n1_thrd_block=96 n2_thrd_block=132 n3_thrd_block=32
allocating prev, next and vel: total 192 Mbytes
-------------------------------
time:          38.85 sec
throughput:    35.59 MPoints/s
flops:          2.17 GFlops

<MeId: 28>
n1=256 n2=256 n3=256 nreps=100 num_threads=4 HALF_LENGTH=8
n1_thrd_block=112 n2_thrd_block=132 n3_thrd_block=32
allocating prev, next and vel: total 192 Mbytes
-------------------------------
time:          37.81 sec
throughput:    36.56 MPoints/s
flops:          2.23 GFlops

<MeId: 29>
n1=256 n2=256 n3=256 nreps=100 num_threads=4 HALF_LENGTH=8
n1_thrd_block=16 n2_thrd_block=152 n3_thrd_block=32
allocating prev, next and vel: total 192 Mbytes
-------------------------------
time:          51.53 sec
throughput:    26.83 MPoints/s
flops:          1.64 GFlops

<MeId: 29>
n1=256 n2=256 n3=256 nreps=100 num_threads=4 HALF_LENGTH=8
n1_thrd_block=16 n2_thrd_block=148 n3_thrd_block=32
allocating prev, next and vel: total 192 Mbytes
-------------------------------
time:          50.90 sec
throughput:    27.16 MPoints/s
flops:          1.66 GFlops

<MeId: 29>
n1=256 n2=256 n3=256 nreps=100 num_threads=4 HALF_LENGTH=8
n1_thrd_block=16 n2_thrd_block=152 n3_thrd_block=32
allocating prev, next and vel: total 192 Mbytes
-------------------------------
time:          50.92 sec
throughput:    27.15 MPoints/s
flops:          1.66 GFlops

<MeId: 29>
n1=256 n2=256 n3=256 nreps=100 num_threads=4 HALF_LENGTH=8
n1_thrd_block=32 n2_thrd_block=152 n3_thrd_block=32
allocating prev, next and vel: total 192 Mbytes
-------------------------------
time:          43.28 sec
throughput:    31.94 MPoints/s
flops:          1.95 GFlops


 tune_launch:['xCacheBlocking', 'yCacheBlocking']

<MeId: 29>
n1=256 n2=256 n3=256 nreps=100 num_threads=4 HALF_LENGTH=8
n1_thrd_block=32 n2_thrd_block=152 n3_thrd_block=32
allocating prev, next and vel: total 192 Mbytes
-------------------------------
time:          43.61 sec
throughput:    31.70 MPoints/s
flops:          1.93 GFlops

<MeId: 29>
n1=256 n2=256 n3=256 nreps=100 num_threads=4 HALF_LENGTH=8
n1_thrd_block=32 n2_thrd_block=148 n3_thrd_block=32
allocating prev, next and vel: total 192 Mbytes
-------------------------------
time:          41.70 sec
throughput:    33.15 MPoints/s
flops:          2.02 GFlops

<MeId: 29>
n1=256 n2=256 n3=256 nreps=100 num_threads=4 HALF_LENGTH=8
n1_thrd_block=32 n2_thrd_block=144 n3_thrd_block=32
allocating prev, next and vel: total 192 Mbytes
-------------------------------
time:          41.15 sec
throughput:    33.60 MPoints/s
flops:          2.05 GFlops

<MeId: 29>
n1=256 n2=256 n3=256 nreps=100 num_threads=4 HALF_LENGTH=8
n1_thrd_block=48 n2_thrd_block=144 n3_thrd_block=32
allocating prev, next and vel: total 192 Mbytes
-------------------------------
time:          34.68 sec
throughput:    39.86 MPoints/s
flops:          2.43 GFlops

<MeId: 30>
n1=256 n2=256 n3=256 nreps=100 num_threads=4 HALF_LENGTH=8
n1_thrd_block=160 n2_thrd_block=104 n3_thrd_block=32
allocating prev, next and vel: total 192 Mbytes
-------------------------------
time:          36.98 sec
throughput:    37.38 MPoints/s
flops:          2.28 GFlops

<MeId: 30>
n1=256 n2=256 n3=256 nreps=100 num_threads=4 HALF_LENGTH=8
n1_thrd_block=160 n2_thrd_block=108 n3_thrd_block=32
allocating prev, next and vel: total 192 Mbytes
-------------------------------
time:          38.72 sec
throughput:    35.70 MPoints/s
flops:          2.18 GFlops

<MeId: 30>
n1=256 n2=256 n3=256 nreps=100 num_threads=4 HALF_LENGTH=8
n1_thrd_block=176 n2_thrd_block=108 n3_thrd_block=32
allocating prev, next and vel: total 192 Mbytes
-------------------------------
time:          39.21 sec
throughput:    35.25 MPoints/s
flops:          2.15 GFlops

<MeId: 30>
n1=256 n2=256 n3=256 nreps=100 num_threads=4 HALF_LENGTH=8
n1_thrd_block=160 n2_thrd_block=108 n3_thrd_block=32
allocating prev, next and vel: total 192 Mbytes
-------------------------------
time:          38.24 sec
throughput:    36.15 MPoints/s
flops:          2.21 GFlops


 tune_launch:['xCacheBlocking', 'yCacheBlocking']

<MeId: 30>
n1=256 n2=256 n3=256 nreps=100 num_threads=4 HALF_LENGTH=8
n1_thrd_block=160 n2_thrd_block=108 n3_thrd_block=32
allocating prev, next and vel: total 192 Mbytes
-------------------------------
time:          38.02 sec
throughput:    36.36 MPoints/s
flops:          2.22 GFlops

<MeId: 30>
n1=256 n2=256 n3=256 nreps=100 num_threads=4 HALF_LENGTH=8
n1_thrd_block=144 n2_thrd_block=108 n3_thrd_block=32
allocating prev, next and vel: total 192 Mbytes
-------------------------------
time:          37.79 sec
throughput:    36.58 MPoints/s
flops:          2.23 GFlops

<MeId: 30>
n1=256 n2=256 n3=256 nreps=100 num_threads=4 HALF_LENGTH=8
n1_thrd_block=160 n2_thrd_block=108 n3_thrd_block=32
allocating prev, next and vel: total 192 Mbytes
-------------------------------
time:          36.43 sec
throughput:    37.94 MPoints/s
flops:          2.31 GFlops

<MeId: 30>
n1=256 n2=256 n3=256 nreps=100 num_threads=4 HALF_LENGTH=8
n1_thrd_block=160 n2_thrd_block=112 n3_thrd_block=32
allocating prev, next and vel: total 192 Mbytes
-------------------------------
time:          35.45 sec
throughput:    39.00 MPoints/s
flops:          2.38 GFlops

<MeId: 31>
n1=256 n2=256 n3=256 nreps=100 num_threads=4 HALF_LENGTH=8
n1_thrd_block=32 n2_thrd_block=56 n3_thrd_block=32
allocating prev, next and vel: total 192 Mbytes
-------------------------------
time:          42.10 sec
throughput:    32.84 MPoints/s
flops:          2.00 GFlops

<MeId: 31>
n1=256 n2=256 n3=256 nreps=100 num_threads=4 HALF_LENGTH=8
n1_thrd_block=32 n2_thrd_block=60 n3_thrd_block=32
allocating prev, next and vel: total 192 Mbytes
-------------------------------
time:          42.13 sec
throughput:    32.81 MPoints/s
flops:          2.00 GFlops

<MeId: 31>
n1=256 n2=256 n3=256 nreps=100 num_threads=4 HALF_LENGTH=8
n1_thrd_block=48 n2_thrd_block=60 n3_thrd_block=32
allocating prev, next and vel: total 192 Mbytes
-------------------------------
time:          37.70 sec
throughput:    36.67 MPoints/s
flops:          2.24 GFlops

<MeId: 31>
n1=256 n2=256 n3=256 nreps=100 num_threads=4 HALF_LENGTH=8
n1_thrd_block=32 n2_thrd_block=60 n3_thrd_block=32
allocating prev, next and vel: total 192 Mbytes
-------------------------------
time:          41.85 sec
throughput:    33.03 MPoints/s
flops:          2.02 GFlops


 tune_launch:['xCacheBlocking', 'yCacheBlocking']

<MeId: 31>
n1=256 n2=256 n3=256 nreps=100 num_threads=4 HALF_LENGTH=8
n1_thrd_block=32 n2_thrd_block=60 n3_thrd_block=32
allocating prev, next and vel: total 192 Mbytes
-------------------------------
time:          41.87 sec
throughput:    33.02 MPoints/s
flops:          2.01 GFlops

<MeId: 31>
n1=256 n2=256 n3=256 nreps=100 num_threads=4 HALF_LENGTH=8
n1_thrd_block=32 n2_thrd_block=56 n3_thrd_block=32
allocating prev, next and vel: total 192 Mbytes
-------------------------------
time:          41.76 sec
throughput:    33.10 MPoints/s
flops:          2.02 GFlops

<MeId: 31>
n1=256 n2=256 n3=256 nreps=100 num_threads=4 HALF_LENGTH=8
n1_thrd_block=32 n2_thrd_block=60 n3_thrd_block=32
allocating prev, next and vel: total 192 Mbytes
-------------------------------
time:          40.33 sec
throughput:    34.28 MPoints/s
flops:          2.09 GFlops

<MeId: 31>
n1=256 n2=256 n3=256 nreps=100 num_threads=4 HALF_LENGTH=8
n1_thrd_block=16 n2_thrd_block=60 n3_thrd_block=32
allocating prev, next and vel: total 192 Mbytes
-------------------------------
time:          49.26 sec
throughput:    28.06 MPoints/s
flops:          1.71 GFlops

PE:  0 / 32 : all processes started
#####################################################
INITIAL MAKE CALLED: with -O3 avx512
#####################################################
<MeId: 0>
n1=256 n2=256 n3=256 nreps=100 num_threads=4 HALF_LENGTH=8
n1_thrd_block=112 n2_thrd_block=68 n3_thrd_block=32
allocating prev, next and vel: total 192 Mbytes
-------------------------------
time:          36.37 sec
throughput:    38.01 MPoints/s
flops:          2.32 GFlops

<MeId: 0>
n1=256 n2=256 n3=256 nreps=100 num_threads=4 HALF_LENGTH=8
n1_thrd_block=128 n2_thrd_block=68 n3_thrd_block=32
allocating prev, next and vel: total 192 Mbytes
-------------------------------
time:          35.41 sec
throughput:    39.04 MPoints/s
flops:          2.38 GFlops

<MeId: 0>
n1=256 n2=256 n3=256 nreps=100 num_threads=4 HALF_LENGTH=8
n1_thrd_block=144 n2_thrd_block=68 n3_thrd_block=32
allocating prev, next and vel: total 192 Mbytes
-------------------------------
time:          35.70 sec
throughput:    38.72 MPoints/s
flops:          2.36 GFlops

<MeId: 0>
n1=256 n2=256 n3=256 nreps=100 num_threads=4 HALF_LENGTH=8
n1_thrd_block=144 n2_thrd_block=72 n3_thrd_block=32
allocating prev, next and vel: total 192 Mbytes
-------------------------------
time:          35.30 sec
throughput:    39.16 MPoints/s
flops:          2.39 GFlops


 tune_launch:['xCacheBlocking', 'yCacheBlocking']

<MeId: 0>
n1=256 n2=256 n3=256 nreps=100 num_threads=4 HALF_LENGTH=8
n1_thrd_block=144 n2_thrd_block=72 n3_thrd_block=32
allocating prev, next and vel: total 192 Mbytes
-------------------------------
time:          35.75 sec
throughput:    38.67 MPoints/s
flops:          2.36 GFlops

<MeId: 0>
n1=256 n2=256 n3=256 nreps=100 num_threads=4 HALF_LENGTH=8
n1_thrd_block=144 n2_thrd_block=68 n3_thrd_block=32
allocating prev, next and vel: total 192 Mbytes
-------------------------------
time:          35.08 sec
throughput:    39.40 MPoints/s
flops:          2.40 GFlops

<MeId: 0>
n1=256 n2=256 n3=256 nreps=100 num_threads=4 HALF_LENGTH=8
n1_thrd_block=128 n2_thrd_block=68 n3_thrd_block=32
allocating prev, next and vel: total 192 Mbytes
-------------------------------
time:          35.12 sec
throughput:    39.36 MPoints/s
flops:          2.40 GFlops

<MeId: 0>
n1=256 n2=256 n3=256 nreps=100 num_threads=4 HALF_LENGTH=8
n1_thrd_block=144 n2_thrd_block=64 n3_thrd_block=32
allocating prev, next and vel: total 192 Mbytes
-------------------------------
time:          34.02 sec
throughput:    40.64 MPoints/s
flops:          2.48 GFlops

FINAL RESULTS --------------------------------------------------------------//

      RESULTS OF THE BEST PERFORMING RUN (with ['annealing']):
      - Minimum energy found: 23.84 (by process #24 after 3 iterations)
      - Starting parameters for tunable fields (xCacheBlocking, yCacheBlocking):
        [16 12]
      - Final parameters for tunable fields:
        [48 20]
      
Press enter to exit, <y> and enter to print results from all processes.
[34.02 32.17 34.92 27.58 37.22 35.85 25.95 30.7  31.79 28.58 27.16 31.21
 35.74 36.26 35.7  31.71 33.34 29.86 34.95 33.7  25.2  36.56 29.17 33.9
 23.84 27.78 30.53 30.35 37.81 34.68 35.45 40.33] [144  64 160 116  16  80 128  24 160 144  48 124 160 144  80  32  48 136
 144  24 112 136 160  44 112  80  48 100  64  64 160 152  32 120  96  36
  64  52 176  92  64  88  80 120  80  12  64  96  48  20  80  56  96  32
  80  56 112 132  48 144 160 112  32  60] [112  68 160 112  48  80 112  28 128 140  32 108 160 136  80  36  48 144
 144  20  80 144 160  48 144  80  48 100  96  60 160 152  48 120  96  56
  64  60 160  84  32  92  96 116  80  12  64  96  16  12  64  68  80  32
  48  52  80 128  16 152 160 104  32  56] [3 3 3 3 3 3 3 3 3 3 3 3 3 3 3 3 3 3 3 3 3 3 3 3 3 3 3 3 3 3 3 3]
PE:  0 / 32  bye!